Division,WeightClassKg,Place,Name,Team,BodyweightKg,Best3SquatKg,Best3BenchKg,Best3DeadliftKg,TotalKg,Equipment,Event,Sex,BirthDate
Boys,51.71,1,Erik Orta,Victoria West,51.07,149.69,81.65,154.22,385.55,Single-ply,SBD,M,
Boys,51.71,2,Jose Chapa,Ben Bolt-Palito Blanco,50.39,108.86,52.16,115.67,276.69,Single-ply,SBD,M,
Boys,55.79,1,Michael Contreras,Alice,53.07,133.81,83.91,156.49,374.21,Single-ply,SBD,M,
Boys,55.79,2,John Paul Acosta,Victoria West,53.75,133.81,90.72,140.61,365.14,Single-ply,SBD,M,
Boys,55.79,3,Connor Rackley,Corpus Christi Calallen,54.34,117.93,86.18,142.88,347,Single-ply,SBD,M,
Boys,55.79,4,Brandon Perez,Victoria West,54.7,124.74,70.31,149.69,344.73,Single-ply,SBD,M,
Boys,55.79,5,Trenton Budell,Orange Grove,55.43,129.27,79.38,124.74,333.39,Single-ply,SBD,M,
Boys,55.79,6,Victor Roberson,Victoria East,52.71,131.54,65.77,131.54,328.85,Single-ply,SBD,M,
Boys,55.79,7,Gabriel Flores,Victoria West,54.39,108.86,61.23,129.27,299.37,Single-ply,SBD,M,
Boys,55.79,8,Brandon Acosta,Corpus Christi Calallen,55.75,102.06,58.97,97.52,258.55,Single-ply,SBD,M,
Boys,55.79,DQ,John Contreras,Beeville Jones,55.52,,,,,Single-ply,SBD,M,
Boys,59.87,1,Ceyth Grevey,Victoria East,58.65,192.78,95.25,188.24,476.27,Single-ply,SBD,M,
Boys,59.87,2,Ezra Salazar,Corpus Christi Tuloso-Midway,58.97,179.17,99.79,197.31,476.27,Single-ply,SBD,M,
Boys,59.87,3,Riley Banda,Victoria West,59.19,136.08,74.84,165.56,376.48,Single-ply,SBD,M,
Boys,59.87,4,Caleb De La Cerda,Corpus Christi Tuloso-Midway,58.29,124.74,97.52,129.27,351.53,Single-ply,SBD,M,
Boys,59.87,DQ,Major Holland,Corpus Christi Calallen,59.19,,,,,Single-ply,SBD,M,
Boys,59.87,DQ,Taylor Swinnea,Skidmore-Tynan,58.47,,,,,Single-ply,SBD,M,
Boys,59.87,DQ,Ivan Medina,Ben Bolt-Palito Blanco,59.87,,,,,Single-ply,SBD,M,
Boys,67.13,1,Josh Trevino,Corpus Christi West Oso,67.13,242.67,136.08,210.92,589.67,Single-ply,SBD,M,
Boys,67.13,2,Gilbert Perez,Corpus Christi Tuloso-Midway,65.63,172.37,108.86,176.9,458.13,Single-ply,SBD,M,
Boys,67.13,3,Mason Gwosdz,Victoria East,65.41,195.04,99.79,158.76,453.59,Single-ply,SBD,M,
Boys,67.13,4,Ian Lockard,Orange Grove,66.86,161.03,90.72,156.49,408.23,Single-ply,SBD,M,
Boys,67.13,5,Draven Garza,Victoria East,64.55,161.03,88.45,149.69,399.16,Single-ply,SBD,M,
Boys,67.13,6,Glenn Giddens,Woodsboro,64.55,142.88,74.84,158.76,376.48,Single-ply,SBD,M,
Boys,67.13,7,Fancisco Torres,Taft,66.63,142.88,77.11,156.49,376.48,Single-ply,SBD,M,
Boys,67.13,8,Jaime Caltzonzin,Victoria West,65.27,131.54,86.18,149.69,367.41,Single-ply,SBD,M,
Boys,67.13,9,Matthew Rodriguez,Corpus Christi Tuloso-Midway,64.32,136.08,83.91,142.88,362.87,Single-ply,SBD,M,
Boys,67.13,10,Jayden Gutierrez,Corpus Christi Tuloso-Midway,63.64,106.59,74.84,131.54,312.98,Single-ply,SBD,M,
Boys,67.13,11,Kaden Cooper,Corpus Christi Calallen,60.92,111.13,74.84,102.06,288.03,Single-ply,SBD,M,
Boys,67.13,DQ,Tayden Grimes,Woodsboro,61.73,68.04,83.91,,,Single-ply,SBD,M,
Boys,67.13,DQ,Jason Carmona,Victoria East,60.6,,,,,Single-ply,SBD,M,
Boys,67.13,DQ,Nick Garza,Taft,60.69,124.74,,,,Single-ply,SBD,M,
Boys,67.13,DQ,Justin Pierce,Orange Grove,60.24,,,,,Single-ply,SBD,M,
Boys,74.84,1,Joseph Chavez,Taft,74.39,226.8,117.93,204.12,548.85,Single-ply,SBD,M,
Boys,74.84,2,Noah Neibrandt,Victoria West,74.43,179.17,111.13,190.51,480.81,Single-ply,SBD,M,
Boys,74.84,3,Mikal Niembro,George West,69.22,183.7,117.93,158.76,460.4,Single-ply,SBD,M,
Boys,74.84,4,Nick Garza,Alice,70.44,170.1,92.99,179.17,442.25,Single-ply,SBD,M,
Boys,74.84,5,Jordan Stafford,Victoria East,74.84,161.03,97.52,176.9,435.45,Single-ply,SBD,M,
Boys,74.84,6,Adam Dominguez,Woodsboro,72.03,181.44,86.18,161.03,428.64,Single-ply,SBD,M,
Boys,74.84,7,Jacob Jenicke,Victoria West,72.85,179.17,81.65,156.49,417.3,Single-ply,SBD,M,
Boys,74.84,8,Rodrick Tilley,Victoria West,68.31,149.69,92.99,158.76,401.43,Single-ply,SBD,M,
Boys,74.84,9,Antonio Vasquez,Orange Grove,71.12,136.08,95.25,147.42,378.75,Single-ply,SBD,M,
Boys,74.84,10,Kendan Henicke,George West,70.58,142.88,79.38,149.69,371.95,Single-ply,SBD,M,
Boys,74.84,11,Caden Payne,Corpus Christi Calallen,70.99,138.35,74.84,145.15,358.34,Single-ply,SBD,M,
Boys,74.84,12,Dylan Medina,Ben Bolt-Palito Blanco,67.4,108.86,61.23,138.35,308.44,Single-ply,SBD,M,
Boys,74.84,DQ,Zachariah Smith,Beeville Jones,69.85,201.85,,,,Single-ply,SBD,M,
Boys,74.84,DQ,Juan Garcia,Beeville Jones,73.84,,,,,Single-ply,SBD,M,
Boys,74.84,DQ,Josiah Carrillo,Corpus Christi Tuloso-Midway,74.66,102.06,,,,Single-ply,SBD,M,
Boys,74.84,DQ,Joseph Reyes,Corpus Christi West Oso,69.31,,,,,Single-ply,SBD,M,
Boys,74.84,DQ,Noah Kiser,Corpus Christi Tuloso-Midway,71.08,,,,,Single-ply,SBD,M,
Boys,74.84,DQ,Mark Waul,Victoria West,74.03,,,,,Single-ply,SBD,M,
Boys,82.1,1,Justin Fowler,George West,81.06,210.92,142.88,204.12,557.92,Single-ply,SBD,M,
Boys,82.1,2,Daniel Martinez,Victoria East,81.19,222.26,127.01,206.38,555.65,Single-ply,SBD,M,
Boys,82.1,3,Randal Delgado,Victoria East,80.51,226.8,106.59,190.51,523.9,Single-ply,SBD,M,
Boys,82.1,4,Aiden Wilde,Alice,80.69,183.7,115.67,195.04,494.42,Single-ply,SBD,M,
Boys,82.1,5,Joaquin Soliz,Corpus Christi Calallen,80.78,188.24,102.06,201.85,492.15,Single-ply,SBD,M,
Boys,82.1,6,Devin Garza,Orange Grove,78.11,170.1,106.59,190.51,467.2,Single-ply,SBD,M,
Boys,82.1,7,Marcello Nieto,Taft,79.51,183.7,92.99,183.7,460.4,Single-ply,SBD,M,
Boys,82.1,8,Jayden Kemp,Corpus Christi Tuloso-Midway,81.65,170.1,120.2,170.1,460.4,Single-ply,SBD,M,
Boys,82.1,9,Kamauri Montgomery,Victoria West,80.51,174.63,88.45,174.63,437.72,Single-ply,SBD,M,
Boys,82.1,10,Jacob Martin,Beeville Jones,81.69,163.29,95.25,170.1,428.64,Single-ply,SBD,M,
Boys,82.1,11,Fernando Vega,Corpus Christi West Oso,76.16,158.76,97.52,167.83,424.11,Single-ply,SBD,M,
Boys,82.1,12,Gavin Favela,Corpus Christi Tuloso-Midway,81.51,145.15,108.86,163.29,417.3,Single-ply,SBD,M,
Boys,82.1,13,Cash Gonzales,Orange Grove,78.11,172.37,74.84,154.22,401.43,Single-ply,SBD,M,
Boys,82.1,14,Rafael Arrieta,Victoria West,79.33,142.88,83.91,174.63,401.43,Single-ply,SBD,M,
Boys,82.1,15,Parker Garza,Beeville Jones,81.78,149.69,74.84,151.95,376.48,Single-ply,SBD,M,
Boys,82.1,16,Gilbert Herrera,Corpus Christi Calallen,82.01,133.81,90.72,151.95,376.48,Single-ply,SBD,M,
Boys,82.1,17,Henry Engelking,Orange Grove,78.88,136.08,77.11,151.95,365.14,Single-ply,SBD,M,
Boys,82.1,DQ,Kristopher Laughlin,Skidmore-Tynan,78.43,,,,,Single-ply,SBD,M,
Boys,82.1,DQ,Mauricio Parra,Ben Bolt-Palito Blanco,79.92,,,,,Single-ply,SBD,M,
Boys,82.1,DQ,Arve Vasquez,Beeville Jones,80.24,,,,,Single-ply,SBD,M,
Boys,89.81,1,Devon Munoz,Corpus Christi West Oso,88.04,238.14,219.99,242.67,700.8,Single-ply,SBD,M,
Boys,89.81,2,Seth Neibrandt,Victoria West,88.5,254.01,154.22,267.62,675.85,Single-ply,SBD,M,
Boys,89.81,3,Matthew Ortiz,Orange Grove,88.59,222.26,145.15,217.72,585.13,Single-ply,SBD,M,
Boys,89.81,4,Keegan Westmoreland,Skidmore-Tynan,87.68,231.33,120.2,208.65,560.19,Single-ply,SBD,M,
Boys,89.81,5,Xavier Salazar,Victoria East,88.63,192.78,117.93,244.94,555.65,Single-ply,SBD,M,
Boys,89.81,6,Arnold Navarro,Ben Bolt-Palito Blanco,85.23,210.92,124.74,210.92,546.58,Single-ply,SBD,M,
Boys,89.81,7,Nick Lazo,Corpus Christi Tuloso-Midway,83.73,197.31,127.01,206.38,530.7,Single-ply,SBD,M,
Boys,89.81,8,Aydon Sarate,Beeville Jones,84.59,199.58,136.08,183.7,519.36,Single-ply,SBD,M,
Boys,89.81,9,Jacoby Flores,Victoria West,86.68,165.56,88.45,183.7,437.72,Single-ply,SBD,M,
Boys,89.81,10,Jallen Medina,George West,87.09,147.42,79.38,142.88,369.68,Single-ply,SBD,M,
Boys,89.81,11,Thaddeus Cisneros,Alice,88.41,124.74,92.99,151.95,369.68,Single-ply,SBD,M,
Boys,89.81,DQ,Michael Guajardo,Corpus Christi Tuloso-Midway,89.72,,,,,Single-ply,SBD,M,
Boys,89.81,DQ,Ean Flores,Victoria West,87.5,102.06,,,,Single-ply,SBD,M,
Boys,89.81,DQ,Dayshaun Huerta,Victoria West,88.5,181.44,,,,Single-ply,SBD,M,
Boys,99.79,1,Damian Diaz,Victoria West,98.88,226.8,122.47,233.6,582.87,Single-ply,SBD,M,
Boys,99.79,2,Matthew Salinas,Beeville Jones,92.62,222.26,117.93,208.65,548.85,Single-ply,SBD,M,
Boys,99.79,3,Isaac Reyes,Corpus Christi West Oso,91.81,183.7,147.42,195.04,526.17,Single-ply,SBD,M,
Boys,99.79,4,Joshua Jarmen,Corpus Christi Calallen,91.9,199.58,120.2,197.31,517.1,Single-ply,SBD,M,
Boys,99.79,5,Marcos Acosta,Corpus Christi Calallen,98.25,183.7,113.4,165.56,462.66,Single-ply,SBD,M,
Boys,99.79,6,Jacob Ramos,Corpus Christi West Oso,94.66,151.95,113.4,183.7,449.06,Single-ply,SBD,M,
Boys,99.79,7,Ramiro Cantu,Alice,97.43,138.35,92.99,151.95,383.29,Single-ply,SBD,M,
Boys,99.79,DQ,Sean Quintanilla,Corpus Christi Tuloso-Midway,95.89,172.37,,,,Single-ply,SBD,M,
Boys,99.79,DQ,Vicente Perez,Taft,95.93,129.27,70.31,,,Single-ply,SBD,M,
Boys,109.77,1,Ryan Cain,Victoria East,104.73,328.85,147.42,274.42,750.7,Single-ply,SBD,M,
Boys,109.77,2,Xavier Aleman,Beeville Jones,109.68,256.28,179.17,210.92,646.37,Single-ply,SBD,M,
Boys,109.77,3,Victor DelBosque,Orange Grove,103.83,244.94,147.42,215.46,607.81,Single-ply,SBD,M,
Boys,109.77,4,Grant Taylor,Corpus Christi Calallen,107.05,233.6,142.88,188.24,564.72,Single-ply,SBD,M,
Boys,109.77,5,Nathan Reyes,Corpus Christi West Oso,107.68,195.04,142.88,215.46,553.38,Single-ply,SBD,M,
Boys,109.77,6,Jace Hofstetter,Corpus Christi Calallen,105.87,192.78,120.2,185.97,498.95,Single-ply,SBD,M,
Boys,109.77,7,Joshua Minto,Corpus Christi Tuloso-Midway,108.41,183.7,113.4,174.63,471.74,Single-ply,SBD,M,
Boys,109.77,8,Ethan Sanchez,Alice,103.24,136.08,79.38,149.69,365.14,Single-ply,SBD,M,
Boys,109.77,9,Dakota Cardona,Alice,106.5,111.13,79.38,111.13,301.64,Single-ply,SBD,M,
Boys,109.77,DQ,Anastacio Lopez,Taft,104.55,,,,,Single-ply,SBD,M,
Boys,124.74,1,Robert Kroen,Corpus Christi Tuloso-Midway,123.65,272.16,185.97,242.67,700.8,Single-ply,SBD,M,
Boys,124.74,2,Macario Martinez,Victoria East,122.65,281.23,158.76,235.87,675.85,Single-ply,SBD,M,
Boys,124.74,3,Joaquin Tagle,Corpus Christi Calallen,115.39,190.51,156.49,183.7,530.7,Single-ply,SBD,M,
Boys,124.74,4,Tucker Carpenter,George West,112.99,183.7,108.86,161.03,453.59,Single-ply,SBD,M,
Boys,124.74,5,Arnulfo Pugo,Beeville Jones,117.98,183.7,106.59,161.03,451.32,Single-ply,SBD,M,
Boys,124.74,6,Daniel Adamez,Beeville Jones,120.25,176.9,90.72,158.76,426.38,Single-ply,SBD,M,
Boys,124.74,7,Jacob Shephard,Corpus Christi Calallen,114.99,158.76,95.25,170.1,424.11,Single-ply,SBD,M,
Boys,124.74,8,Jakob Ramos,Ben Bolt-Palito Blanco,118.8,156.49,90.72,161.03,408.23,Single-ply,SBD,M,
Boys,124.74,9,Anthony Leyba,Corpus Christi West Oso,112.22,147.42,111.13,142.88,401.43,Single-ply,SBD,M,
Boys,124.74,10,Christopher Goodman,Ben Bolt-Palito Blanco,111.04,136.08,90.72,149.69,376.48,Single-ply,SBD,M,
Boys,124.74,DQ,Jacob Gomez,Taft,124.42,204.12,127.01,,,Single-ply,SBD,M,
Boys,124.74,DQ,Raul Pacheco,Alice,122.11,,,,,Single-ply,SBD,M,
Boys,124.74,DQ,Christopher Leyba,Corpus Christi West Oso,121.15,,,,,Single-ply,SBD,M,
Boys,124.74,DQ,Luis Islas,Victoria West,112.85,226.8,120.2,,,Single-ply,SBD,M,
Boys,139.71,1,Cooper Kliem,Victoria East,132.86,258.55,138.35,204.12,601.01,Single-ply,SBD,M,
Boys,139.71,2,Conrad Padron,Skidmore-Tynan,136.89,208.65,138.35,183.7,530.7,Single-ply,SBD,M,
Boys,139.71,3,Patrick Davis,Corpus Christi Calallen,136.98,151.95,142.88,181.44,476.27,Single-ply,SBD,M,
Boys,139.71,4,Joe Hernandez,Corpus Christi West Oso,128.46,183.7,142.88,142.88,469.47,Single-ply,SBD,M,
Boys,139.71,5,Jaeden Fraire,Victoria West,135.4,142.88,86.18,158.76,387.82,Single-ply,SBD,M,
Boys,139.71,6,Adam Alvarez,Corpus Christi Tuloso-Midway,128.05,142.88,99.79,142.88,385.55,Single-ply,SBD,M,
Boys,139.71+,1,Eduardo Lino,Corpus Christi West Oso,186.43,61.23,102.06,142.88,306.17,Single-ply,SBD,M,
