Division,WeightClassKg,Place,Name,Team,BodyweightKg,Best3SquatKg,Best3BenchKg,Best3DeadliftKg,TotalKg,Equipment,Event,Sex
Boys,51.71,DQ,Chris Vivero,Bryan,50.26,,,,,Single-ply,SBD,M
Boys,55.79,2,Connor Evans #3,Conroe The Woodlands,51.89,106.59,65.77,131.54,303.91,Single-ply,SBD,M
Boys,51.71,3,Cooper Houston,Montgomery,51.26,108.86,61.23,113.4,283.5,Single-ply,SBD,M
Boys,51.71,4,Trent Taylor,Shepherd,49.9,95.25,61.23,102.06,258.55,Single-ply,SBD,M
Boys,55.79,5,Charlie Gordon,Conroe The Woodlands,51.8,86.18,49.9,97.52,233.6,Single-ply,SBD,M
Boys,51.71,6,Ryan Kerr,Conroe Woodlands College Park,48.58,72.57,40.82,79.38,192.78,Single-ply,SBD,M
Boys,55.79,1,Steven Cook,Shepherd,53.93,108.86,65.77,124.74,299.37,Single-ply,SBD,M
Boys,55.79,2,Jose Duenes,Shepherd,53.98,99.79,68.04,127.01,294.84,Single-ply,SBD,M
Boys,59.87,3,Logan Teal,Conroe Woodlands College Park,55.84,102.06,56.7,120.2,278.96,Single-ply,SBD,M
Boys,55.79,4,Stephen Cook,Shepherd,54.39,86.18,58.97,124.74,269.89,Single-ply,SBD,M
Boys,59.87,1,Garrett Shantz,Montgomery,58.69,142.88,86.18,158.76,387.82,Single-ply,SBD,M
Boys,59.87,2,Dylan Heaton,Montgomery,58.88,136.08,95.25,145.15,376.48,Single-ply,SBD,M
Boys,59.87,3,John-Bradley Green,Conroe Woodlands College Park,59.33,131.54,77.11,161.03,369.68,Single-ply,SBD,M
Boys,59.87,4,Sterling Scott,Conroe The Woodlands,58.24,140.61,70.31,156.49,367.41,Single-ply,SBD,M
Boys,67.13,1,Jared Wetuski,Montgomery,64.09,240.4,142.88,215.46,598.74,Single-ply,SBD,M
Boys,67.13,2,Zerrick Merchant,College Station A&M Cons,65.27,222.26,127.01,247.21,596.47,Single-ply,SBD,M
Boys,67.13,3,Craig Collins,Conroe The Woodlands,66.77,181.44,104.33,181.44,467.2,Single-ply,SBD,M
Boys,67.13,4,Steven McCartha,Montgomery,64.46,181.44,111.13,163.29,455.86,Single-ply,SBD,M
Boys,74.84,5,Terrence Leonard,Conroe,67.18,167.83,113.4,174.63,455.86,Single-ply,SBD,M
Boys,67.13,6,Caffery Penn,Conroe The Woodlands,62.1,163.29,95.25,185.97,444.52,Single-ply,SBD,M
Boys,67.13,7,Akeem Green,Conroe The Woodlands,66.22,151.95,90.72,181.44,424.11,Single-ply,SBD,M
Boys,67.13,8,Josh Courvelle,Shepherd,61.14,142.88,86.18,156.49,385.55,Single-ply,SBD,M
Boys,67.13,9,Albert Cortez,Bryan,60.24,147.42,81.65,149.69,378.75,Single-ply,SBD,M
Boys,67.13,10,Colton Wetuski,Montgomery,66.45,138.35,81.65,138.35,358.34,Single-ply,SBD,M
Boys,67.13,11,Bona Run,Shepherd,60.6,124.74,74.84,131.54,331.12,Single-ply,SBD,M
Boys,67.13,12,Zac Thomas,Shepherd,60.87,131.54,70.31,124.74,326.59,Single-ply,SBD,M
Boys,67.13,13,Edward Yao,Conroe The Woodlands,64.46,117.93,77.11,131.54,326.59,Single-ply,SBD,M
Boys,74.84,14,Tristan Horton,Conroe The Woodlands,67.31,86.18,90.72,131.54,308.44,Single-ply,SBD,M
Boys,67.13,15,Zach Hawkins,Conroe The Woodlands,60.55,92.99,81.65,117.93,292.57,Single-ply,SBD,M
Boys,67.13,16,Marcus Perkins,Shepherd,60.42,77.11,61.23,120.2,258.55,Single-ply,SBD,M
Boys,74.84,1,Pete Quintero,Bryan,74.21,201.85,131.54,217.72,551.11,Single-ply,SBD,M
Boys,74.84,2,John Patty,Montgomery,72.8,215.46,129.27,195.04,539.77,Single-ply,SBD,M
Boys,74.84,3,Matt Gray,Conroe,73.39,192.78,133.81,197.31,523.9,Single-ply,SBD,M
Boys,74.84,4,Carson Neal,Montgomery,73.07,154.22,99.79,174.63,428.64,Single-ply,SBD,M
Boys,74.84,5,Damiyon Harris,Conroe,73.07,156.49,90.72,161.03,408.23,Single-ply,SBD,M
Boys,74.84,6,Cody Mullens,Montgomery,70.44,145.15,99.79,156.49,401.43,Single-ply,SBD,M
Boys,74.84,7,Dillon Blackwell,Conroe Woodlands College Park,69.13,124.74,72.57,165.56,362.87,Single-ply,SBD,M
Boys,74.84,8,Chris Kinzie,Conroe The Woodlands,68.08,115.67,88.45,147.42,351.53,Single-ply,SBD,M
Boys,74.84,9,Kyle Brennan,Conroe The Woodlands,74.43,122.47,77.11,136.08,335.66,Single-ply,SBD,M
Boys,74.84,10,Josh Kiser,Conroe The Woodlands,70.85,113.4,72.57,138.35,324.32,Single-ply,SBD,M
Boys,74.84,11,Jack Alexander,Conroe The Woodlands,70.53,113.4,77.11,127.01,317.51,Single-ply,SBD,M
Boys,74.84,12,Royce See,Shepherd,68.99,108.86,70.31,131.54,310.71,Single-ply,SBD,M
Boys,82.1,1,Jessie Hooper,Montgomery,79.61,226.8,147.42,217.72,591.94,Single-ply,SBD,M
Boys,82.1,2,George Franklin,Montgomery,81.24,181.44,117.93,204.12,503.49,Single-ply,SBD,M
Boys,82.1,3,Alex Hryshchyshyn,Conroe The Woodlands,78.34,170.1,97.52,197.31,464.93,Single-ply,SBD,M
Boys,82.1,4,Cj Lilly,Conroe Woodlands College Park,81.19,163.29,117.93,181.44,462.66,Single-ply,SBD,M
Boys,82.1,5,Thomas Guillen,Conroe,75.43,174.63,97.52,174.63,446.79,Single-ply,SBD,M
Boys,82.1,6,Kyle Peterson,Conroe The Woodlands,76.38,140.61,90.72,142.88,374.21,Single-ply,SBD,M
Boys,82.1,7,Corey Sanders,Conroe The Woodlands,81.24,113.4,83.91,154.22,351.53,Single-ply,SBD,M
Boys,82.1,8,Colby Clark,Shepherd,76.88,131.54,70.31,122.47,324.32,Single-ply,SBD,M
Boys,82.1,DQ,Dustin Wolf,Conroe The Woodlands,76.29,113.4,74.84,,,Single-ply,SBD,M
Boys,82.1,DQ,Austen Reaves,Conroe The Woodlands,81.19,151.95,,,,Single-ply,SBD,M
Boys,89.81,1,DJ Levias,College Station A&M Cons,88.86,272.16,154.22,263.08,689.46,Single-ply,SBD,M
Boys,89.81,2,Mitchell Fountain,Conroe The Woodlands,88.04,244.94,142.88,260.82,648.64,Single-ply,SBD,M
Boys,99.79,3,Michael Clouston,College Station A&M Cons,89.99,238.14,129.27,210.92,578.33,Single-ply,SBD,M
Boys,89.81,4,Jason Paul,Conroe Woodlands College Park,88.95,222.26,122.47,195.04,539.77,Single-ply,SBD,M
Boys,89.81,5,Jamon Anderson,Montgomery,87.68,206.38,113.4,215.46,535.24,Single-ply,SBD,M
Boys,89.81,6,Sammy Garza,Montgomery,84.96,208.65,124.74,176.9,510.29,Single-ply,SBD,M
Boys,89.81,7,Patrick McCloud,Conroe The Woodlands,84.55,172.37,99.79,213.19,485.34,Single-ply,SBD,M
Boys,89.81,8,Andrew Danheim,Conroe The Woodlands,85.73,183.7,113.4,172.37,469.47,Single-ply,SBD,M
Boys,89.81,9,Jake Cole,Montgomery,86.05,181.44,104.33,170.1,455.86,Single-ply,SBD,M
Boys,89.81,10,Mark Love,Conroe The Woodlands,85.18,156.49,95.25,185.97,437.72,Single-ply,SBD,M
Boys,89.81,11,Gage Dempster,Montgomery,85.64,170.1,99.79,165.56,435.45,Single-ply,SBD,M
Boys,89.81,12,Philip Holden,Shepherd,88.86,158.76,86.18,188.24,433.18,Single-ply,SBD,M
Boys,89.81,13,Mike Ciaramitaro,Conroe The Woodlands,85.87,156.49,111.13,163.29,430.91,Single-ply,SBD,M
Boys,89.81,DQ,Taylor Faridifar,Conroe,85.28,206.38,,,,Single-ply,SBD,M
Boys,89.81,DQ,Wyatt Chalmers,Montgomery,89.09,,,,,Single-ply,SBD,M
Boys,99.79,1,Michael Hodges,Conroe The Woodlands,97.98,249.48,154.22,254.01,657.71,Single-ply,SBD,M
Boys,99.79,2,Luis Garcia #2,College Station A&M Cons,92.71,240.4,136.08,231.33,607.81,Single-ply,SBD,M
Boys,99.79,3,Brian Jones,Montgomery,92.12,215.46,142.88,217.72,576.06,Single-ply,SBD,M
Boys,99.79,4,Chad Murski,Conroe Woodlands College Park,98.66,226.8,117.93,215.46,560.19,Single-ply,SBD,M
Boys,99.79,5,Cory Goosby,Bryan,95.57,208.65,122.47,217.72,548.85,Single-ply,SBD,M
Boys,99.79,6,Chad Campagna,Conroe,99.38,201.85,133.81,181.44,517.1,Single-ply,SBD,M
Boys,99.79,7,Justin Trow,Montgomery,96.39,183.7,95.25,185.97,464.93,Single-ply,SBD,M
Boys,99.79,8,Ignacio Salinas,Conroe,90.26,176.9,97.52,181.44,455.86,Single-ply,SBD,M
Boys,99.79,9,Chris Baker #5,Shepherd,99.52,158.76,95.25,174.63,428.64,Single-ply,SBD,M
Boys,99.79,10,Angel Fabela,Conroe,96.12,165.56,99.79,158.76,424.11,Single-ply,SBD,M
Boys,99.79,11,Jason Zgourides,Conroe The Woodlands,97.48,145.15,106.59,158.76,410.5,Single-ply,SBD,M
Boys,99.79,12,Jonathan Marshall,Shepherd,91.4,122.47,86.18,145.15,353.8,Single-ply,SBD,M
Boys,99.79,13,Everett Stevenson,Shepherd,91.81,136.08,68.04,124.74,328.85,Single-ply,SBD,M
Boys,99.79,DQ,Nathan Klawinsky,Montgomery,99.25,215.46,,,,Single-ply,SBD,M
Boys,109.77,1,Wyatt Smith,College Station A&M Cons,108.14,272.16,142.88,213.19,628.23,Single-ply,SBD,M
Boys,109.77,2,Connor Greer,Conroe,103.83,213.19,145.15,249.48,607.81,Single-ply,SBD,M
Boys,109.77,3,Kenny Furches,Conroe The Woodlands,104.69,238.14,129.27,224.53,591.94,Single-ply,SBD,M
Boys,109.77,4,Dustin Castleberry,Montgomery,107.5,215.46,136.08,204.12,555.65,Single-ply,SBD,M
Boys,109.77,5,William Demmings,Conroe,108.05,219.99,113.4,188.24,521.63,Single-ply,SBD,M
Boys,109.77,6,Keaton Nelson,Conroe Woodlands College Park,106.96,185.97,108.86,181.44,476.27,Single-ply,SBD,M
Boys,109.77,7,Markho Babasoro,College Station A&M Cons,107.91,195.04,97.52,179.17,471.74,Single-ply,SBD,M
Boys,109.77,8,Miguel Fabela,Conroe,102.6,172.37,106.59,174.63,453.59,Single-ply,SBD,M
Boys,109.77,9,Sam Grubbs #2,Conroe Woodlands College Park,106.28,174.63,97.52,172.37,444.52,Single-ply,SBD,M
Boys,124.74,1,Kyle Kavanaugh,College Station A&M Cons,111.86,249.48,120.2,219.99,589.67,Single-ply,SBD,M
Boys,124.74,2,Blake Teasdale,Montgomery,118.61,204.12,163.29,222.26,589.67,Single-ply,SBD,M
Boys,124.74,3,Brad Carley,Conroe Woodlands College Park,119.02,208.65,136.08,199.58,544.31,Single-ply,SBD,M
Boys,124.74,4,Grant Bonnette,Conroe The Woodlands,117.98,215.46,129.27,188.24,532.97,Single-ply,SBD,M
Boys,124.74,5,Kenny Butts,Conroe The Woodlands,117.44,190.51,136.08,190.51,517.1,Single-ply,SBD,M
Boys,124.74,6,Tyler Rapp,Conroe The Woodlands,113.31,192.78,124.74,188.24,505.76,Single-ply,SBD,M
Boys,124.74,7,Michael DeJournett,Conroe Woodlands College Park,120.84,190.51,111.13,181.44,483.08,Single-ply,SBD,M
Boys,124.74,8,Justin Mathiesen,Conroe Woodlands College Park,110.86,154.22,83.91,145.15,383.29,Single-ply,SBD,M
Boys,124.74,DQ,Jake Pullara,Montgomery,120.11,217.72,147.42,,,Single-ply,SBD,M
Boys,124.74+,1,Michael Cervera,Conroe Woodlands College Park,129.55,297.1,161.03,226.8,684.92,Single-ply,SBD,M
Boys,124.74+,2,Keith Lewis,Bryan,129.59,285.76,154.22,235.87,675.85,Single-ply,SBD,M
Boys,124.74+,3,Dimitri Carpenter,Conroe,135.9,265.35,158.76,247.21,671.32,Single-ply,SBD,M
Boys,124.74+,4,Kevin Keasling,Shepherd,127.01,213.19,77.11,190.51,480.81,Single-ply,SBD,M
Boys,124.74+,5,Edward Cook,Montgomery,128.64,163.29,117.93,149.69,430.91,Single-ply,SBD,M
Boys,124.74+,6,Robbie Belk,Conroe The Woodlands,138.48,163.29,108.86,149.69,421.84,Single-ply,SBD,M
