Division,WeightClassKg,Place,Name,Team,BodyweightKg,Best3SquatKg,Best3BenchKg,Best3DeadliftKg,TotalKg,Equipment,Event,Sex,BirthDate
Boys,51.71,1,Josiah Ugart,South San Antonio,49.53,90.72,43.09,111.13,244.94,Single-ply,SBD,M,
Boys,55.79,1,Joseph Salazar,Cotulla,55.07,151.95,104.33,176.9,433.18,Single-ply,SBD,M,
Boys,55.79,2,Diego Mendoza,Devine,54.61,142.88,61.23,136.08,340.19,Single-ply,SBD,M,
Boys,55.79,3,Isreal Andrade,Lytle,55.16,97.52,68.04,131.54,297.1,Single-ply,SBD,M,
Boys,59.87,1,Eric Lopez,Castroville Medina Valley,56.29,183.7,102.06,188.24,474,Single-ply,SBD,M,
Boys,59.87,2,Alex Garcia #2,Cotulla,58.88,181.44,106.59,170.1,458.13,Single-ply,SBD,M,
Boys,59.87,3,Devin McDole,Natalia,57.7,92.99,56.7,127.01,276.69,Single-ply,SBD,M,
Boys,59.87,DQ,Jose Gonzalez,Cotulla,59.87,,,,,Single-ply,SBD,M,
Boys,67.13,1,Joshua Bazan,Castroville Medina Valley,66.27,215.46,142.88,204.12,562.45,Single-ply,SBD,M,
Boys,67.13,2,Joseph Bazan,Castroville Medina Valley,65.54,192.78,120.2,219.99,532.97,Single-ply,SBD,M,
Boys,67.13,3,Jacob Garcia,Cotulla,67.13,206.38,127.01,197.31,530.7,Single-ply,SBD,M,
Boys,67.13,4,Seth DeLeon,Devine,66.45,158.76,113.4,172.37,444.52,Single-ply,SBD,M,
Boys,67.13,5,Amadeus Trejo,Lytle,62.96,170.1,81.65,147.42,399.16,Single-ply,SBD,M,
Boys,67.13,6,Luke Estrada,Lytle,64.59,124.74,88.45,145.15,358.34,Single-ply,SBD,M,
Boys,67.13,7,Anthony Hernandez,Cotulla,66.63,92.99,79.38,142.88,315.25,Single-ply,SBD,M,
Boys,67.13,8,Jansel Rodriguez,Cotulla,61.33,86.18,58.97,86.18,231.33,Single-ply,SBD,M,
Boys,67.13,DQ,Rudy Cepeda,Lytle,67.13,,,,,Single-ply,SBD,M,
Boys,74.84,1,Eric Hernandez,Devine,74.66,249.48,136.08,249.48,635.03,Single-ply,SBD,M,
Boys,74.84,2,Adrian Vasquez,Natalia,74.66,217.72,108.86,217.72,544.31,Single-ply,SBD,M,
Boys,74.84,3,DJ McCulley,Castroville Medina Valley,68.04,174.63,115.67,206.38,496.68,Single-ply,SBD,M,
Boys,74.84,4,Patrick Jass,Castroville Medina Valley,74.62,183.7,102.06,201.85,487.61,Single-ply,SBD,M,
Boys,74.84,5,Deuce Cano,Dilley,74.71,174.63,115.67,183.7,474,Single-ply,SBD,M,
Boys,74.84,6,Bubba Reyes,Dilley,72.85,174.63,104.33,183.7,462.66,Single-ply,SBD,M,
Boys,74.84,7,Dakota Custer,Dilley,68.49,147.42,102.06,183.7,433.18,Single-ply,SBD,M,
Boys,74.84,8,Michael Alvarado,Devine,74.84,113.4,102.06,195.04,410.5,Single-ply,SBD,M,
Boys,74.84,9,Jaysen Ramirez,Devine,69.49,113.4,68.04,147.42,328.85,Single-ply,SBD,M,
Boys,82.1,1,Jason Vega,Lytle,80.74,204.12,113.4,226.8,544.31,Single-ply,SBD,M,
Boys,82.1,2,Bobby Peterson,Castroville Medina Valley,75.48,183.7,102.06,226.8,512.56,Single-ply,SBD,M,
Boys,82.1,3,Frank Orosco,South San Antonio,81.74,195.04,117.93,195.04,508.02,Single-ply,SBD,M,
Boys,82.1,4,Sasar Garcia,Cotulla,78.24,167.83,108.86,183.7,460.4,Single-ply,SBD,M,
Boys,82.1,5,Jacob Guajardo,Devine,80.33,174.63,115.67,165.56,455.86,Single-ply,SBD,M,
Boys,82.1,6,Richard Gonzalez,Castroville Medina Valley,79.51,149.69,79.38,183.7,412.77,Single-ply,SBD,M,
Boys,82.1,7,Marcus Ramos,Natalia,77.75,149.69,70.31,176.9,396.89,Single-ply,SBD,M,
Boys,82.1,8,Jacob Sambrano,Cotulla,75.8,127.01,92.99,142.88,362.87,Single-ply,SBD,M,
Boys,82.1,DQ,Nick Acosta,South San Antonio,82.1,,,,,Single-ply,SBD,M,
Boys,89.81,1,Mario Diaz,Lytle,89.49,226.8,115.67,256.28,598.74,Single-ply,SBD,M,
Boys,89.81,2,Zach Martinez,Devine,88.41,226.8,149.69,190.51,566.99,Single-ply,SBD,M,
Boys,89.81,3,Rudy Velasquez,Cotulla,88.95,181.44,138.35,204.12,523.9,Single-ply,SBD,M,
Boys,89.81,4,Rafael Estala,Devine,88.22,185.97,113.4,208.65,508.02,Single-ply,SBD,M,
Boys,89.81,5,Layne Schuchart,Castroville Medina Valley,85.87,165.56,102.06,201.85,469.47,Single-ply,SBD,M,
Boys,89.81,6,Hector Bernal,Devine,87.18,195.04,99.79,167.83,462.66,Single-ply,SBD,M,
Boys,89.81,7,Brady Forman,Castroville Medina Valley,86.23,151.95,102.06,163.29,417.3,Single-ply,SBD,M,
Boys,89.81,8,Maddox Casares,Dilley,89.58,147.42,92.99,142.88,383.29,Single-ply,SBD,M,
Boys,99.79,1,Seth Bullard,Castroville Medina Valley,95.98,249.48,170.1,238.14,657.71,Single-ply,SBD,M,
Boys,99.79,2,Vicente Correa,Dilley,95.8,233.6,147.42,226.8,607.81,Single-ply,SBD,M,
Boys,99.79,3,Johnny Lascano,Devine,95.44,249.48,136.08,215.46,601.01,Single-ply,SBD,M,
Boys,99.79,4,Gaylen Garcia,Natalia,92.53,235.87,131.54,217.72,585.13,Single-ply,SBD,M,
Boys,99.79,5,Austin Dubose,Lytle,99.2,183.7,142.88,208.65,535.24,Single-ply,SBD,M,
Boys,99.79,6,Westin Schwarz,Castroville Medina Valley,91.4,192.78,111.13,188.24,492.15,Single-ply,SBD,M,
Boys,99.79,7,Luis Buentello,Natalia,95.62,183.7,111.13,176.9,471.74,Single-ply,SBD,M,
Boys,99.79,8,Maximus Pedroza,Devine,99.06,102.06,86.18,145.15,333.39,Single-ply,SBD,M,
Boys,99.79,9,Thomas Garcia,Cotulla,98.7,99.79,65.77,142.88,308.44,Single-ply,SBD,M,
Boys,99.79,DQ,Samuel Diaz,Devine,96.21,156.49,,,,Single-ply,SBD,M,
Boys,109.77,1,Genaro Rocha,South San Antonio,107.64,260.82,136.08,226.8,623.69,Single-ply,SBD,M,
Boys,109.77,2,Adrian Carrazco,Dilley,109.77,195.04,172.37,201.85,569.26,Single-ply,SBD,M,
Boys,109.77,3,Lionel Martinez,Dilley,100.52,124.74,88.45,142.88,356.07,Single-ply,SBD,M,
Boys,124.74,1,Cj Beal,Castroville Medina Valley,119.75,204.12,124.74,197.31,526.17,Single-ply,SBD,M,
Boys,124.74,2,Xavier Laque,Natalia,124.6,185.97,106.59,192.78,485.34,Single-ply,SBD,M,
Boys,124.74,DQ,Israel Ramos,South San Antonio,110.63,,,,,Single-ply,SBD,M,
Boys,124.74,DQ,Raul Molina,Dilley,123.88,165.56,,176.9,,Single-ply,SBD,M,
Boys,139.71,1,Kaleb Linares,Cotulla,125.65,276.69,163.29,226.8,666.78,Single-ply,SBD,M,
Boys,139.71,DQ,Eric Rodriguez,Dilley,130.63,,102.06,,,Single-ply,SBD,M,
Boys,139.71+,1,Victor Moreno,Cotulla,155.13,183.7,131.54,206.38,521.63,Single-ply,SBD,M,
Boys,139.71+,2,Jacob Delaney,Devine,145.65,195.04,117.93,206.38,519.36,Single-ply,SBD,M,
Boys,139.71+,3,Alex Alvarez #2,Dilley,145.65,102.06,61.23,102.06,265.35,Single-ply,SBD,M,
