Division,WeightClassKg,Place,Name,Team,BodyweightKg,Best3SquatKg,Best3BenchKg,Best3DeadliftKg,TotalKg,Equipment,Event,Sex,BirthDate
Boys,51.71,1,Benito Barrera,Laredo Johnson,50.62,104.33,61.23,108.86,274.42,Single-ply,SBD,M,
Boys,51.71,2,Pedro Garza,Carrizo Springs,50.53,83.91,43.09,127.01,254.01,Single-ply,SBD,M,
Boys,51.71,3,Angel Martinez #12,Laredo Johnson,48.9,92.99,52.16,90.72,235.87,Single-ply,SBD,M,
Boys,67.13,1,Anthony Gallegos,La Pryor,66.04,176.9,120.2,183.7,480.81,Single-ply,SBD,M,
Boys,67.13,2,Nico Uballe,La Pryor,62.87,145.15,104.33,154.22,403.7,Single-ply,SBD,M,
Boys,67.13,3,Austin Harris,Rocksprings,65.68,142.88,102.06,145.15,390.09,Single-ply,SBD,M,
Boys,67.13,4,Leo Lira,Carrizo Springs,64.41,113.4,70.31,142.88,326.59,Single-ply,SBD,M,
Boys,67.13,5,Silas Diaz,Laredo Alexander,66.04,113.4,49.9,142.88,306.17,Single-ply,SBD,M,
Boys,67.13,6,Nicholas Cruz,Carrizo Springs,66.59,106.59,70.31,129.27,306.17,Single-ply,SBD,M,
Boys,67.13,DQ,Chris Kitterman,Laredo Johnson,64.14,142.88,117.93,,,Single-ply,SBD,M,
Boys,74.84,1,Luis Uballe,La Pryor,68.31,181.44,108.86,199.58,489.88,Single-ply,SBD,M,
Boys,74.84,2,Leonardo Sena,Laredo Johnson,73.39,170.1,142.88,172.37,485.34,Single-ply,SBD,M,
Boys,74.84,3,Marcos Gonzalez,Laredo Alexander,73.48,170.1,120.2,192.78,483.08,Single-ply,SBD,M,
Boys,74.84,4,Carlos Mora,Laredo Alexander,72.48,183.7,92.99,195.04,471.74,Single-ply,SBD,M,
Boys,74.84,5,Michael Reyes,Carrizo Springs,74.8,117.93,86.18,165.56,369.68,Single-ply,SBD,M,
Boys,74.84,6,Ricardo Sanchez,Laredo Johnson,70.67,127.01,68.04,147.42,342.46,Single-ply,SBD,M,
Boys,74.84,7,Carlos Salazar,Carrizo Springs,73.03,102.06,65.77,138.35,306.17,Single-ply,SBD,M,
Boys,82.1,1,Jarrett Gest,Carrizo Springs,82.1,226.8,147.42,217.72,591.94,Single-ply,SBD,M,
Boys,82.1,2,Arturo Gonzalez,La Pryor,79.83,195.04,129.27,206.38,530.7,Single-ply,SBD,M,
Boys,82.1,3,Hector Garcia #3,Carrizo Springs,77.29,167.83,108.86,165.56,442.25,Single-ply,SBD,M,
Boys,82.1,4,Carlos Rojas,Laredo Alexander,79.65,161.03,92.99,172.37,426.38,Single-ply,SBD,M,
Boys,82.1,5,Sebastian Martinez,Laredo Alexander,77.93,136.08,90.72,163.29,390.09,Single-ply,SBD,M,
Boys,82.1,6,Salvador Guerrero,Laredo Johnson,80.2,167.83,79.38,142.88,390.09,Single-ply,SBD,M,
Boys,82.1,7,David Betancourt,Laredo Johnson,81.74,127.01,83.91,147.42,358.34,Single-ply,SBD,M,
Boys,89.81,1,Ethan Hyde,Rocksprings,84.73,185.97,113.4,215.46,514.83,Single-ply,SBD,M,
Boys,89.81,2,Saul Ramos,La Pryor,86.73,190.51,117.93,179.17,487.61,Single-ply,SBD,M,
Boys,89.81,3,Sebastian Rodriguez,Laredo Johnson,85.64,142.88,99.79,183.7,426.38,Single-ply,SBD,M,
Boys,89.81,4,Andrew Mancha,Laredo Johnson,87.27,156.49,102.06,165.56,424.11,Single-ply,SBD,M,
Boys,89.81,DQ,Gerado Enriquez,Laredo Alexander,88.54,242.67,,,,Single-ply,SBD,M,
Boys,99.79,1,Kyle Sanders,Rocksprings,92.44,249.48,120.2,195.04,564.72,Single-ply,SBD,M,
Boys,99.79,2,Peter Figueroa,Laredo Johnson,98.16,201.85,120.2,206.38,528.44,Single-ply,SBD,M,
Boys,99.79,3,Jorge Saldana,Laredo Alexander,92.62,192.78,115.67,204.12,512.56,Single-ply,SBD,M,
Boys,99.79,4,Esteban Caballero,Laredo Alexander,97.43,183.7,124.74,183.7,492.15,Single-ply,SBD,M,
Boys,99.79,5,Jose Esqueda,Laredo Alexander,93.53,190.51,90.72,192.78,474,Single-ply,SBD,M,
Boys,99.79,6,Jared Hale,La Pryor,92.35,183.7,92.99,183.7,460.4,Single-ply,SBD,M,
Boys,99.79,7,Zach Robles,La Pryor,96.34,170.1,106.59,154.22,430.91,Single-ply,SBD,M,
Boys,99.79,8,Marcos Garcia,Carrizo Springs,98.43,149.69,83.91,183.7,417.3,Single-ply,SBD,M,
Boys,99.79,9,Jordan Trujillo,Carrizo Springs,99.79,111.13,99.79,99.79,310.71,Single-ply,SBD,M,
Boys,99.79,DQ,Carlo Vega,Laredo Johnson,94.53,142.88,,,,Single-ply,SBD,M,
Boys,109.77,1,Alfredo Segura,Carrizo Springs,106.5,310.71,170.1,283.5,764.3,Single-ply,SBD,M,
Boys,109.77,2,Julio Jimenez,Carrizo Springs,100.79,142.88,90.72,183.7,417.3,Single-ply,SBD,M,
Boys,109.77,3,Maunel Gutierrez,Carrizo Springs,102.97,124.74,68.04,124.74,317.51,Single-ply,SBD,M,
Boys,124.74,1,Kristian Jimenez,Laredo Alexander,124.74,288.03,192.78,281.23,762.04,Single-ply,SBD,M,
Boys,124.74,2,John Michael Kirkland,Rocksprings,111.58,272.16,149.69,260.82,682.66,Single-ply,SBD,M,
Boys,124.74,3,Adolfo Flores,La Pryor,119.29,231.33,142.88,219.99,594.21,Single-ply,SBD,M,
Boys,124.74,4,Dustin Jackson,La Pryor,124.74,174.63,90.72,185.97,451.32,Single-ply,SBD,M,
Boys,139.71,1,Tolbert Garcia,Laredo Alexander,136.71,231.33,142.88,233.6,607.81,Single-ply,SBD,M,
Boys,139.71,2,Ehud Mendez,Laredo Alexander,139.16,240.4,120.2,247.21,607.81,Single-ply,SBD,M,
Boys,139.71,3,Ezra Aranda,La Pryor,130.91,183.7,124.74,208.65,517.1,Single-ply,SBD,M,
Boys,139.71+,1,Gerado Medrano,Laredo Johnson,146.69,226.8,117.93,219.99,564.72,Single-ply,SBD,M,
Boys,,NS,Beau Hernandez,Rocksprings,,,,,,Single-ply,SBD,M,
Boys,,NS,Roberto Rivas,Rocksprings,,,,,,Single-ply,SBD,M,
Boys,,NS,Valentin Garza,La Pryor,,,,,,Single-ply,SBD,M,
Boys,,NS,Christian Lopez,La Pryor,,,,,,Single-ply,SBD,M,
Boys,,NS,Andrew Lozano,La Pryor,,,,,,Single-ply,SBD,M,
