Division,WeightClassKg,Place,Name,Team,BodyweightKg,Best3SquatKg,Best3BenchKg,Best3DeadliftKg,TotalKg,Equipment,Event,Sex,BirthDate
Boys,51.71,1,Ivan Sifuentes,Wills Point,51.71,149.69,88.45,142.88,381.02,Single-ply,SBD,M,
Boys,51.71,2,Michael Klemiuk,Farmersville,49.9,124.74,54.43,127.01,306.17,Single-ply,SBD,M,
Boys,51.71,3,Mario Guajardo,Wills Point,49.9,95.25,61.23,108.86,265.35,Single-ply,SBD,M,
Boys,51.71,DQ,Rafe McComack,Farmersville,51.71,,,,,Single-ply,SBD,M,
Boys,55.79,1,Caleb Webb,Wills Point,55.61,136.08,77.11,122.47,335.66,Single-ply,SBD,M,
Boys,55.79,2,Carter Sullivan,Kemp,53.43,90.72,68.04,102.06,260.82,Single-ply,SBD,M,
Boys,55.79,DQ,Ryne Moncier,Princeton,53.98,,,,,Single-ply,SBD,M,
Boys,59.87,1,Karson Owens,Mount Pleasant Chapel Hill,59.87,149.69,95.25,172.37,417.3,Single-ply,SBD,M,
Boys,59.87,2,Rocky Bonilla,Kaufman,59.33,120.2,56.7,149.69,326.59,Single-ply,SBD,M,
Boys,59.87,3,Sheldon Taylor,Wills Point,59.42,102.06,68.04,145.15,315.25,Single-ply,SBD,M,
Boys,59.87,4,Nathaniel Manzano,Princeton,58.97,92.99,49.9,104.33,247.21,Single-ply,SBD,M,
Boys,59.87,DQ,Davis Njoroge,Wills Point,58.69,,,,,Single-ply,SBD,M,
Boys,59.87,DQ,Avery Gordon,Farmersville,59.87,,,,,Single-ply,SBD,M,
Boys,59.87,DQ,Berlanga Richard,Eustace,59.87,,,,,Single-ply,SBD,M,
Boys,67.13,1,Leonel Padron,Quinlan Ford,66.59,217.72,106.59,183.7,508.02,Single-ply,SBD,M,
Boys,67.13,2,Jeromy Griffin,Quinlan Ford,65.86,192.78,117.93,183.7,494.42,Single-ply,SBD,M,
Boys,67.13,3,Juan Muñoz,Quinlan Ford,65.41,190.51,113.4,188.24,492.15,Single-ply,SBD,M,
Boys,67.13,4,Lane Davis,Mount Pleasant Chapel Hill,64.77,158.76,102.06,158.76,419.57,Single-ply,SBD,M,
Boys,67.13,5,Camden Smith,Caddo Mills,66.77,161.03,102.06,138.35,401.43,Single-ply,SBD,M,
Boys,67.13,6,Alejandro Mojica,South Garland,61.33,151.95,86.18,161.03,399.16,Single-ply,SBD,M,
Boys,67.13,7,Tristan Perry,Ennis,61.23,147.42,92.99,149.69,390.09,Single-ply,SBD,M,
Boys,67.13,8,Bruce Yamamura,North Forney,63.78,108.86,77.11,131.54,317.51,Single-ply,SBD,M,
Boys,67.13,9,William Murphy,Farmersville,63.96,104.33,65.77,120.2,290.3,Single-ply,SBD,M,
Boys,67.13,10,Noah Marshall,Quinlan Ford,62.6,90.72,52.16,108.86,251.74,Single-ply,SBD,M,
Boys,67.13,DQ,Zackary Williams,Princeton,66.95,170.1,,,,Single-ply,SBD,M,
Boys,67.13,DQ,Ruger Cates,Wills Point,67.13,,,,,Single-ply,SBD,M,
Boys,67.13,DQ,Mayson White,Mount Pleasant Chapel Hill,67.13,,,,,Single-ply,SBD,M,
Boys,74.84,1,Jacob Tull,Farmersville,73.48,231.33,136.08,222.26,589.67,Single-ply,SBD,M,
Boys,74.84,2,Jose Villanueva,Kemp,74.66,244.94,149.69,195.04,589.67,Single-ply,SBD,M,
Boys,74.84,3,Gabriel Westlake,Quinlan Ford,72.85,222.26,127.01,206.38,555.65,Single-ply,SBD,M,
Boys,74.84,4,Logan Baker,Eustace,74.48,192.78,117.93,188.24,498.95,Single-ply,SBD,M,
Boys,74.84,5,Max Sellers,Ennis,70.03,190.51,122.47,183.7,496.68,Single-ply,SBD,M,
Boys,74.84,6,Chase Mays,Mount Pleasant Chapel Hill,72.12,172.37,124.74,192.78,489.88,Single-ply,SBD,M,
Boys,74.84,7,Mitchum Patterson,Kaufman,73.66,167.83,115.67,192.78,476.27,Single-ply,SBD,M,
Boys,74.84,8,Will Nguyen,Princeton,70.49,174.63,124.74,170.1,469.47,Single-ply,SBD,M,
Boys,74.84,9,Kase Mumphrey,Crandall,72.39,165.56,115.67,183.7,464.93,Single-ply,SBD,M,
Boys,74.84,10,Kadin Juarez,Ennis,70.13,172.37,115.67,174.63,462.66,Single-ply,SBD,M,
Boys,74.84,11,Jack Sutton,Ennis,68.86,158.76,115.67,154.22,428.64,Single-ply,SBD,M,
Boys,74.84,12,Monty Vandemeer,Wills Point,71.94,151.95,92.99,163.29,408.23,Single-ply,SBD,M,
Boys,74.84,13,Rufino Medrano,Crandall,73.3,129.27,106.59,140.61,376.48,Single-ply,SBD,M,
Boys,74.84,14,Jeremy Elliot,Kaufman,71.03,122.47,72.57,170.1,365.14,Single-ply,SBD,M,
Boys,74.84,15,Aidan Sanford,Eustace,73.39,133.81,70.31,136.08,340.19,Single-ply,SBD,M,
Boys,74.84,16,Levi Smith,Farmersville,74.48,122.47,79.38,136.08,337.93,Single-ply,SBD,M,
Boys,74.84,17,Caden Laing,North Forney,73.57,106.59,74.84,122.47,303.91,Single-ply,SBD,M,
Boys,74.84,18,Ethan Warzyk,North Forney,70.49,102.06,83.91,113.4,299.37,Single-ply,SBD,M,
Boys,74.84,DQ,Bradley Gage,Caddo Mills,72.39,190.51,102.06,,,Single-ply,SBD,M,
Boys,74.84,DQ,AJ Gonzales,Princeton,70.31,163.29,,,,Single-ply,SBD,M,
Boys,74.84,DQ,Peercen Taylor,Eustace,74.84,,,,,Single-ply,SBD,M,
Boys,74.84,DQ,Julian Prox,Kaufman,74.84,,,,,Single-ply,SBD,M,
Boys,82.1,1,Brayden Gardner,Ennis,81.37,267.62,199.58,231.33,698.53,Single-ply,SBD,M,
Boys,82.1,2,Adrian Baxter,Caddo Mills,79.65,201.85,133.81,215.46,551.11,Single-ply,SBD,M,
Boys,82.1,3,Josh Onourah,Crandall,77.02,181.44,108.86,176.9,467.2,Single-ply,SBD,M,
Boys,82.1,4,Kindall Sanders,North Forney,76.2,149.69,117.93,167.83,435.45,Single-ply,SBD,M,
Boys,82.1,5,Collin Haley,Kemp,80.47,172.37,92.99,156.49,421.84,Single-ply,SBD,M,
Boys,82.1,6,Jayden Reed,Kaufman,76.02,142.88,99.79,174.63,417.3,Single-ply,SBD,M,
Boys,82.1,7,Dawson Etheridge,North Forney,78.93,142.88,111.13,161.03,415.04,Single-ply,SBD,M,
Boys,82.1,8,Vilmer Zamaron,Crandall,79.92,147.42,92.99,156.49,396.89,Single-ply,SBD,M,
Boys,82.1,9,Enrique Rivera,South Garland,80.01,151.95,88.45,156.49,396.89,Single-ply,SBD,M,
Boys,82.1,10,Hayden Lambeth,Kaufman,79.29,129.27,104.33,161.03,394.63,Single-ply,SBD,M,
Boys,82.1,11,Damian Gonzalez,Farmersville,77.2,131.54,88.45,156.49,376.48,Single-ply,SBD,M,
Boys,82.1,DQ,Jalil Carrillo,Farmersville,82.1,,,,,Single-ply,SBD,M,
Boys,82.1,DQ,Jake Samples,Wills Point,82.1,,,,,Single-ply,SBD,M,
Boys,82.1,DQ,Drew Purser,Princeton,82.1,,,,,Single-ply,SBD,M,
Boys,89.81,1,Sam Meeker,Ennis,89.81,272.16,176.9,219.99,669.05,Single-ply,SBD,M,
Boys,89.81,2,Jesus Portillo,Kemp,86.36,281.23,158.76,217.72,657.71,Single-ply,SBD,M,
Boys,89.81,3,Jadonavan Williams,Quinlan Ford,87.27,249.48,154.22,251.74,655.44,Single-ply,SBD,M,
Boys,89.81,4,Aaron Quezada,Kemp,84.28,256.28,151.95,195.04,603.28,Single-ply,SBD,M,
Boys,89.81,5,Bryten Fields,Ennis,88.09,204.12,138.35,197.31,539.77,Single-ply,SBD,M,
Boys,89.81,6,Jacob Saenz,Ennis,89.81,172.37,136.08,181.44,489.88,Single-ply,SBD,M,
Boys,89.81,7,Jai Turner,Crandall,88.9,192.78,106.59,174.63,474,Single-ply,SBD,M,
Boys,89.81,8,Austin Shackleford,Crandall,87.36,183.7,102.06,176.9,462.66,Single-ply,SBD,M,
Boys,89.81,9,David Ruiz,Kaufman,88.9,158.76,104.33,188.24,451.32,Single-ply,SBD,M,
Boys,89.81,10,Logan Thomas,Kaufman,86.55,163.29,104.33,158.76,426.38,Single-ply,SBD,M,
Boys,89.81,11,Tate Quinlan,Farmersville,89.72,161.03,102.06,147.42,410.5,Single-ply,SBD,M,
Boys,89.81,12,Armando Mendoza,Kemp,85.55,142.88,95.25,163.29,401.43,Single-ply,SBD,M,
Boys,89.81,13,John Laisure,Caddo Mills,82.55,151.95,86.18,145.15,383.29,Single-ply,SBD,M,
Boys,89.81,14,Caleb Smothers,North Forney,89.09,142.88,83.91,156.49,383.29,Single-ply,SBD,M,
Boys,89.81,15,Juan Cruz-Garcia,Wills Point,89.72,151.95,79.38,115.67,347,Single-ply,SBD,M,
Boys,89.81,16,Elijah Mata,Wills Point,88.45,86.18,68.04,117.93,272.16,Single-ply,SBD,M,
Boys,89.81,DQ,Reggie Williams,Crandall,89.81,,,,,Single-ply,SBD,M,
Boys,99.79,1,Kaiden Roden,Quinlan Ford,93.35,260.82,158.76,233.6,653.17,Single-ply,SBD,M,
Boys,99.79,2,Lucas Hagler,Ennis,95.8,229.06,165.56,226.8,621.42,Single-ply,SBD,M,
Boys,99.79,3,Hayden Taylor,Wills Point,90.45,226.8,129.27,208.65,564.72,Single-ply,SBD,M,
Boys,99.79,4,Diego Capetillo,Farmersville,92.26,215.46,115.67,219.99,551.11,Single-ply,SBD,M,
Boys,99.79,5,Patlan Mendez,Ennis,97.79,215.46,129.27,206.38,551.11,Single-ply,SBD,M,
Boys,99.79,6,Jesus de la Cruz,North Forney,93.71,208.65,113.4,208.65,530.7,Single-ply,SBD,M,
Boys,99.79,7,Enrique Apresa,Kemp,96.07,206.38,104.33,172.37,483.08,Single-ply,SBD,M,
Boys,99.79,8,Gabe Rudman,Eustace,95.8,183.7,108.86,179.17,471.74,Single-ply,SBD,M,
Boys,99.79,9,Rubio Gustavo,North Forney,94.35,170.1,97.52,183.7,451.32,Single-ply,SBD,M,
Boys,99.79,10,Aveon Pacheco,South Garland,97.7,183.7,104.33,163.29,451.32,Single-ply,SBD,M,
Boys,99.79,11,Will Bowers,Kaufman,94.35,165.56,106.59,158.76,430.91,Single-ply,SBD,M,
Boys,99.79,DQ,Carson Maddox,Wills Point,98.43,181.44,99.79,,,Single-ply,SBD,M,
Boys,99.79,DQ,Graham Akoh,Princeton,91.17,219.99,,,,Single-ply,SBD,M,
Boys,99.79,DQ,Jesus Guerrero,Princeton,99.52,,,,,Single-ply,SBD,M,
Boys,99.79,DQ,Chase Age,Quinlan Ford,99.79,,,,,Single-ply,SBD,M,
Boys,99.79,DQ,Isais Vasquez,Crandall,99.79,,,,,Single-ply,SBD,M,
Boys,109.77,1,Andrew Bailey,Princeton,106.23,249.48,158.76,265.35,673.58,Single-ply,SBD,M,
Boys,109.77,2,Corbin Fowler,Quinlan Ford,101.7,249.48,142.88,201.85,594.21,Single-ply,SBD,M,
Boys,109.77,3,Jacob Hall,Caddo Mills,106.78,229.06,122.47,224.53,576.06,Single-ply,SBD,M,
Boys,109.77,4,Jj Goode,Wills Point,104.33,238.14,133.81,192.78,564.72,Single-ply,SBD,M,
Boys,109.77,5,Travis Shirley,Quinlan Ford,103.6,226.8,142.88,190.51,560.19,Single-ply,SBD,M,
Boys,109.77,6,Benjamin Cuevas,North Forney,103.69,217.72,122.47,210.92,551.11,Single-ply,SBD,M,
Boys,109.77,7,Bennett Hale,Caddo Mills,107.59,188.24,127.01,179.17,494.42,Single-ply,SBD,M,
Boys,109.77,8,Dakota Ryder,Wills Point,106.41,208.65,122.47,151.95,483.08,Single-ply,SBD,M,
Boys,109.77,9,Alberto Arellano,Kaufman,105.6,174.63,120.2,179.17,474,Single-ply,SBD,M,
Boys,109.77,10,Eric Espinosa,Kaufman,108.68,170.1,97.52,188.24,455.86,Single-ply,SBD,M,
Boys,109.77,11,Tommy McLaughlin,Crandall,106.14,165.56,102.06,165.56,433.18,Single-ply,SBD,M,
Boys,109.77,12,Dylan Burns,Crandall,100.7,158.76,99.79,158.76,417.3,Single-ply,SBD,M,
Boys,109.77,13,Jesse Gonzales,Mount Pleasant Chapel Hill,101.24,102.06,61.23,113.4,276.69,Single-ply,SBD,M,
Boys,109.77,DQ,Cade Bleakney,Crandall,101.7,235.87,,,,Single-ply,SBD,M,
Boys,109.77,DQ,Landon Alexander,Caddo Mills,109.77,,,,,Single-ply,SBD,M,
Boys,124.74,1,Jacob Speer,Princeton,121.56,258.55,165.56,215.46,639.57,Single-ply,SBD,M,
Boys,124.74,2,Tavin States,Quinlan Ford,122.92,226.8,124.74,213.19,564.72,Single-ply,SBD,M,
Boys,124.74,3,Branden Mathews,Kaufman,118.02,197.31,138.35,197.31,532.97,Single-ply,SBD,M,
Boys,124.74,4,Tytus Daugherty,Crandall,113.31,210.92,102.06,215.46,528.44,Single-ply,SBD,M,
Boys,124.74,5,Alonzo Tijerina,Kaufman,120.38,195.04,136.08,183.7,514.83,Single-ply,SBD,M,
Boys,124.74,6,Luis Hernandez,South Garland,113.13,195.04,120.2,188.24,503.49,Single-ply,SBD,M,
Boys,124.74,7,Morgan Thrapp,Mount Pleasant Chapel Hill,123.74,181.44,99.79,163.29,444.52,Single-ply,SBD,M,
Boys,124.74,8,Parker Morgan,Princeton,123.1,185.97,97.52,158.76,442.25,Single-ply,SBD,M,
Boys,124.74,9,James Evans,North Forney,115.67,142.88,83.91,156.49,383.29,Single-ply,SBD,M,
Boys,124.74,10,Mark Vasquez,Farmersville,120.2,147.42,83.91,149.69,381.02,Single-ply,SBD,M,
Boys,124.74,DQ,Landon Strong,Wills Point,113.49,136.08,,,,Single-ply,SBD,M,
Boys,124.74,NS,Stephen Rodriguez,Wills Point,,,,,,Single-ply,SBD,M,
Boys,139.71,1,Brandon James,Quinlan Ford,132.09,303.91,156.49,229.06,689.46,Single-ply,SBD,M,
Boys,139.71,2,Byron Golden,North Forney,128.37,242.67,151.95,249.48,644.1,Single-ply,SBD,M,
Boys,139.71,3,David French,Eustace,126.64,240.4,147.42,240.4,628.23,Single-ply,SBD,M,
Boys,139.71,4,Jorge Garcia,Kaufman,128.37,199.58,138.35,215.46,553.38,Single-ply,SBD,M,
Boys,139.71,5,Darwin Murrillo,South Garland,129,183.7,102.06,206.38,492.15,Single-ply,SBD,M,
Boys,139.71+,1,Ismael Alvarez,South Garland,159.66,285.76,197.31,260.82,743.89,Single-ply,SBD,M,
Boys,139.71+,2,Kris Mayes,Wills Point,176.9,317.51,142.88,199.58,659.98,Single-ply,SBD,M,
Boys,139.71+,3,William Bressi,North Forney,161.93,242.67,158.76,249.48,650.91,Single-ply,SBD,M,
