Division,WeightClassKg,Place,Name,Team,BodyweightKg,Best3SquatKg,Best3BenchKg,Best3DeadliftKg,TotalKg,Equipment,Event,Sex,BirthDate
Boys,51.71,1,Logan Maddox,Dawson,44.63,113.4,47.63,90.72,251.74,Single-ply,SBD,M,
Boys,51.71,2,Christian Campos,Hubbard,45.09,65.77,52.16,99.79,217.72,Single-ply,SBD,M,
Boys,51.71,DQ,Emmanuel Garcia,Blooming Grove,51.26,,,,,Single-ply,SBD,M,
Boys,55.79,1,Damien Wooldridge,Italy,55.25,124.74,65.77,142.88,333.39,Single-ply,SBD,M,
Boys,55.79,2,Dalen Coker,Wortham,55.16,117.93,70.31,122.47,310.71,Single-ply,SBD,M,
Boys,59.87,1,Micah McCall,Dawson,58.33,161.03,90.72,170.1,421.84,Single-ply,SBD,M,
Boys,67.13,1,Max Herrera,Chilton,63.78,183.7,122.47,183.7,489.88,Single-ply,SBD,M,
Boys,67.13,2,Noah Hutchison,Blooming Grove,64.86,192.78,120.2,165.56,478.54,Single-ply,SBD,M,
Boys,67.13,3,Joey Enderle,Blooming Grove,67.13,188.24,95.25,183.7,467.2,Single-ply,SBD,M,
Boys,67.13,4,Wesley Romero,Palmer,65.23,154.22,95.25,192.78,442.25,Single-ply,SBD,M,
Boys,67.13,5,Curtis Gatewood,Corsicana,65.68,154.22,113.4,172.37,439.98,Single-ply,SBD,M,
Boys,67.13,6,Ryan Barbera,Chilton,64.23,149.69,99.79,181.44,430.91,Single-ply,SBD,M,
Boys,67.13,7,Zeth Moore,Hubbard,60.87,136.08,83.91,174.63,394.63,Single-ply,SBD,M,
Boys,67.13,8,Ja'Shawne Hillsman,Corsicana,65.41,142.88,74.84,156.49,374.21,Single-ply,SBD,M,
Boys,67.13,9,Jase Elkins,Dawson,66.22,149.69,68.04,151.95,369.68,Single-ply,SBD,M,
Boys,67.13,10,Ryker Gorrell,Palmer,65.32,142.88,65.77,149.69,358.34,Single-ply,SBD,M,
Boys,67.13,11,Luke Drake,Italy,65.32,124.74,88.45,133.81,347,Single-ply,SBD,M,
Boys,67.13,12,Eain Garcia,Palmer,66.59,129.27,86.18,124.74,340.19,Single-ply,SBD,M,
Boys,67.13,13,Adrian Gomez,Palmer,60.87,124.74,61.23,147.42,333.39,Single-ply,SBD,M,
Boys,67.13,DQ,Josh Lovett,Blooming Grove,64.41,,,,,Single-ply,SBD,M,
Boys,74.84,1,DeMarcus Jackson,Dawson,68.31,208.65,99.79,215.46,523.9,Single-ply,SBD,M,
Boys,74.84,2,Julian Jefferson,Corsicana Mildred,69.94,195.04,117.93,201.85,514.83,Single-ply,SBD,M,
Boys,74.84,3,Tyler McClendon,Corsicana,73.12,195.04,113.4,185.97,494.42,Single-ply,SBD,M,
Boys,74.84,4,Logan Baker,Eustace,72.57,185.97,124.74,124.74,435.45,Single-ply,SBD,M,
Boys,74.84,5,Elijah Garcia,Palmer,74.84,165.56,92.99,170.1,428.64,Single-ply,SBD,M,
Boys,74.84,6,Gabe Irvine,Corsicana Mildred,72.48,158.76,90.72,167.83,417.3,Single-ply,SBD,M,
Boys,74.84,7,Wyatt Robertson,Wortham,69.94,124.74,74.84,145.15,344.73,Single-ply,SBD,M,
Boys,74.84,8,Ian Null,Hubbard,74.84,102.06,79.38,147.42,328.85,Single-ply,SBD,M,
Boys,82.1,1,Hunter Boatright,Dawson,81.37,224.53,117.93,217.72,560.19,Single-ply,SBD,M,
Boys,82.1,2,Kevin Cano,Corsicana,78.65,195.04,122.47,190.51,508.02,Single-ply,SBD,M,
Boys,82.1,3,Jesse Saldana,Wortham,81.28,183.7,115.67,201.85,501.22,Single-ply,SBD,M,
Boys,82.1,4,Login Rogers,Corsicana Mildred,76.11,190.51,102.06,174.63,467.2,Single-ply,SBD,M,
Boys,82.1,5,Jesus Luna,Italy,76.75,174.63,102.06,188.24,464.93,Single-ply,SBD,M,
Boys,82.1,6,Kegan Hurford,Blooming Grove,78.47,167.83,92.99,170.1,430.91,Single-ply,SBD,M,
Boys,82.1,7,Bubba Hicks,Malakoff,79.38,170.1,95.25,158.76,424.11,Single-ply,SBD,M,
Boys,82.1,8,Anthony Dimicili,Teague,79.65,165.56,102.06,142.88,410.5,Single-ply,SBD,M,
Boys,82.1,9,Chance Bryant,Italy,80.2,147.42,97.52,156.49,401.43,Single-ply,SBD,M,
Boys,82.1,10,Rowdy Phillips,Teague,75.3,142.88,97.52,142.88,383.29,Single-ply,SBD,M,
Boys,82.1,11,Chris Chasteen,Wortham,80.56,145.15,72.57,145.15,362.87,Single-ply,SBD,M,
Boys,82.1,12,Kelton Bell,Blooming Grove,77.11,170.1,92.99,92.99,356.07,Single-ply,SBD,M,
Boys,89.81,1,Evan Owen,Corsicana,89.09,226.8,151.95,204.12,582.87,Single-ply,SBD,M,
Boys,89.81,2,Jalen Smith,Malakoff,88.18,217.72,120.2,204.12,542.04,Single-ply,SBD,M,
Boys,89.81,3,James Rissmiller,Wortham,88.18,165.56,111.13,197.31,474,Single-ply,SBD,M,
Boys,89.81,4,Sergio Ramirez,Corsicana,88.9,170.1,108.86,181.44,460.4,Single-ply,SBD,M,
Boys,89.81,5,Nate Foshee,Palmer,86.18,170.1,102.06,165.56,437.72,Single-ply,SBD,M,
Boys,89.81,6,Daniel Torres,Hubbard,89.63,142.88,120.2,158.76,421.84,Single-ply,SBD,M,
Boys,89.81,7,Isaiah Valles,Palmer,85.18,176.9,86.18,138.35,401.43,Single-ply,SBD,M,
Boys,89.81,8,Jordan Ivers,Dawson,89.54,131.54,92.99,140.61,365.14,Single-ply,SBD,M,
Boys,89.81,9,Cash Lamb,Hubbard,88.99,115.67,70.31,136.08,322.05,Single-ply,SBD,M,
Boys,89.81,DQ,Damien Jackson,Malakoff,88.36,,,,,Single-ply,SBD,M,
Boys,99.79,1,Kaimana Nakoa,Italy,95.16,206.38,161.03,233.6,601.01,Single-ply,SBD,M,
Boys,99.79,2,Benjamin Brooks,Corsicana,94.71,231.33,133.81,213.19,578.33,Single-ply,SBD,M,
Boys,99.79,3,Jose Morales,Malakoff,96.07,226.8,147.42,163.29,537.51,Single-ply,SBD,M,
Boys,99.79,4,Shawn Meadows,Malakoff,93.62,195.04,120.2,199.58,514.83,Single-ply,SBD,M,
Boys,99.79,5,Alex Perez,Teague,96.71,206.38,133.81,170.1,510.29,Single-ply,SBD,M,
Boys,99.79,6,Lorenzo Robles,Chilton,96.98,192.78,131.54,179.17,503.49,Single-ply,SBD,M,
Boys,99.79,7,Doc Renberg,Malakoff,95.71,179.17,104.33,192.78,476.27,Single-ply,SBD,M,
Boys,99.79,8,Colton Bossie,Chilton,93.8,170.1,113.4,183.7,467.2,Single-ply,SBD,M,
Boys,99.79,9,Ben Baumgartner,Blooming Grove,94.53,183.7,102.06,158.76,444.52,Single-ply,SBD,M,
Boys,99.79,10,Elijah Beechum,Chilton,96.16,117.93,83.91,136.08,337.93,Single-ply,SBD,M,
Boys,99.79,DQ,Gabe Rudman,Eustace,94.98,,,,,Single-ply,SBD,M,
Boys,99.79,DQ,Rylee High,Hubbard,90.54,140.61,,,,Single-ply,SBD,M,
Boys,109.77,1,David Mirafuentes,Blooming Grove,106.14,272.16,158.76,217.72,648.64,Single-ply,SBD,M,
Boys,109.77,2,Omar DeLaHoya,Italy,105.41,219.99,149.69,206.38,576.06,Single-ply,SBD,M,
Boys,109.77,3,Fernando Contreras,Malakoff,104.33,208.65,149.69,206.38,564.72,Single-ply,SBD,M,
Boys,109.77,4,Jerimiah Parish,Dawson,105.69,161.03,99.79,190.51,451.32,Single-ply,SBD,M,
Boys,109.77,5,Braden Steele,Chilton,109.04,136.08,99.79,185.97,421.84,Single-ply,SBD,M,
Boys,109.77,DQ,Jeremiah Gutierrez,Italy,103.15,204.12,120.2,,,Single-ply,SBD,M,
Boys,109.77,DQ,Xavier Zamora,Teague,102.06,149.69,,,,Single-ply,SBD,M,
Boys,124.74,1,Lance Robertson,Malakoff,124.01,267.62,176.9,240.4,684.92,Single-ply,SBD,M,
Boys,124.74,2,Mason Logan,Malakoff,124.74,217.72,158.76,226.8,603.28,Single-ply,SBD,M,
Boys,124.74,3,Leonardo Cruz,Corsicana,117.39,222.26,127.01,222.26,571.53,Single-ply,SBD,M,
Boys,124.74,4,Jason Evans,Wortham,121.11,240.4,122.47,188.24,551.11,Single-ply,SBD,M,
Boys,124.74,5,Ryder Rogers,Malakoff,116.85,213.19,136.08,199.58,548.85,Single-ply,SBD,M,
Boys,124.74,6,Michael Wren,Dawson,121.11,229.06,111.13,204.12,544.31,Single-ply,SBD,M,
Boys,124.74,7,Travis McCalister,Malakoff,110.04,199.58,124.74,206.38,530.7,Single-ply,SBD,M,
Boys,124.74,8,Dixon Nichols,Teague,118.39,192.78,108.86,197.31,498.95,Single-ply,SBD,M,
Boys,124.74,9,Adrian Ramirez,Palmer,116.57,188.24,111.13,188.24,487.61,Single-ply,SBD,M,
Boys,124.74,10,Carl Shugart,Teague,112.85,190.51,102.06,167.83,460.4,Single-ply,SBD,M,
Boys,124.74,11,Evan Gilbert,Teague,115.03,170.1,102.06,158.76,430.91,Single-ply,SBD,M,
Boys,124.74,DQ,Bryce Ballard,Italy,122.65,,,,,Single-ply,SBD,M,
Boys,124.74,DQ,Jonathan Mills,Hubbard,114.21,,,,,Single-ply,SBD,M,
Boys,139.71,1,David French,Eustace,125.83,267.62,158.76,256.28,682.66,Single-ply,SBD,M,
Boys,139.71,2,Julian Ramirez,Palmer,128.64,195.04,124.74,219.99,539.77,Single-ply,SBD,M,
Boys,139.71,3,Jett Maxwell,Palmer,125.37,204.12,113.4,195.04,512.56,Single-ply,SBD,M,
Boys,139.71,4,Tre'Shun Henry,Hubbard,132.81,147.42,104.33,174.63,426.38,Single-ply,SBD,M,
Boys,139.71+,1,Carl Harris,Corsicana,165.02,288.03,142.88,226.8,657.71,Single-ply,SBD,M,
Boys,139.71+,2,Isiah Kraayvanger,Hubbard,170.91,136.08,136.08,183.7,455.86,Single-ply,SBD,M,
Boys,139.71+,DQ,Denton Fields,Hubbard,153.13,138.35,,,,Single-ply,SBD,M,
