Division,WeightClassKg,Place,Name,Team,BodyweightKg,Best3SquatKg,Best3BenchKg,Best3DeadliftKg,TotalKg,Equipment,Event,Sex,BirthDate
Boys,51.71,1,Ethan Rake,Tuscola Jim Ned,50.35,83.91,58.97,115.67,258.55,Single-ply,SBD,M,
Boys,51.71,2,Auggie Salas,Forsan,48.08,83.91,52.16,117.93,254.01,Single-ply,SBD,M,
Boys,51.71,3,Eugene Vasquez,Coahoma,47.72,83.91,56.7,111.13,251.74,Single-ply,SBD,M,
Boys,51.71,4,Kazdyn Womack,Colorado City Colorado,47.63,65.77,43.09,86.18,195.04,Single-ply,SBD,M,
Boys,55.79,1,Boyzz Stillwell,Forsan,53.52,127.01,77.11,138.35,342.46,Single-ply,SBD,M,
Boys,55.79,2,Tevin Mead,Miles,51.89,117.93,83.91,102.06,303.91,Single-ply,SBD,M,
Boys,59.87,1,Hector Colon-Rivera,Coahoma,58.24,165.56,72.57,167.83,405.97,Single-ply,SBD,M,
Boys,59.87,2,Manuel Torres,Miles,57.61,138.35,83.91,154.22,376.48,Single-ply,SBD,M,
Boys,59.87,3,Reagan Chapman,Coahoma,58.06,133.81,74.84,142.88,351.53,Single-ply,SBD,M,
Boys,59.87,4,Austin Medina,Miles,58.97,120.2,83.91,122.47,326.59,Single-ply,SBD,M,
Boys,59.87,5,Thomas Martinez,Colorado City Colorado,58.97,117.93,68.04,120.2,306.17,Single-ply,SBD,M,
Boys,59.87,6,Brandyn Cortez,Coahoma,56.15,102.06,68.04,131.54,301.64,Single-ply,SBD,M,
Boys,59.87,7,George Lee,Colorado City Colorado,56.7,74.84,63.5,115.67,254.01,Single-ply,SBD,M,
Boys,59.87,8,Hunter Minnix,Colorado City Colorado,58.06,63.5,43.09,115.67,222.26,Single-ply,SBD,M,
Boys,59.87,DQ,Cougar Jetton,San Angelo Grape Creek,59.42,,,,,Single-ply,SBD,M,
Boys,67.13,1,Ezik Hernandez,Colorado City Colorado,64.41,165.56,88.45,174.63,428.64,Single-ply,SBD,M,
Boys,67.13,2,Jesus Montoya,Post,65.32,151.95,102.06,163.29,417.3,Single-ply,SBD,M,
Boys,67.13,3,Chris Ortiz,Colorado City Colorado,65.77,149.69,102.06,149.69,401.43,Single-ply,SBD,M,
Boys,67.13,4,Paul McMillian,Midland Classical Academy,61.69,136.08,79.38,179.17,394.63,Single-ply,SBD,M,
Boys,67.13,5,Samuel Walls,Post,65.77,149.69,65.77,158.76,374.21,Single-ply,SBD,M,
Boys,67.13,6,Cyrus Marquez,Post,64.41,124.74,90.72,156.49,371.95,Single-ply,SBD,M,
Boys,67.13,7,Breydon Walker,Tuscola Jim Ned,65.32,117.93,92.99,156.49,367.41,Single-ply,SBD,M,
Boys,67.13,8,Camron Urias,Colorado City Colorado,66.68,133.81,83.91,142.88,360.61,Single-ply,SBD,M,
Boys,67.13,9,Dillon Medina,Miles,61.87,115.67,79.38,156.49,351.53,Single-ply,SBD,M,
Boys,67.13,10,Yandell Melendez,Forsan,65.77,113.4,81.65,156.49,351.53,Single-ply,SBD,M,
Boys,67.13,11,Ian Vegara,Post,61.69,102.06,70.31,147.42,319.78,Single-ply,SBD,M,
Boys,67.13,12,Charlie Mashburn,Coahoma,66.04,106.59,54.43,124.74,285.76,Single-ply,SBD,M,
Boys,67.13,13,Branson Harris,Post,63.96,70.31,61.23,81.65,213.19,Single-ply,SBD,M,
Boys,67.13,DQ,Josh Cervantes,Forsan,66.22,,,,,Single-ply,SBD,M,
Boys,74.84,1,Clayton Kelly,Midland Classical Academy,71.67,163.29,113.4,201.85,478.54,Single-ply,SBD,M,
Boys,74.84,2,Joseph Connell,Colorado City Colorado,73.94,156.49,106.59,199.58,462.66,Single-ply,SBD,M,
Boys,74.84,3,Jared Wacker,Midland Classical Academy,70.31,161.03,99.79,192.78,453.59,Single-ply,SBD,M,
Boys,74.84,4,Ryan Hernandez,Colorado City Colorado,74.39,161.03,102.06,170.1,433.18,Single-ply,SBD,M,
Boys,74.84,5,Andrew Strahan,Midland Classical Academy,68.49,147.42,92.99,188.24,428.64,Single-ply,SBD,M,
Boys,74.84,6,Kaden Taylor,Forsan,67.4,115.67,90.72,167.83,374.21,Single-ply,SBD,M,
Boys,74.84,7,Diego Andrade,Colorado City Colorado,74.84,102.06,88.45,136.08,326.59,Single-ply,SBD,M,
Boys,74.84,8,Gage Strong,Midland Classical Academy,67.86,97.52,54.43,127.01,278.96,Single-ply,SBD,M,
Boys,82.1,1,Michael Fulton,Roscoe Collegiate,75.75,174.63,108.86,183.7,467.2,Single-ply,SBD,M,
Boys,82.1,2,Peter Groeke,Midland Classical Academy,78.02,161.03,83.91,188.24,433.18,Single-ply,SBD,M,
Boys,82.1,3,Isreal Chavez,Colorado City Colorado,78.02,151.95,97.52,179.17,428.64,Single-ply,SBD,M,
Boys,82.1,4,Grayson Layh,Midland Classical Academy,78.02,151.95,97.52,170.1,419.57,Single-ply,SBD,M,
Boys,82.1,5,Jaidyn Vineyard,Coahoma,77.38,140.61,92.99,142.88,376.48,Single-ply,SBD,M,
Boys,82.1,6,Toryn Kendrick,Forsan,75.11,108.86,72.57,136.08,317.51,Single-ply,SBD,M,
Boys,89.81,1,Kade Miller,Miles,83.91,215.46,111.13,183.7,510.29,Single-ply,SBD,M,
Boys,89.81,2,Lucas Jordahl,San Angelo Grape Creek,86.18,172.37,106.59,181.44,460.4,Single-ply,SBD,M,
Boys,89.81,3,Stephen Gamonedo,Post,83.91,154.22,95.25,142.88,392.36,Single-ply,SBD,M,
Boys,89.81,4,Jacob Padron,Coahoma,85.73,127.01,97.52,124.74,349.27,Single-ply,SBD,M,
Boys,89.81,5,Ismael Aguirre,Colorado City Colorado,85.73,86.18,58.97,136.08,281.23,Single-ply,SBD,M,
Boys,89.81,6,Adiel Perez,Coahoma,88.45,86.18,72.57,104.33,263.08,Single-ply,SBD,M,
Boys,89.81,7,Mark Hill,Colorado City Colorado,88.45,90.72,58.97,111.13,260.82,Single-ply,SBD,M,
Boys,99.79,1,Nolan Park,Forsan,94.35,183.7,111.13,201.85,496.68,Single-ply,SBD,M,
Boys,99.79,2,Joel Garcia,Miles,95.71,183.7,106.59,204.12,494.42,Single-ply,SBD,M,
Boys,99.79,3,Silas Privett,Coahoma,95.16,86.18,58.97,90.72,235.87,Single-ply,SBD,M,
Boys,109.77,1,Auggie Cervantes,Forsan,105.69,199.58,115.67,215.46,530.7,Single-ply,SBD,M,
Boys,109.77,2,Ronnie Sumruld,Colorado City Colorado,106.59,174.63,92.99,156.49,424.11,Single-ply,SBD,M,
Boys,109.77,3,Kolten Thomason,Colorado City Colorado,102.06,113.4,72.57,124.74,310.71,Single-ply,SBD,M,
Boys,109.77,4,Alexavier Mendoza,Coahoma,100.43,102.06,65.77,115.67,283.5,Single-ply,SBD,M,
Boys,124.74,1,Noah Powell,Tuscola Jim Ned,113.85,226.8,131.54,233.6,591.94,Single-ply,SBD,M,
Boys,124.74,2,Diego Vela,Roscoe Collegiate,112.04,195.04,149.69,181.44,526.17,Single-ply,SBD,M,
Boys,124.74,3,Landon Hair,Post,121.11,174.63,111.13,154.22,439.98,Single-ply,SBD,M,
Boys,124.74,4,Gabe Perez,Post,116.57,170.1,86.18,149.69,405.97,Single-ply,SBD,M,
Boys,124.74,5,Eduardo Islas,Roscoe Collegiate,110.22,90.72,61.23,117.93,269.89,Single-ply,SBD,M,
Boys,124.74,DQ,Kobe Cervantez,Coahoma,115.21,226.8,145.15,195.04,,Single-ply,SBD,M,
Boys,139.71,1,Xavier Lopez,Roscoe Collegiate,132.9,217.72,106.59,167.83,492.15,Single-ply,SBD,M,
Boys,139.71,2,Koldin Averette,Forsan,135.62,172.37,111.13,154.22,437.72,Single-ply,SBD,M,
Boys,139.71+,1,Jayden Golleher,Forsan,141.52,217.72,115.67,199.58,532.97,Single-ply,SBD,M,
Boys,139.71+,2,Brady Villanueva,Tuscola Jim Ned,162.39,183.7,97.52,163.29,444.52,Single-ply,SBD,M,
