Division,WeightClassKg,Place,Name,Team,BodyweightKg,Best3SquatKg,Best3BenchKg,Best3DeadliftKg,TotalKg,Equipment,Event,Sex,BirthDate
Boys,51.71,1,Nhat Hoang,Granbury,50.8,102.06,63.5,131.54,297.1,Single-ply,SBD,M,
Boys,51.71,2,Ethan Bolin,Fort Worth Boswell,51.62,86.18,58.97,99.79,244.94,Single-ply,SBD,M,
Boys,51.71,3,Juan Avelarolmos,Saginaw,51.53,79.38,49.9,90.72,219.99,Single-ply,SBD,M,
Boys,55.79,1,Joe Builtron,Fort Worth Boswell,54.43,127.01,68.04,136.08,331.12,Single-ply,SBD,M,
Boys,55.79,2,Antonio Aldaco,Fort Worth Boswell,54.61,124.74,72.57,117.93,315.25,Single-ply,SBD,M,
Boys,59.87,1,Meschac Ntuaremba,Saginaw,59.15,147.42,90.72,161.03,399.16,Single-ply,SBD,M,
Boys,59.87,2,Logan Claunch,Fort Worth Boswell,59.87,151.95,97.52,145.15,394.63,Single-ply,SBD,M,
Boys,59.87,3,Jeffrey Hunsinger,Granbury,59.6,142.88,92.99,151.95,387.82,Single-ply,SBD,M,
Boys,59.87,4,Spencer Burnfield,Granbury,58.51,131.54,68.04,129.27,328.85,Single-ply,SBD,M,
Boys,67.13,1,Djonny Mukuna,Saginaw,66.77,199.58,120.2,224.53,544.31,Single-ply,SBD,M,
Boys,67.13,2,Ethan Hodkinson,Fort Worth Boswell,64.95,158.76,90.72,170.1,419.57,Single-ply,SBD,M,
Boys,67.13,3,Dede Lords,Fort Worth Boswell,66.22,140.61,77.11,147.42,365.14,Single-ply,SBD,M,
Boys,67.13,4,Noe Puente,Granbury,64.5,131.54,86.18,138.35,356.07,Single-ply,SBD,M,
Boys,67.13,5,Riley Huisman,Granbury,65.77,86.18,56.7,111.13,254.01,Single-ply,SBD,M,
Boys,67.13,DQ,Ethan Hernandez,Granbury,67.04,142.88,,,,Single-ply,SBD,M,
Boys,67.13,DQ,Landon Cook,Granbury,67.04,142.88,,,,Single-ply,SBD,M,
Boys,67.13,DQ,Ethan Corbin,Saginaw,65.5,,,,,Single-ply,SBD,M,
Boys,74.84,1,Colten Wilson,Fort Worth Boswell,72.76,197.31,99.79,235.87,532.97,Single-ply,SBD,M,
Boys,74.84,2,Jordan DeHoyos,Fort Worth Boswell,71.49,190.51,122.47,217.72,530.7,Single-ply,SBD,M,
Boys,74.84,3,Tyler Rodgers,Granbury,71.12,179.17,115.67,204.12,498.95,Single-ply,SBD,M,
Boys,74.84,4,Diego Caceres,Fort Worth Boswell,71.12,163.29,104.33,204.12,471.74,Single-ply,SBD,M,
Boys,74.84,5,Brandon Richardson,Saginaw,74.39,185.97,77.11,172.37,435.45,Single-ply,SBD,M,
Boys,74.84,6,Isaac Braly,Saginaw,74.3,136.08,95.25,183.7,415.04,Single-ply,SBD,M,
Boys,74.84,7,Jose Martinez #5,Fort Worth Boswell,71.12,140.61,86.18,154.22,381.02,Single-ply,SBD,M,
Boys,74.84,DQ,Wyatt Hansen,Granbury,74.03,129.27,,165.56,,Single-ply,SBD,M,
Boys,74.84,DQ,Michael Williams,Saginaw,73.39,,,,,Single-ply,SBD,M,
Boys,82.1,1,Preston Lutgen,Granbury,76.43,170.1,131.54,217.72,519.36,Single-ply,SBD,M,
Boys,82.1,2,Davin Jones,Granbury,78.83,185.97,117.93,174.63,478.54,Single-ply,SBD,M,
Boys,82.1,3,Alex Rosales,Fort Worth Boswell,81.56,172.37,106.59,172.37,451.32,Single-ply,SBD,M,
Boys,82.1,4,Max Grear,Fort Worth Boswell,77.29,176.9,88.45,176.9,442.25,Single-ply,SBD,M,
Boys,82.1,5,Michael Rodriguez,Saginaw,76.75,167.83,83.91,161.03,412.77,Single-ply,SBD,M,
Boys,82.1,6,Henry Marvie,Fort Worth Boswell,78.11,136.08,65.77,172.37,374.21,Single-ply,SBD,M,
Boys,82.1,7,Riley Devries,Saginaw,81.19,115.67,90.72,163.29,369.68,Single-ply,SBD,M,
Boys,82.1,8,Caleb Apple,Saginaw,80.56,115.67,92.99,140.61,349.27,Single-ply,SBD,M,
Boys,82.1,9,Wyatt Robinson,Fort Worth Boswell,80.2,124.74,79.38,142.88,347,Single-ply,SBD,M,
Boys,89.81,1,Luke Stettler,Granbury,88.81,210.92,136.08,222.26,569.26,Single-ply,SBD,M,
Boys,89.81,2,Izzy Ramirez,Granbury,87.54,183.7,147.42,213.19,544.31,Single-ply,SBD,M,
Boys,89.81,3,Gabe Wright,Fort Worth Boswell,89.27,195.04,108.86,217.72,521.63,Single-ply,SBD,M,
Boys,89.81,4,Jacob Brewer,Saginaw,85.09,195.04,111.13,210.92,517.1,Single-ply,SBD,M,
Boys,89.81,5,Carter Ezra,Fort Worth Boswell,87.54,188.24,127.01,188.24,503.49,Single-ply,SBD,M,
Boys,89.81,6,Ben Nguyen,Granbury,83.91,192.78,106.59,192.78,492.15,Single-ply,SBD,M,
Boys,89.81,7,Alaril Ferguson,Saginaw,84.82,183.7,113.4,185.97,483.08,Single-ply,SBD,M,
Boys,89.81,8,Duy Lam,Saginaw,84.82,170.1,106.59,192.78,469.47,Single-ply,SBD,M,
Boys,89.81,9,Eduardo Arbaiza,Saginaw,86.91,158.76,79.38,170.1,408.23,Single-ply,SBD,M,
Boys,99.79,1,Brayden Olthoff,Granbury,99.34,249.48,192.78,235.87,678.12,Single-ply,SBD,M,
Boys,99.79,2,Parker Lutgen,Granbury,97.7,213.19,147.42,240.4,601.01,Single-ply,SBD,M,
Boys,99.79,3,Mason Munk,Fort Worth Boswell,98.88,183.7,124.74,206.38,514.83,Single-ply,SBD,M,
Boys,99.79,4,Breydon Gleva,Fort Worth Boswell,92.9,167.83,106.59,172.37,446.79,Single-ply,SBD,M,
Boys,99.79,5,Josh Mangus,Fort Worth Boswell,92.08,154.22,104.33,183.7,442.25,Single-ply,SBD,M,
Boys,99.79,6,Fernando Garcia,Granbury,96.52,170.1,92.99,172.37,435.45,Single-ply,SBD,M,
Boys,99.79,7,Gerson Trejo,Saginaw,91.63,161.03,95.25,163.29,419.57,Single-ply,SBD,M,
Boys,99.79,8,Kyle Daulton,Saginaw,97.16,142.88,83.91,163.29,390.09,Single-ply,SBD,M,
Boys,109.77,1,Kolten Trevino,Granbury,107.32,283.5,181.44,238.14,703.07,Single-ply,SBD,M,
Boys,109.77,2,Gerardo De La O,Saginaw,109.77,213.19,122.47,213.19,548.85,Single-ply,SBD,M,
Boys,109.77,3,Kagen Hill,Granbury,108.86,190.51,138.35,213.19,542.04,Single-ply,SBD,M,
Boys,109.77,4,Alijah Brand,Fort Worth Boswell,104.96,183.7,127.01,199.58,510.29,Single-ply,SBD,M,
Boys,109.77,5,Jaeden Langley,Fort Worth Boswell,106.59,192.78,117.93,181.44,492.15,Single-ply,SBD,M,
Boys,109.77,6,Eban DeJesus,Fort Worth Boswell,107.05,161.03,113.4,185.97,460.4,Single-ply,SBD,M,
Boys,109.77,7,Jack Damphouse,Granbury,108.32,158.76,106.59,161.03,426.38,Single-ply,SBD,M,
Boys,109.77,8,Kenneth Beavers,Saginaw,106.41,154.22,72.57,154.22,381.02,Single-ply,SBD,M,
Boys,124.74,1,Enrique Sanchez,Granbury,112.76,210.92,156.49,231.33,598.74,Single-ply,SBD,M,
Boys,124.74,2,Donnell Jackson,Saginaw,113.31,183.7,115.67,226.8,526.17,Single-ply,SBD,M,
Boys,124.74,3,Aiden Jones,Granbury,110.22,197.31,113.4,206.38,517.1,Single-ply,SBD,M,
Boys,124.74,4,Alexander Aguirre,Saginaw,113.04,190.51,95.25,204.12,489.88,Single-ply,SBD,M,
Boys,124.74,5,Nate Cordova,Fort Worth Boswell,123.92,183.7,99.79,195.04,478.54,Single-ply,SBD,M,
Boys,124.74,6,Austin Conner,Fort Worth Boswell,118.21,181.44,113.4,174.63,469.47,Single-ply,SBD,M,
Boys,139.71,1,Austin Lyon,Fort Worth Boswell,126.73,260.82,158.76,260.82,680.39,Single-ply,SBD,M,
Boys,139.71,2,Drew Garcia,Saginaw,139.43,217.72,129.27,219.99,566.99,Single-ply,SBD,M,
Boys,139.71,3,Zaylan Williams,Saginaw,128.28,179.17,90.72,167.83,437.72,Single-ply,SBD,M,
Boys,139.71+,1,Alex Sutton,Granbury,144.24,283.5,190.51,278.96,752.96,Single-ply,SBD,M,
Boys,139.71+,2,Jahir Orocio,Granbury,142.88,272.16,161.03,215.46,648.64,Single-ply,SBD,M,
Boys,139.71+,3,Xzaviah Milton,Saginaw,146.87,260.82,167.83,190.51,619.15,Single-ply,SBD,M,
Boys,139.71+,4,Anthony Rodriguez,Saginaw,149.41,176.9,92.99,199.58,469.47,Single-ply,SBD,M,
