Division,WeightClassKg,Place,Name,Team,BodyweightKg,Best3SquatKg,Best3BenchKg,Best3DeadliftKg,TotalKg,Equipment,Event,Sex,BirthDate
Boys,51.71,1,Xavier Flores,Merkel,50.8,127.01,56.7,145.15,328.85,Single-ply,SBD,M,
Boys,51.71,2,Auggie Salas,Forsan,49.99,90.72,63.5,113.4,267.62,Single-ply,SBD,M,
Boys,51.71,3,Trace Price,Post,50.62,102.06,58.97,104.33,265.35,Single-ply,SBD,M,
Boys,51.71,4,Axel Cervantes,Roscoe Collegiate,50.53,102.06,52.16,106.59,260.82,Single-ply,SBD,M,
Boys,51.71,5,Calib Hobbs,Hawley,51.53,92.99,52.16,99.79,244.94,Single-ply,SBD,M,
Boys,51.71,6,Kazdyn Womack,Colorado City Colorado,47.81,74.84,43.09,90.72,208.65,Single-ply,SBD,M,
Boys,55.79,1,Tyler Munoz,Sweetwater,55.34,145.15,88.45,142.88,376.48,Single-ply,SBD,M,
Boys,55.79,2,Boyzz Stillwell,Forsan,54.7,136.08,81.65,145.15,362.87,Single-ply,SBD,M,
Boys,55.79,3,Xander Moffett,Roscoe Collegiate,55.25,124.74,70.31,120.2,315.25,Single-ply,SBD,M,
Boys,55.79,4,Graham Gleaton,Roscoe Collegiate,55.43,124.74,61.23,108.86,294.84,Single-ply,SBD,M,
Boys,55.79,5,Gabe Garza,Colorado City Colorado,55.07,88.45,77.11,120.2,285.76,Single-ply,SBD,M,
Boys,55.79,6,Elijah Rodriguez,Coahoma,55.79,90.72,56.7,115.67,263.08,Single-ply,SBD,M,
Boys,59.87,1,Tristen Thompson,Merkel,59.51,195.04,127.01,192.78,514.83,Single-ply,SBD,M,
Boys,59.87,2,Ethan Stalling,Hawley,59.06,158.76,81.65,138.35,378.75,Single-ply,SBD,M,
Boys,59.87,3,Keller Vinson,Roscoe Collegiate,59.6,158.76,65.77,136.08,360.61,Single-ply,SBD,M,
Boys,59.87,4,Jaiden Frith,Roscoe Collegiate,59.87,124.74,74.84,131.54,331.12,Single-ply,SBD,M,
Boys,59.87,5,Thomas Martinez,Colorado City Colorado,57.97,124.74,79.38,113.4,317.51,Single-ply,SBD,M,
Boys,59.87,6,George Lee,Colorado City Colorado,58.69,81.65,65.77,120.2,267.62,Single-ply,SBD,M,
Boys,67.13,1,Eric Martinez,Sweetwater,67.04,219.99,127.01,208.65,555.65,Single-ply,SBD,M,
Boys,67.13,2,Oscar Montoya,Merkel,67.04,208.65,115.67,190.51,514.83,Single-ply,SBD,M,
Boys,67.13,3,Ezik Hernandez,Colorado City Colorado,63.23,185.97,97.52,188.24,471.74,Single-ply,SBD,M,
Boys,67.13,4,Jesus Montoya,Post,66.77,190.51,111.13,161.03,462.66,Single-ply,SBD,M,
Boys,67.13,5,Calixto Mendez,Sweetwater,65.41,167.83,90.72,172.37,430.91,Single-ply,SBD,M,
Boys,67.13,6,Josh Cervantes,Forsan,66.22,136.08,108.86,174.63,419.57,Single-ply,SBD,M,
Boys,67.13,7,Jamarian Amos,Sweetwater,65.41,163.29,97.52,151.95,412.77,Single-ply,SBD,M,
Boys,67.13,8,Cyrus Marquez,Post,63.59,140.61,88.45,167.83,396.89,Single-ply,SBD,M,
Boys,67.13,9,Chris Ortiz,Colorado City Colorado,66.32,145.15,95.25,147.42,387.82,Single-ply,SBD,M,
Boys,67.13,10,Camron Urias,Colorado City Colorado,66.77,136.08,97.52,154.22,387.82,Single-ply,SBD,M,
Boys,67.13,11,Nick Tutle,Coahoma,66.32,136.08,86.18,142.88,365.14,Single-ply,SBD,M,
Boys,67.13,12,Yandell Melendez,Forsan,64.59,117.93,74.84,149.69,342.46,Single-ply,SBD,M,
Boys,67.13,13,Jz Hemphill,Coleman,62.14,113.4,65.77,136.08,315.25,Single-ply,SBD,M,
Boys,74.84,1,Michael Fulton,Roscoe Collegiate,74.8,215.46,127.01,206.38,548.85,Single-ply,SBD,M,
Boys,74.84,2,Harry Cooper,Hawley,73.48,204.12,124.74,147.42,476.27,Single-ply,SBD,M,
Boys,74.84,3,Jase Ellison,Merkel,71.49,183.7,90.72,185.97,460.4,Single-ply,SBD,M,
Boys,74.84,4,Ryan Hernandez,Colorado City Colorado,73.12,170.1,104.33,174.63,449.06,Single-ply,SBD,M,
Boys,74.84,5,Kaden Taylor,Forsan,71.58,138.35,99.79,190.51,428.64,Single-ply,SBD,M,
Boys,74.84,6,Jace Adames,Sweetwater,70.13,151.95,95.25,167.83,415.04,Single-ply,SBD,M,
Boys,74.84,7,Diego Andrade,Colorado City Colorado,74.75,122.47,106.59,149.69,378.75,Single-ply,SBD,M,
Boys,74.84,8,Charlie Mashburn,Coahoma,68.86,117.93,58.97,127.01,303.91,Single-ply,SBD,M,
Boys,82.1,1,Ethan Brockman,Sweetwater,81.19,208.65,113.4,222.26,544.31,Single-ply,SBD,M,
Boys,82.1,2,Jaidyn Vineyard,Coahoma,77.56,176.9,97.52,181.44,455.86,Single-ply,SBD,M,
Boys,82.1,3,Jimmy Diaz,Coleman,80.01,170.1,102.06,167.83,439.98,Single-ply,SBD,M,
Boys,82.1,4,Isreal Chavez,Colorado City Colorado,80.65,158.76,97.52,183.7,439.98,Single-ply,SBD,M,
Boys,82.1,5,Wyatt Puryear,Coleman,78.65,136.08,70.31,170.1,376.48,Single-ply,SBD,M,
Boys,82.1,6,Toryn Kendrick,Forsan,79.02,138.35,79.38,142.88,360.61,Single-ply,SBD,M,
Boys,89.81,1,Nicholas Harrell,Colorado City Colorado,85.28,192.78,97.52,204.12,494.42,Single-ply,SBD,M,
Boys,89.81,2,Jacob Padron,Coahoma,87,154.22,108.86,149.69,412.77,Single-ply,SBD,M,
Boys,89.81,3,Justin Saenz,Roscoe Collegiate,87.63,158.76,90.72,161.03,410.5,Single-ply,SBD,M,
Boys,89.81,4,Rylan Ortiz,Merkel,87.36,136.08,77.11,140.61,353.8,Single-ply,SBD,M,
Boys,89.81,5,Adiel Perez,Coahoma,87.72,115.67,88.45,124.74,328.85,Single-ply,SBD,M,
Boys,89.81,DQ,Cedrick Brown,Sweetwater,84.01,215.46,124.74,,,Single-ply,SBD,M,
Boys,89.81,DQ,Kanyon Willeford,Hawley,85.28,217.72,92.99,,,Single-ply,SBD,M,
Boys,99.79,1,Ezequiel Munoz,Coleman,95.44,215.46,138.35,183.7,537.51,Single-ply,SBD,M,
Boys,99.79,2,Cutter Cody,Coleman,96.07,215.46,113.4,204.12,532.97,Single-ply,SBD,M,
Boys,99.79,3,Alejandro Rodriguez,Post,92.71,204.12,136.08,183.7,523.9,Single-ply,SBD,M,
Boys,99.79,4,Lucas Moreno,Hawley,91.99,195.04,113.4,204.12,512.56,Single-ply,SBD,M,
Boys,99.79,5,Nolan Park,Forsan,93.26,183.7,117.93,208.65,510.29,Single-ply,SBD,M,
Boys,99.79,6,David Diaz,Roscoe Collegiate,93.94,208.65,117.93,172.37,498.95,Single-ply,SBD,M,
Boys,99.79,7,Isaias Gomez,Coahoma,98.97,124.74,86.18,120.2,331.12,Single-ply,SBD,M,
Boys,99.79,8,Alexavier Mendoza,Coahoma,98.16,124.74,74.84,127.01,326.59,Single-ply,SBD,M,
Boys,99.79,9,Silas Privett,Coahoma,90.99,99.79,63.5,104.33,267.62,Single-ply,SBD,M,
Boys,99.79,DQ,Caleb Lee,Sweetwater,95.62,,,,,Single-ply,SBD,M,
Boys,109.77,1,Elijah Flores,Merkel,108.23,238.14,154.22,260.82,653.17,Single-ply,SBD,M,
Boys,109.77,2,Ely Barrera,Sweetwater,108.77,260.82,136.08,256.28,653.17,Single-ply,SBD,M,
Boys,109.77,3,Peyton Friedman,Roscoe Collegiate,106.41,235.87,142.88,201.85,580.6,Single-ply,SBD,M,
Boys,109.77,4,Oscar Camacho,Coleman,100.33,222.26,131.54,213.19,566.99,Single-ply,SBD,M,
Boys,109.77,5,Auggie Cervantes,Forsan,105.05,199.58,117.93,226.8,544.31,Single-ply,SBD,M,
Boys,109.77,6,Britt Justiss,Roscoe Collegiate,107.41,215.46,133.81,185.97,535.24,Single-ply,SBD,M,
Boys,109.77,7,Jose Huerta,Merkel,102.15,120.2,74.84,145.15,340.19,Single-ply,SBD,M,
Boys,124.74,1,Noel Mekogue,Sweetwater,121.02,219.99,145.15,272.16,637.3,Single-ply,SBD,M,
Boys,124.74,2,Diego Vela,Roscoe Collegiate,111.72,226.8,172.37,195.04,594.21,Single-ply,SBD,M,
Boys,124.74,3,Nick Gonzales,Coahoma,113.85,240.4,133.81,192.78,566.99,Single-ply,SBD,M,
Boys,124.74,4,Landon Hair,Post,121.65,201.85,138.35,183.7,523.9,Single-ply,SBD,M,
Boys,124.74,5,Gabe Perez,Post,117.39,199.58,97.52,172.37,469.47,Single-ply,SBD,M,
Boys,124.74,6,Blake Kennedy,Coleman,111.4,156.49,115.67,170.1,442.25,Single-ply,SBD,M,
Boys,124.74,7,Eduardo Islas,Roscoe Collegiate,112.58,165.56,95.25,163.29,424.11,Single-ply,SBD,M,
Boys,124.74,8,Aiden Hernandez,Coleman,115.48,151.95,111.13,136.08,399.16,Single-ply,SBD,M,
Boys,139.71,1,Koldin Averette,Forsan,139.71,195.04,108.86,185.97,489.88,Single-ply,SBD,M,
Boys,139.71+,1,Christian Ashby,Colorado City Colorado,141.97,242.67,145.15,215.46,603.28,Single-ply,SBD,M,
Boys,139.71+,2,Xavier Lopez,Roscoe Collegiate,139.89,240.4,136.08,179.17,555.65,Single-ply,SBD,M,
Boys,139.71+,3,Abel Lopez,Sweetwater,154.67,208.65,136.08,206.38,551.11,Single-ply,SBD,M,
