Place,Name,BirthDate,BirthYear,Team,Squat1Kg,Squat2Kg,Squat3Kg,Best3SquatKg,Bench1Kg,Bench2Kg,Bench3Kg,Best3BenchKg,Deadlift1Kg,Deadlift2Kg,Deadlift3Kg,Best3DeadliftKg,TotalKg,Division,Sex,WeightClassKg,Equipment,BodyweightKg,Event
1,Christina Maron,,1993,Haderslev SK,100,105,110,110,67.5,-70,72.5,72.5,125,130,135,135,317.5,Open,F,63,Raw,61.97,SBD
1,Agnes Larsen,,1997,Sportshøjskolen,110,117.5,122.5,122.5,65,72.5,77.5,77.5,140,150,155,155,355,Open,F,69,Raw,67.37,SBD
2,Lærke Vad,,1985,Aarhus SVK,120,125,130,130,62.5,67.5,-70,67.5,140,150,-157.5,150,347.5,Open,F,69,Raw,66.05,SBD
3,Astrid B Nielsen,,1993,Aarhus AK,72.5,77.5,82.5,82.5,60,62.5,65,65,90,97.5,105,105,252.5,Open,F,69,Raw,68.87,SBD
1,Didde Hauch,,1997,AK Nordland,-115,120,-125,120,75,80,,80,140,145,150,150,350,Open,F,76,Raw,69.57,SBD
1,Karen T Andersen,,2000,Sportshøjskolen,145,155,165,165,55,62.5,70,70,145,155,165,165,400,Open,F,84+,Raw,89.67,SBD
1,Niklas S Jepsen,,2003,Haderslev SK,160,172.5,185,185,95,105,110,110,200,210,220,220,515,Open,M,74,Raw,71.99,SBD
2,Troels Mouritzen,,1996,Aarhus SVK,165,-172.5,172.5,172.5,102.5,110,-115,110,192.5,202.5,,202.5,485,Open,M,74,Raw,72.89,SBD
3,Dannie Kyllingsbæk,,1989,Thisted VF,130,142.5,150,150,117.5,120,,120,170,180,190,190,460,Open,M,74,Raw,73.59,SBD
1,Mads Pedersen,,1989,Gudenådalens SK,205,215,222.5,222.5,160,172.5,177.5,177.5,240,250,-272.5,250,650,Open,M,83,Raw,80.23,SBD
2,Mathias Kloch,,1995,VK Kono,205,215,225,225,135,137.5,142.5,142.5,220,230,235,235,602.5,Open,M,83,Raw,80.79,SBD
3,Anders S Ki,,1982,Videbæk SK,160,170,180,180,140,145,,145,190,200,210,210,535,Open,M,83,Raw,82.28,SBD
4,Martin F Madsen,,1998,Sportshøjskolen,140,147.5,152.5,152.5,140,147.5,-150,147.5,190,200,-205,200,500,Open,M,83,Raw,82.28,SBD
5,Jacob K Sørensen,,2000,Sportshøjskolen,155,162.5,167.5,167.5,115,122.5,130,130,175,185,192.5,192.5,490,Open,M,83,Raw,81.39,SBD
6,Rune G Amstrup,,1999,Aarhus SVK,-160,160,-170,160,95,-102.5,107.5,107.5,190,205,-215,205,472.5,Open,M,83,Raw,79.13,SBD
1,Emil I Fuglsang,,1992,SK Atlas,220,227.5,,227.5,145,-150,150,150,250,260,270,270,647.5,Open,M,93,Raw,92.69,SBD
2,Benjamin B Macintyre,,2005,AK Nordland,190,205,215,215,125,132.5,137.5,137.5,245,265,275,275,627.5,Open,M,93,Raw,88.73,SBD
3,Sigurd P Lindholm,,2000,Sportshøjskolen,195,205,-215,205,140,145,-150,145,245,-260,-260,245,595,Open,M,93,Raw,90.80,SBD
4,Mathias Jensen,,1994,Holstebro S,185,192.5,200,200,120,127.5,132.5,132.5,230,240,250,250,582.5,Open,M,93,Raw,91.71,SBD
5,Andrzej Dziezyc,,1986,Holstebro S,167.5,177.5,187.5,187.5,122.5,130,135,135,200,220,237.5,237.5,560,Open,M,93,Raw,87.88,SBD
6,Anton S Egholm,,1996,Aalborg SK,190,-200,-200,190,130,135,140,140,220,-230,-235,220,550,Open,M,93,Raw,90.55,SBD
7,Bjørn Frederiksen,,1979,Hjørring SS,130,150,160,160,105,110,115,115,200,220,230,230,505,Open,M,93,Raw,90.47,SBD
8,Søren A Nielsen,,1983,AK Jyden,142.5,150,155,155,132.5,140,-145,140,192.5,-200,-200,192.5,487.5,Open,M,93,Raw,86.91,SBD
9,Jonas J Pedersen,,1998,Sportscenter,150,165,175,175,100,-107.5,-107.5,100,200,210,-215,210,485,Open,M,93,Raw,91.07,SBD
10,Martin Dahm,,1978,AK Nordland,170,180,190,190,80,90,-95,90,160,175,182.5,182.5,462.5,Open,M,93,Raw,91.55,SBD
11,Dan Jespersen,,1985,Aarhus AK,100,102.5,105,105,-80,82.5,-87.5,82.5,120,130,135,135,322.5,Open,M,93,Raw,92.07,SBD
1,Søren Hvid Hyldig,,1986,AK Frem,215,235,240,240,135,145,-150,145,270,290,-302.5,290,675,Open,M,105,Raw,101.27,SBD
2,Adam E Karsø,,2000,Aarhus SVK,210,220,227.5,227.5,132.5,137.5,142.5,142.5,245,260,267.5,267.5,637.5,Open,M,105,Raw,99.39,SBD
3,Søren G Jellesen,,1996,Aalborg SK,162.5,170,177.5,177.5,135,140,145,145,205,215,-220,215,537.5,Open,M,105,Raw,101.50,SBD
4,Morten V Pedersen,,1987,AK Jyden,167.5,172.5,,172.5,127.5,132.5,-135,132.5,202.5,212.5,-235,212.5,517.5,Open,M,105,Raw,103.84,SBD
1,Jens P Smalbro,,1994,Hjørring SS,270,290,312.5,312.5,150,-160,167.5,167.5,280,300,322.5,322.5,802.5,Open,M,120,Raw,118.22,SBD
2,Jesper B Jensen,,1990,Videbæk SK,220,227.5,235,235,160,170,-175,170,260,275,285,285,690,Open,M,120,Raw,116.22,SBD
3,Nicholaj Litchfield,,1993,Horsens SK,187.5,195,202.5,202.5,132.5,140,-145,140,222.5,235,242.5,242.5,585,Open,M,120,Raw,113.41,SBD
4,Nicolai Bentzen,,1992,Sportscenter,145,155,172.5,172.5,110,-117.5,-117.5,110,180,190,200,200,482.5,Open,M,120,Raw,112.71,SBD
1,Sune Bang,,1977,Aarhus AK,180,195,210,210,140,147.5,152.5,152.5,-160,180,195,195,557.5,Open,M,120+,Raw,128.35,SBD
2,Steffen Golczyk,,1968,Randers SM,-140,140,-150,140,140,-145,145,145,140,150,170,170,455,Open,M,120+,Raw,141.38,SBD
