Division,WeightClassKg,Place,Name,Team,BodyweightKg,Best3SquatKg,Best3BenchKg,Best3DeadliftKg,TotalKg,Equipment,Event,Sex
Boys,51.71,1,Angel Bernudee,Poteet,51.71,147.42,92.99,145.15,385.55,Single-ply,SBD,M
Boys,51.71,2,Caleb Vera,Poteet,45.36,81.65,52.16,102.06,235.87,Single-ply,SBD,M
Boys,51.71,3,Seth Anguinaga,Lytle,49.67,77.11,47.63,92.99,217.72,Single-ply,SBD,M
Boys,51.71,4,Maverick Graham,Lytle,48.08,77.11,56.7,77.11,210.92,Single-ply,SBD,M
Boys,55.79,1,Elijah Gonzales,San Antonio East Central,55.79,136.08,90.72,136.08,362.87,Single-ply,SBD,M
Boys,55.79,2,Harley Contreras,Lytle,54.43,104.33,61.23,131.54,297.1,Single-ply,SBD,M
Boys,55.79,3,Michael Donato,San Antonio Memorial,55.34,83.91,56.7,88.45,229.06,Single-ply,SBD,M
Boys,55.79,DQ,Joe Anthony Oliva,Poteet,55.79,70.31,,,,Single-ply,SBD,M
Boys,67.13,1,Nathan Ruiz,San Antonio East Central,67.13,192.78,142.88,208.65,544.31,Single-ply,SBD,M
Boys,67.13,2,Albert Alvarez,Jourdanton,62.6,158.76,102.06,165.56,426.38,Single-ply,SBD,M
Boys,67.13,3,Jose Flores #3,San Antonio Kennedy,67.13,147.42,104.33,163.29,415.04,Single-ply,SBD,M
Boys,67.13,4,Raymon Garcia,San Antonio Memorial,63.96,120.2,79.38,138.35,337.93,Single-ply,SBD,M
Boys,67.13,5,Michael Camacho,San Antonio Memorial,63.28,61.23,43.09,106.59,210.92,Single-ply,SBD,M
Boys,74.84,1,Joseph Ortiz,Jourdanton,71.44,199.58,113.4,215.46,528.44,Single-ply,SBD,M
Boys,74.84,2,Nathan Medrano,Lytle,70.99,174.63,117.93,174.63,467.2,Single-ply,SBD,M
Boys,74.84,3,Buddy Vega,Jourdanton,74.84,195.04,111.13,154.22,460.4,Single-ply,SBD,M
Boys,74.84,4,Eric Garcia,Lytle,72.35,140.61,77.11,124.74,342.46,Single-ply,SBD,M
Boys,74.84,5,Matt Esparza,San Antonio Memorial,70.53,83.91,70.31,147.42,301.64,Single-ply,SBD,M
Boys,74.84,DQ,Jerret Moreno,San Antonio East Central,71.67,,,,,Single-ply,SBD,M
Boys,82.1,1,Isaac Mendoza,San Antonio East Central,82.1,213.19,136.08,192.78,542.04,Single-ply,SBD,M
Boys,82.1,2,Nathan Garcia,Jourdanton,75.75,183.7,106.59,208.65,498.95,Single-ply,SBD,M
Boys,82.1,3,Orlando Medrano,Lytle,80.51,176.9,124.74,195.04,496.68,Single-ply,SBD,M
Boys,82.1,4,Dylan Anguinaga,Lytle,82.1,185.97,111.13,192.78,489.88,Single-ply,SBD,M
Boys,82.1,5,Jonathan Darby,Lytle,79.61,165.56,95.25,181.44,442.25,Single-ply,SBD,M
Boys,82.1,6,Isaac Gonzalez,San Antonio Memorial,77.11,136.08,70.31,142.88,349.27,Single-ply,SBD,M
Boys,82.1,7,Elliot Ramirez,San Antonio Memorial,79.47,115.67,74.84,149.69,340.19,Single-ply,SBD,M
Boys,82.1,8,Oscar de Luna,San Antonio Memorial,77.56,127.01,72.57,113.4,312.98,Single-ply,SBD,M
Boys,82.1,9,Demetrius Brown,San Antonio Memorial,78.06,88.45,63.5,104.33,256.28,Single-ply,SBD,M
Boys,82.1,DQ,Dustin Webb,San Antonio East Central,80.74,,,,,Single-ply,SBD,M
Boys,89.81,1,Joe Estrada,Jourdanton,87.32,244.94,188.24,233.6,666.78,Single-ply,SBD,M
Boys,89.81,2,Daniel García,Lytle,86.41,185.97,104.33,195.04,485.34,Single-ply,SBD,M
Boys,89.81,3,Rudy Pena,San Antonio Kennedy,83.46,181.44,97.52,181.44,460.4,Single-ply,SBD,M
Boys,89.81,DQ,Jeff Mendez,San Antonio Kennedy,88.45,,,,,Single-ply,SBD,M
Boys,99.79,1,Mark Bocanegra,Jourdanton,98.43,294.84,158.76,226.8,680.39,Single-ply,SBD,M
Boys,99.79,2,Joshua Garza,San Antonio East Central,99.56,226.8,181.44,215.46,623.69,Single-ply,SBD,M
Boys,99.79,3,Joey Mendez,San Antonio Memorial,99.79,233.6,113.4,222.26,569.26,Single-ply,SBD,M
Boys,99.79,4,Ryan Gibson,Jourdanton,98.43,188.24,106.59,204.12,498.95,Single-ply,SBD,M
Boys,99.79,5,Bryce Sandoval,Poteet,98.2,183.7,113.4,192.78,489.88,Single-ply,SBD,M
Boys,99.79,6,Jacob Lopez,San Antonio Brooks Academy,90.26,185.97,106.59,188.24,480.81,Single-ply,SBD,M
Boys,99.79,7,Tyler Crisp,Poteet,91.17,158.76,102.06,192.78,453.59,Single-ply,SBD,M
Boys,99.79,8,Thomas Duran,San Antonio Brooks Academy,95.25,158.76,88.45,204.12,451.32,Single-ply,SBD,M
Boys,99.79,9,Paulino Bosquez,San Antonio Kennedy,96.39,142.88,79.38,185.97,408.23,Single-ply,SBD,M
Boys,99.79,10,Jose Coronado,San Antonio Memorial,94.8,145.15,81.65,131.54,358.34,Single-ply,SBD,M
Boys,99.79,11,Bernard Aguilar,Poteet,96.16,129.27,79.38,142.88,351.53,Single-ply,SBD,M
Boys,109.77,1,Enrique Lugo,Jourdanton,106.82,328.85,206.38,256.28,791.52,Single-ply,SBD,M
Boys,109.77,2,Jeremy Chamberlain,San Antonio East Central,106.59,288.03,174.63,272.16,734.82,Single-ply,SBD,M
Boys,109.77,3,Caesar Soto,San Antonio East Central,107.5,294.84,158.76,204.12,657.71,Single-ply,SBD,M
Boys,109.77,4,Paul Esparza,San Antonio Brooks Academy,106.37,192.78,106.59,183.7,483.08,Single-ply,SBD,M
Boys,109.77,5,Andres Garzes,San Antonio Memorial,109.32,172.37,108.86,163.29,444.52,Single-ply,SBD,M
Boys,109.77,6,Robert Hinojosa,San Antonio Kennedy,102.51,172.37,72.57,192.78,437.72,Single-ply,SBD,M
Boys,109.77,7,Willie Friday,San Antonio Memorial,107.05,120.2,97.52,181.44,399.16,Single-ply,SBD,M
Boys,109.77,8,Fabian Morales,San Antonio Memorial,105.73,124.74,92.99,138.35,356.07,Single-ply,SBD,M
Boys,124.74,1,Daniel De Leon,San Antonio East Central,114.08,263.08,140.61,233.6,637.3,Single-ply,SBD,M
Boys,124.74,2,JohnPaul Lugo,Jourdanton,120.2,226.8,145.15,240.4,612.35,Single-ply,SBD,M
Boys,124.74,3,William Olson,Jourdanton,114.99,249.48,151.95,201.85,603.28,Single-ply,SBD,M
Boys,124.74,4,Joshua Macat,Lytle,111.58,222.26,122.47,215.46,560.19,Single-ply,SBD,M
Boys,124.74,5,Jonathan Ramirez,Lytle,114.31,199.58,131.54,210.92,542.04,Single-ply,SBD,M
Boys,124.74,6,Damien Cantu,San Antonio Kennedy,121.11,190.51,113.4,188.24,492.15,Single-ply,SBD,M
Boys,124.74,7,Horacio Salto,San Antonio Brooks Academy,118.84,161.03,115.67,197.31,474,Single-ply,SBD,M
Boys,124.74,8,Hector Garcia #8,Poteet,115.21,145.15,102.06,147.42,394.63,Single-ply,SBD,M
Boys,124.74,DQ,Justin Brister,Jourdanton,118.61,267.62,,,,Single-ply,SBD,M
Boys,124.74+,1,Alec Gonzalez,San Antonio East Central,132,272.16,174.63,244.94,691.73,Single-ply,SBD,M
Boys,124.74+,2,Emilio Sanchez,San Antonio East Central,125.87,281.23,124.74,208.65,614.62,Single-ply,SBD,M
Boys,124.74+,3,Ronnie Lucio,Poteet,138.35,242.67,127.01,204.12,573.79,Single-ply,SBD,M
Boys,124.74+,4,Michael Balderaz,Poteet,129.05,183.7,102.06,192.78,478.54,Single-ply,SBD,M
Boys,124.74+,5,Carlos Ramirez #2,San Antonio Memorial,157.85,199.58,99.79,163.29,462.66,Single-ply,SBD,M
Boys,124.74+,6,Jay Sandoval,San Antonio Memorial,153.31,167.83,108.86,181.44,458.13,Single-ply,SBD,M
Boys,124.74+,7,Jesse Martinez,San Antonio Kennedy,155.36,149.69,92.99,158.76,401.43,Single-ply,SBD,M
Boys,,NS,Xavier Abrigo,San Antonio Memorial,,,,,,Single-ply,SBD,M
Boys,,NS,Gilbert Lara,San Antonio Memorial,,,,,,Single-ply,SBD,M
Boys,,NS,Jamal Shalvn,San Antonio Memorial,,,,,,Single-ply,SBD,M
Boys,,NS,Jeremy Coronado,Poteet,,,,,,Single-ply,SBD,M
Boys,,NS,Raul Guerra,Poteet,,,,,,Single-ply,SBD,M
