Place,Name,Sex,BirthDate,Age,Country,State,Equipment,Division,BodyweightKg,WeightClassKg,Squat1Kg,Squat2Kg,Squat3Kg,Best3SquatKg,Bench1Kg,Bench2Kg,Bench3Kg,Best3BenchKg,Deadlift1Kg,Deadlift2Kg,Deadlift3Kg,Best3DeadliftKg,TotalKg,Event
1,Brianna Ingolio,F,2001-11-20,20,USA,CA,Raw,J20-23,72.9,75,140,-150,-150,140,75,-77.5,77.5,77.5,142.5,-147.5,147.5,147.5,365,SBD
1,Hope Valente,F,1999-07-01,22,USA,CA,Raw,J20-23,80.3,82.5,115,125,-137.5,125,62.5,70,-75,70,127.5,142.5,-147.5,142.5,337.5,SBD
1,Gabriella Alvarado,F,1996-02-13,26,USA,CA,Raw,Open,86,90,122.5,-127.5,130,130,97.5,-105,-105,97.5,160,167.5,172.5,172.5,400,SBD
1,Audriana Zamora,F,2000-06-23,21,USA,CA,Raw,J20-23,121.9,125,-60,72.5,85,85,52.5,-57.5,57.5,57.5,110,125,-137.5,125,267.5,SBD
1,Sarah Strong,F,1988-06-30,33,USA,CA,Raw,Open,59,60,105,112.5,120,120,65,70,-75,70,125,132.5,,132.5,322.5,SBD
1,April Honore,F,1987-12-04,34,USA,CA,Raw,Open,67.4,67.5,125,-132.5,-132.5,125,70,75,-77.5,75,177.5,-187.5,-187.5,177.5,377.5,SBD
2,Gabriela Martinez,F,1993-05-22,28,USA,CA,Raw,Open,66.5,67.5,100,-110,110,110,57.5,62.5,67.5,67.5,110,120,-130,120,297.5,SBD
1,Jasmin De Los Santos,F,1990-12-14,31,USA,CA,Raw,Open,73.2,75,132.5,140,145,145,-85,90,-95,90,147.5,152.5,157.5,157.5,392.5,SBD
2,Korryn Miller,F,1996-02-16,26,USA,CA,Raw,Open,75,75,105,110,115,115,67.5,72.5,77.5,77.5,142.5,150,155,155,347.5,SBD
1,Arlyn Abanes,F,1993-10-15,28,USA,CA,Raw,Open,79.8,82.5,125,-135,-135,125,62.5,67.5,-70,67.5,137.5,145,152.5,152.5,345,SBD
1,Noelle Rodemoyer,F,1994-07-02,27,USA,CA,Raw,Open,88.2,90,80,90,92.5,92.5,52.5,-57.5,-57.5,52.5,130,140,-145,140,285,SBD
2,Morgan Prickett,F,1994-10-22,27,USA,CA,Raw,Open,85,90,-95,-100,100,100,55,60,62.5,62.5,110,120,-130,120,282.5,SBD
1,Kimberly Tellez,F,2004-12-23,17,USA,CA,Raw,J17-19,60.9,67.5,-67.5,70,77.5,77.5,45,50,52.5,52.5,87.5,95,-97.5,95,225,SBD
1,Rocio Higuera,F,1997-07-13,24,USA,CA,Wraps,Open,65.7,67.5,-115,-125,125,125,55,65,-70,65,105,122.5,137.5,137.5,327.5,SBD
1,Sarah Strong,F,1988-06-30,33,USA,CA,Raw,Open,59,60,,,,,65,70,-75,70,,,,,70,B
1,Robert Querns,M,2001-09-20,20,USA,CA,Raw,J20-23,70.4,75,170,180,-187.5,180,120,125,127.5,127.5,192.5,210,-220,210,517.5,SBD
2,Salem Farraj,M,,20,USA,CA,Raw,J20-23,74.3,75,150,157.5,-165,157.5,117.5,125,130,130,190,200,-210,200,487.5,SBD
1,Jeremiah Edmond,M,2001-09-12,20,USA,CA,Raw,J20-23,89.7,90,192.5,197.5,207.5,207.5,135,140,-145,140,267.5,275,-280,275,622.5,SBD
1,Deven Soto,M,2002-03-18,20,USA,CA,Raw,J20-23,94.8,100,-197.5,197.5,212.5,212.5,120,-130,130,130,237.5,257.5,-262.5,257.5,600,SBD
1,Jose Gonzalez #6,M,1998-05-16,23,USA,CA,Raw,J20-23,123.3,125,197.5,207.5,210,210,122.5,-132.5,-132.5,122.5,227.5,237.5,242.5,242.5,575,SBD
1,Ryan Flores,M,1997-05-12,24,USA,CA,Raw,Open,60.4,67.5,130,-137.5,-145,130,85,92.5,95,95,155,165,167.5,167.5,392.5,SBD
1,Bobby Lawson,M,1988-11-20,33,USA,CA,Raw,Open,75,75,-157.5,-175,175,175,112.5,-125,137.5,137.5,200,220,-232.5,220,532.5,SBD
1,Florencio Bermudez Jr,M,1991-01-29,31,USA,CA,Raw,Open,97.1,100,220,230,245,245,147.5,165,-170,165,230,245,255,255,665,SBD
2,River Rodriguez,M,1998-01-06,24,USA,CA,Raw,Open,96.9,100,137.5,155,165,165,102.5,-115,-115,102.5,200,215,-227.5,215,482.5,SBD
1,Victor Terrero Ramirez,M,1988-12-09,33,USA,CA,Raw,Open,108.9,110,245,262.5,-272.5,262.5,157.5,-172.5,-172.5,157.5,-267.5,267.5,-280,267.5,687.5,SBD
2,Gerardo Padilla,M,1996-02-18,26,USA,CA,Raw,Open,108.8,110,210,225,235,235,157.5,165,170,170,230,242.5,252.5,252.5,657.5,SBD
3,Efrain Cortez,M,1983-09-09,38,USA,CA,Raw,Open,106.9,110,177.5,-192.5,-192.5,177.5,-165,165,175,175,215,222.5,230,230,582.5,SBD
1,Carlos Ribadeneira,M,1986-09-23,35,USA,CA,Raw,Open,118,125,190,-197.5,-200,190,135,142.5,-150,142.5,210,220,222.5,222.5,555,SBD
1,Francisco Castanon,M,1998-01-06,24,USA,CA,Raw,Open,180.6,140+,282.5,292.5,-302.5,292.5,192.5,197.5,202.5,202.5,220,-227.5,232.5,232.5,727.5,SBD
1,Michael Seitz,M,2002-09-14,19,USA,CA,Raw,J17-19,97.1,100,177.5,192.5,200,200,117.5,127.5,-130,127.5,190,202.5,217.5,217.5,545,SBD
2,Mario Martinez,M,2002-08-22,19,USA,CA,Raw,J17-19,90.2,100,125,137.5,147.5,147.5,92.5,100,105,105,152.5,167.5,-182.5,167.5,420,SBD
1,Genaro Casasola,M,1986-12-14,35,USA,CA,Raw,S35-39,108,110,185,192.5,205,205,115,127.5,-137.5,127.5,230,245,252.5,252.5,585,SBD
1,Carlos Ribadeneira,M,1986-09-23,35,USA,CA,Raw,S35-39,118,125,190,-197.5,-200,190,135,142.5,-150,142.5,210,220,222.5,222.5,555,SBD
1,Henry Colorado,M,1985-03-31,,USA,CA,Raw,S35-39,134,140,205,217.5,-227.5,217.5,120,-127.5,137.5,137.5,245,265,-272.5,265,620,SBD
1,Daniel Gonzales #1,M,2000-12-03,21,USA,CA,Wraps,J20-23,118.8,125,205,212.5,-227.5,212.5,115,122.5,-135,122.5,202.5,215,-227.5,215,550,SBD
1,Mark Laurel,M,1961-01-09,,USA,CA,Wraps,M60-64,74,75,110,115,120,120,107.5,110,-111,110,160,162.5,165,165,395,SBD
1,Steve Loera,M,1994-10-07,27,USA,CA,Wraps,Open,87.7,90,202.5,210,-215,210,110,120,122.5,122.5,182.5,195,202.5,202.5,535,SBD
1,Nick Russo,M,1985-01-12,37,USA,CA,Wraps,Open,119,125,285,300,-315,300,192.5,210,,210,297.5,315,,315,825,SBD
1,Logan Zeit,M,,,USA,CA,Wraps,J17-19,98.2,100,205,215,-227.5,215,145,150,-162.5,150,215,235,245,245,610,SBD
1,Nick Russo,M,1985-01-12,37,USA,CA,Wraps,S35-39,119,125,285,300,-315,300,192.5,210,,210,297.5,315,,315,825,SBD
1,Mark Laurel,M,1961-01-09,,USA,CA,Raw,M60-64,74,75,,,,,107.5,110,-111,110,,,,,110,B
1,Mark Laurel,M,1961-01-09,,USA,CA,Raw,M60-64,74,75,,,,,,,,,160,162.5,165,165,165,D
