Division,WeightClassKg,Place,Name,Team,BodyweightKg,Best3SquatKg,Best3BenchKg,Best3DeadliftKg,TotalKg,Equipment,Event,Sex,BirthDate
Boys,51.71,1,Dustin Bland,Orange Little Cypress-Mauriceville,50.89,122.47,111.13,151.95,385.55,Single-ply,SBD,M,
Boys,51.71,2,Caleb Johnson,Lumberton,51.71,138.35,74.84,138.35,351.53,Single-ply,SBD,M,
Boys,51.71,3,Kolbe Murray,Bay City,49.8,127.01,63.5,142.88,333.39,Single-ply,SBD,M,
Boys,51.71,4,Cam Wright,Jasper,50.89,129.27,70.31,131.54,331.12,Single-ply,SBD,M,
Boys,51.71,5,Dalton Laxon,Huffman Hargrave,51.35,124.74,70.31,117.93,312.98,Single-ply,SBD,M,
Boys,51.71,6,Canaan Allen,Bay City,50.89,106.59,68.04,131.54,306.17,Single-ply,SBD,M,
Boys,51.71,7,Adam Mock,Sealy,51.17,115.67,70.31,115.67,301.64,Single-ply,SBD,M,
Boys,51.71,8,Marcelo Avalos,Vidor,51.48,113.4,65.77,120.2,299.37,Single-ply,SBD,M,
Boys,51.71,9,Anthony Castro,Gonzales,50.3,106.59,61.23,108.86,276.69,Single-ply,SBD,M,
Boys,51.71,10,Daniel García,Gonzales,51.3,99.79,52.16,108.86,260.82,Single-ply,SBD,M,
Boys,51.71,11,Dray Renfrow,Bridge City,44,77.11,47.63,111.13,235.87,Single-ply,SBD,M,
Boys,51.71,DQ,Ashton Evans,Geronimo Navarro,50.35,,,,,Single-ply,SBD,M,
Boys,55.79,1,Rudy Morales,Shepherd,55.2,192.78,113.4,208.65,514.83,Single-ply,SBD,M,
Boys,55.79,2,Marcos Perez-Garcia,Geronimo Navarro,53.8,156.49,115.67,161.03,433.18,Single-ply,SBD,M,
Boys,55.79,3,Drayton Mazac,Sealy,55.66,138.35,79.38,163.29,381.02,Single-ply,SBD,M,
Boys,55.79,4,Cody Krupala,La Grange,54.7,142.88,92.99,136.08,371.95,Single-ply,SBD,M,
Boys,55.79,5,Cayde Novosad,Sealy,55.2,127.01,83.91,151.95,362.87,Single-ply,SBD,M,
Boys,55.79,6,Mark Villegas,Liberty,53.8,133.81,54.43,129.27,317.51,Single-ply,SBD,M,
Boys,55.79,7,Kellen McCracken,Sour Lake Hardin-Jefferson,55.2,102.06,65.77,133.81,301.64,Single-ply,SBD,M,
Boys,55.79,8,Kenson Dubois,Orangefield,54.39,102.06,68.04,108.86,278.96,Single-ply,SBD,M,
Boys,55.79,9,Colten Gross,Bridge City,53.07,102.06,49.9,117.93,269.89,Single-ply,SBD,M,
Boys,55.79,10,Braxton Rambo,Orange Little Cypress-Mauriceville,54.79,97.52,61.23,102.06,260.82,Single-ply,SBD,M,
Boys,55.79,11,Thomas Olivier,La Marque,55.11,77.11,54.43,102.06,233.6,Single-ply,SBD,M,
Boys,55.79,NS,Landon Thompson,Orange Little Cypress-Mauriceville,,,,,,Single-ply,SBD,M,
Boys,59.87,1,Lain Baker,Shepherd,59.28,215.46,138.35,201.85,555.65,Single-ply,SBD,M,
Boys,59.87,2,Danny Hughston,Cuero,58.56,179.17,90.72,170.1,439.98,Single-ply,SBD,M,
Boys,59.87,3,Juan Perez,Sealy,58.24,165.56,86.18,179.17,430.91,Single-ply,SBD,M,
Boys,59.87,4,Hunter Vandver,Splendora,57.38,142.88,92.99,183.7,419.57,Single-ply,SBD,M,
Boys,59.87,5,Jesse Norwood,Needville,59.56,147.42,104.33,142.88,394.63,Single-ply,SBD,M,
Boys,59.87,6,Seth Williamson,Orangefield,59.69,145.15,92.99,154.22,392.36,Single-ply,SBD,M,
Boys,59.87,7,Mark Vickery,Silsbee,57.92,149.69,88.45,151.95,390.09,Single-ply,SBD,M,
Boys,59.87,8,Aston Broussard,Sour Lake Hardin-Jefferson,59.19,142.88,74.84,170.1,387.82,Single-ply,SBD,M,
Boys,59.87,9,David Daleo,Orange Little Cypress-Mauriceville,58.2,142.88,70.31,163.29,376.48,Single-ply,SBD,M,
Boys,59.87,10,Max Wickens,Sealy,59.19,136.08,86.18,136.08,358.34,Single-ply,SBD,M,
Boys,59.87,NS,Chapa Joseph,West Orange-Stark,,,,,,Single-ply,SBD,M,
Boys,59.87,DQ,Kevin Luong,Orangefield,59.15,,,,,Single-ply,SBD,M,
Boys,67.13,1,Jeremiah Metzgar,Sealy,65.82,195.04,133.81,215.46,544.31,Single-ply,SBD,M,
Boys,67.13,2,Jessiah Barr,Gonzales,65.45,206.38,117.93,199.58,523.9,Single-ply,SBD,M,
Boys,67.13,3,Gage Murphy,Shepherd,66.72,201.85,115.67,197.31,514.83,Single-ply,SBD,M,
Boys,67.13,4,Carlos Guevara,Shepherd,66.54,206.38,106.59,197.31,510.29,Single-ply,SBD,M,
Boys,67.13,5,Cesar Matamoros,Gonzales,65.73,195.04,113.4,192.78,501.22,Single-ply,SBD,M,
Boys,67.13,6,Roberto Suarez,Lumberton,64.73,185.97,111.13,188.24,485.34,Single-ply,SBD,M,
Boys,67.13,7,Tahj Amerson,West Orange-Stark,65.68,181.44,108.86,183.7,474,Single-ply,SBD,M,
Boys,67.13,8,Jacob Brown,Livingston,66.95,161.03,102.06,197.31,460.4,Single-ply,SBD,M,
Boys,67.13,9,Bradley Garbs,Sealy,65.77,151.95,115.67,188.24,455.86,Single-ply,SBD,M,
Boys,67.13,10,Chase Macek,El Campo,60.51,167.83,102.06,154.22,424.11,Single-ply,SBD,M,
Boys,67.13,11,Cyrus Martinez,Shepherd,62.1,161.03,83.91,176.9,421.84,Single-ply,SBD,M,
Boys,67.13,DQ,Sergio Sandoval,Shepherd,66.27,,,,,Single-ply,SBD,M,
Boys,74.84,1,Joel Weekes,Shepherd,73.48,238.14,142.88,235.87,616.89,Single-ply,SBD,M,
Boys,74.84,2,Izaac Zamora,Geronimo Navarro,71.03,222.26,129.27,206.38,557.92,Single-ply,SBD,M,
Boys,74.84,3,Talon Clark,Hamshire-Fannett,74.12,215.46,113.4,188.24,517.1,Single-ply,SBD,M,
Boys,74.84,4,Moises Padilla,Sour Lake Hardin-Jefferson,74.84,190.51,104.33,195.04,489.88,Single-ply,SBD,M,
Boys,74.84,5,Marcus Parnell,Jasper,70.72,174.63,120.2,192.78,487.61,Single-ply,SBD,M,
Boys,74.84,6,Roberto Casas,Sealy,71.53,183.7,108.86,192.78,485.34,Single-ply,SBD,M,
Boys,74.84,7,Dustin Helms,West Orange-Stark,74.84,170.1,108.86,195.04,474,Single-ply,SBD,M,
Boys,74.84,NS,Demarcus Warren,West Orange-Stark,,,,,,Single-ply,SBD,M,
Boys,74.84,NS,Nicholas Sparks,Orangefield,,,,,,Single-ply,SBD,M,
Boys,74.84,DQ,Kaden Baugh,Orange Little Cypress-Mauriceville,72.71,,,,,Single-ply,SBD,M,
Boys,74.84,DQ,Beaux Cox,Huffman Hargrave,73.26,217.72,,,,Single-ply,SBD,M,
Boys,74.84,DQ,Alex Jamie,Hamshire-Fannett,71.89,190.51,102.06,,,Single-ply,SBD,M,
Boys,82.1,1,Cody Baker,Cuero,81.33,254.01,156.49,219.99,630.49,Single-ply,SBD,M,
Boys,82.1,2,Jose Reynaga,Port Lavaca Calhoun,80.69,226.8,149.69,226.8,603.28,Single-ply,SBD,M,
Boys,82.1,3,Parker Kingrea,West Columbia,80.29,226.8,120.2,219.99,566.99,Single-ply,SBD,M,
Boys,82.1,4,Jesse Myers,Vidor,81.15,244.94,127.01,195.04,566.99,Single-ply,SBD,M,
Boys,82.1,5,Kai Janice,La Marque,77.97,219.99,145.15,192.78,557.92,Single-ply,SBD,M,
Boys,82.1,6,Riley Marlow,Vidor,80.78,192.78,136.08,204.12,532.97,Single-ply,SBD,M,
Boys,82.1,7,Tanner Lacey,Shepherd,81.33,199.58,111.13,206.38,517.1,Single-ply,SBD,M,
Boys,82.1,8,Gunner Grimes,Orangefield,75.34,170.1,104.33,240.4,514.83,Single-ply,SBD,M,
Boys,82.1,DQ,Seth Rodgers,Vidor,76.34,,,,,Single-ply,SBD,M,
Boys,82.1,DQ,Titus Ellingsen,Huffman Hargrave,80.74,,,,,Single-ply,SBD,M,
Boys,82.1,DQ,Alex Leija,Freeport Brazosport,79.92,201.85,,,,Single-ply,SBD,M,
Boys,82.1,DQ,Diego Campos,Geronimo Navarro,79.11,188.24,,,,Single-ply,SBD,M,
Boys,82.1,DQ,Beau Elkins,Orangefield,79.06,,,,,Single-ply,SBD,M,
Boys,89.81,1,Joseph Flores,Huffman Hargrave,88.99,285.76,183.7,260.82,730.28,Single-ply,SBD,M,
Boys,89.81,2,Javaree Bacon,Cuero,87.5,276.69,138.35,238.14,653.17,Single-ply,SBD,M,
Boys,89.81,3,Enrique Tellez,Livingston,88.13,242.67,138.35,217.72,598.74,Single-ply,SBD,M,
Boys,89.81,4,Tyler Westbrook,Huffman Hargrave,88.5,231.33,147.42,210.92,589.67,Single-ply,SBD,M,
Boys,89.81,5,David Perez,Port Lavaca Calhoun,88.45,224.53,115.67,240.4,580.6,Single-ply,SBD,M,
Boys,89.81,6,Matthew Torres,Needville,86.91,242.67,124.74,195.04,562.45,Single-ply,SBD,M,
Boys,89.81,7,Brayden Ethier,Livingston,87.5,213.19,133.81,204.12,551.11,Single-ply,SBD,M,
Boys,89.81,NS,Tanner Adams,Splendora,,,,,,Single-ply,SBD,M,
Boys,89.81,DQ,Caleb Myers,Sweeny,85.32,199.58,,,,Single-ply,SBD,M,
Boys,89.81,DQ,Pavan Patel,Port Lavaca Calhoun,87.5,,,,,Single-ply,SBD,M,
Boys,89.81,DQ,Akilles Garcia,Orangefield,85.96,,,,,Single-ply,SBD,M,
Boys,89.81,DQ,Matt Richardson,Geronimo Navarro,85.64,,,,,Single-ply,SBD,M,
Boys,99.79,1,Caden Bradford,Bay City,93.67,265.35,167.83,233.6,666.78,Single-ply,SBD,M,
Boys,99.79,2,Cade McKinstry,Lumberton,98.47,265.35,156.49,235.87,657.71,Single-ply,SBD,M,
Boys,99.79,3,Xavier Smith,Port Lavaca Calhoun,91.76,247.21,151.95,249.48,648.64,Single-ply,SBD,M,
Boys,99.79,4,Hunter Brewster,Needville,94.17,256.28,158.76,226.8,641.83,Single-ply,SBD,M,
Boys,99.79,5,Antonio Bolton,Silsbee,95.75,240.4,145.15,244.94,630.49,Single-ply,SBD,M,
Boys,99.79,6,Faustino Galvan,Lumberton,91.67,217.72,181.44,229.06,628.23,Single-ply,SBD,M,
Boys,99.79,7,Cutler Hubbard,Orangefield,96.3,258.55,142.88,213.19,614.62,Single-ply,SBD,M,
Boys,99.79,8,Layne Thiele,Gonzales,95.39,231.33,140.61,219.99,591.94,Single-ply,SBD,M,
Boys,99.79,9,Ethan Hart,Sealy,95.3,204.12,149.69,215.46,569.26,Single-ply,SBD,M,
Boys,99.79,10,Luis Moreno,Liberty,91.67,215.46,124.74,219.99,560.19,Single-ply,SBD,M,
Boys,99.79,11,Jan Nazario,Orange Little Cypress-Mauriceville,96.98,226.8,117.93,201.85,546.58,Single-ply,SBD,M,
Boys,99.79,DQ,Landen Robbins,Shepherd,92.22,,,,,Single-ply,SBD,M,
Boys,109.77,1,Hunter Norwood,Orangefield,107.55,283.5,165.56,249.48,698.53,Single-ply,SBD,M,
Boys,109.77,2,Hunter Ashworth,Orangefield,105.01,272.16,161.03,258.55,691.73,Single-ply,SBD,M,
Boys,109.77,3,Xavier Mindiola,Livingston,103.01,263.08,172.37,226.8,662.24,Single-ply,SBD,M,
Boys,109.77,4,Grayden Spencer,Lumberton,108.09,254.01,129.27,272.16,655.44,Single-ply,SBD,M,
Boys,109.77,5,Yahir Alvarez,Sealy,107.14,233.6,149.69,235.87,619.15,Single-ply,SBD,M,
Boys,109.77,6,Logan Alpha,Splendora,106.32,231.33,149.69,226.8,607.81,Single-ply,SBD,M,
Boys,109.77,7,Ethan Meads,Orangefield,107.64,235.87,151.95,215.46,603.28,Single-ply,SBD,M,
Boys,109.77,8,Robert Hendon,Lumberton,100.88,251.74,113.4,192.78,557.92,Single-ply,SBD,M,
Boys,109.77,9,Anthony Weikel,La Grange,107.23,222.26,120.2,208.65,551.11,Single-ply,SBD,M,
Boys,109.77,DQ,Amier Washington,Orange Little Cypress-Mauriceville,106.68,,,,,Single-ply,SBD,M,
Boys,109.77,NS,Dylan Whitman,Orangefield,,,,,,Single-ply,SBD,M,
Boys,109.77,NS,Andrew Wilson,West Orange-Stark,,,,,,Single-ply,SBD,M,
Boys,109.77,DQ,Colton Jacobs,Huffman Hargrave,107.09,244.94,151.95,,,Single-ply,SBD,M,
Boys,109.77,DQ,Brody Whitson,Geronimo Navarro,108.41,,,,,Single-ply,SBD,M,
Boys,124.74,1,Gage Spencer,Port Lavaca Calhoun,116.57,290.3,163.29,258.55,712.14,Single-ply,SBD,M,
Boys,124.74,2,Coby Coulter,Orangefield,121.79,290.3,176.9,240.4,707.6,Single-ply,SBD,M,
Boys,124.74,3,Kyle Weghorst,Cuero,113.62,299.37,167.83,235.87,703.07,Single-ply,SBD,M,
Boys,124.74,4,Juan Leal,El Campo,115.62,281.23,172.37,226.8,680.39,Single-ply,SBD,M,
Boys,124.74,5,Christian Rodriguez #1,Port Lavaca Calhoun,122.2,283.5,156.49,204.12,644.1,Single-ply,SBD,M,
Boys,124.74,6,Gabe Hernandez,Lumberton,121.61,233.6,161.03,201.85,596.47,Single-ply,SBD,M,
Boys,124.74,7,Nicholas Lejeune,Bridge City,117.98,217.72,131.54,231.33,580.6,Single-ply,SBD,M,
Boys,124.74,DQ,Bj Moore,Freeport Brazosport,120.97,290.3,,,,Single-ply,SBD,M,
Boys,124.74,DQ,Cooper Imhoff,La Grange,116.44,231.33,145.15,,,Single-ply,SBD,M,
Boys,124.74,DQ,Cord Carter,Liberty,110.4,197.31,,,,Single-ply,SBD,M,
Boys,124.74,DQ,Zac Davis,Liberty,112.4,,,,,Single-ply,SBD,M,
Boys,139.71,1,Landon Henke,Needville,131.09,362.87,233.6,283.5,879.97,Single-ply,SBD,M,
Boys,139.71,2,Dailynn Hernandez,Bay City,129.68,288.03,147.42,215.46,650.91,Single-ply,SBD,M,
Boys,139.71,3,Leihten Beck,Shepherd,125.33,272.16,138.35,226.8,637.3,Single-ply,SBD,M,
Boys,139.71,4,Vinson Samudio,Port Lavaca Calhoun,136.85,288.03,136.08,210.92,635.03,Single-ply,SBD,M,
Boys,139.71,5,Camren Body,Cuero,128.09,226.8,131.54,199.58,557.92,Single-ply,SBD,M,
Boys,139.71,6,Orlando Sanchez,La Grange,136.67,226.8,136.08,183.7,546.58,Single-ply,SBD,M,
Boys,139.71,7,Isaac Allen,Bay City,130.73,226.8,138.35,174.63,539.77,Single-ply,SBD,M,
Boys,139.71,8,Omar Borjon,Gonzales,129.86,215.46,131.54,172.37,519.36,Single-ply,SBD,M,
Boys,139.71,NS,Devin Herd,West Orange-Stark,,,,,,Single-ply,SBD,M,
Boys,139.71,DQ,Peter Thielen,Sour Lake Hardin-Jefferson,125.33,272.16,165.56,,,Single-ply,SBD,M,
Boys,139.71,DQ,Alex Brown,Cuero,132.18,260.82,117.93,,,Single-ply,SBD,M,
Boys,139.71,DQ,Treye Atkinson,Livingston,132.95,222.26,,,,Single-ply,SBD,M,
Boys,139.71+,1,Reagan Gibson,West Columbia,144.47,317.51,183.7,260.82,762.04,Single-ply,SBD,M,
Boys,139.71+,2,Brynten White,Livingston,139.89,244.94,165.56,219.99,630.49,Single-ply,SBD,M,
Boys,139.71+,3,Artemio Herrera,Port Lavaca Calhoun,147.6,251.74,138.35,215.46,605.55,Single-ply,SBD,M,
Boys,139.71+,4,Kelvin Hernandez,Shepherd,144.92,199.58,115.67,176.9,492.15,Single-ply,SBD,M,
