Division,WeightClassKg,Place,Name,Team,BodyweightKg,Best3SquatKg,Best3BenchKg,Best3DeadliftKg,TotalKg,Equipment,Event,Sex
Boys,51.71,1,Leo Martinez,Rio Grande City,50.85,151.95,104.33,161.03,417.3,Single-ply,SBD,M
Boys,51.71,2,Jesus Puente,La Joya Palmview,51.35,142.88,70.31,151.95,365.14,Single-ply,SBD,M
Boys,51.71,3,Fernando Gonzalez,McAllen Memorial,50.26,115.67,86.18,145.15,347,Single-ply,SBD,M
Boys,51.71,4,Martin Alaniz,Sharyland Pioneer,50.12,83.91,54.43,122.47,260.82,Single-ply,SBD,M
Boys,51.71,5,Tommy Livigni,McAllen Memorial,49.9,52.16,40.82,72.57,165.56,Single-ply,SBD,M
Boys,55.79,1,Justin Berner,Edinburg North,55.79,170.1,113.4,161.03,444.52,Single-ply,SBD,M
Boys,55.79,2,Edgar Martinez #3,Edinburg Vela,55.66,165.56,102.06,174.63,442.25,Single-ply,SBD,M
Boys,55.79,3,Kevin Trevino,McAllen Memorial,55.38,149.69,106.59,161.03,417.3,Single-ply,SBD,M
Boys,55.79,4,Patricio Chavez,Mission Sharyland,53.16,163.29,61.23,149.69,374.21,Single-ply,SBD,M
Boys,55.79,5,Alex Torres #2,Edinburg,52.16,74.84,52.16,97.52,224.53,Single-ply,SBD,M
Boys,59.87,1,Robert Saenz,Sharyland Pioneer,58.24,199.58,129.27,192.78,521.63,Single-ply,SBD,M
Boys,59.87,2,Hugo Gomez,Edinburg North,59.69,170.1,104.33,174.63,449.06,Single-ply,SBD,M
Boys,59.87,3,Ismael Talamante,Rio Grande City,57.7,149.69,92.99,165.56,408.23,Single-ply,SBD,M
Boys,59.87,4,Ethan Plantilla,Mission Sharyland,59.1,147.42,72.57,174.63,394.63,Single-ply,SBD,M
Boys,59.87,5,Jesus Rosillo,McAllen,59.87,156.49,79.38,154.22,390.09,Single-ply,SBD,M
Boys,59.87,6,Jose Alvarez,Edinburg,59.38,140.61,83.91,156.49,381.02,Single-ply,SBD,M
Boys,59.87,DQ,Stanley Davis,McAllen Memorial,59.15,138.35,,,,Single-ply,SBD,M
Boys,67.13,1,Abraham Hernandez,La Joya Palmview,66.77,272.16,133.81,272.16,678.12,Single-ply,SBD,M
Boys,67.13,2,Ricardo Pena #1,Rio Grande City,66.36,208.65,136.08,217.72,562.45,Single-ply,SBD,M
Boys,67.13,3,Moses Olivarez,McAllen Memorial,66.22,206.38,115.67,206.38,528.44,Single-ply,SBD,M
Boys,67.13,4,Dylan Bazarte,Mission Sharyland,65.68,174.63,102.06,195.04,471.74,Single-ply,SBD,M
Boys,67.13,5,Carlos Gonzalez,Sharyland Pioneer,67,179.17,106.59,174.63,460.4,Single-ply,SBD,M
Boys,67.13,6,Rolando Saenz,Mission Sharyland,65.73,183.7,81.65,165.56,430.91,Single-ply,SBD,M
Boys,67.13,7,Angel Vasquez,Edinburg Vela,64.41,151.95,95.25,172.37,419.57,Single-ply,SBD,M
Boys,67.13,8,Ruben D Saenz III,McAllen Rowe,60.6,145.15,74.84,136.08,356.07,Single-ply,SBD,M
Boys,67.13,9,Dimitrius Yanez,Edinburg Vela,62.6,88.45,61.23,115.67,265.35,Single-ply,SBD,M
Boys,67.13,DQ,Jacinto Garza,Edinburg Vela,66.32,161.03,,,,Single-ply,SBD,M
Boys,74.84,1,Coy Burrows,Sharyland Pioneer,72.12,226.8,142.88,219.99,589.67,Single-ply,SBD,M
Boys,74.84,2,Jonathan Casarez,Rio Grande City,71.03,210.92,145.15,226.8,582.87,Single-ply,SBD,M
Boys,74.84,3,Juan Zurita,Rio Grande City,74.84,199.58,140.61,199.58,539.77,Single-ply,SBD,M
Boys,74.84,4,Julio Bautista,Edinburg Economedes,70.58,192.78,111.13,208.65,512.56,Single-ply,SBD,M
Boys,74.84,5,Alejandro Cortez,Edinburg North,74.8,188.24,111.13,210.92,510.29,Single-ply,SBD,M
Boys,74.84,6,Devin Alvardo,McAllen Memorial,73.53,185.97,117.93,195.04,498.95,Single-ply,SBD,M
Boys,74.84,7,Jaaziel Espinoza,McAllen,67.72,179.17,115.67,192.78,487.61,Single-ply,SBD,M
Boys,74.84,8,Armando Ramirez,Edinburg North,73.57,167.83,106.59,199.58,474,Single-ply,SBD,M
Boys,74.84,9,Julian Trevino,Edinburg Vela,73.98,167.83,117.93,170.1,455.86,Single-ply,SBD,M
Boys,74.84,10,Emilliano Becerril,Mission Sharyland,69.94,170.1,106.59,170.1,446.79,Single-ply,SBD,M
Boys,74.84,11,Andres Bonilla,Mission Sharyland,72.17,163.29,90.72,183.7,437.72,Single-ply,SBD,M
Boys,74.84,12,Brian Tejada #1,Edinburg,67.86,167.83,106.59,147.42,421.84,Single-ply,SBD,M
Boys,74.84,13,Christopher Palamo,McAllen,73.84,151.95,95.25,165.56,412.77,Single-ply,SBD,M
Boys,74.84,14,Marcus Flores,McAllen,73.3,149.69,79.38,154.22,383.29,Single-ply,SBD,M
Boys,74.84,DQ,Idris Chargois,McAllen Memorial,70.85,185.97,,,,Single-ply,SBD,M
Boys,82.1,1,Jazaih Escamilla,McAllen Memorial,75.84,244.94,154.22,229.06,628.23,Single-ply,SBD,M
Boys,82.1,2,Behiran Calderini,Edinburg North,80.01,229.06,131.54,233.6,594.21,Single-ply,SBD,M
Boys,82.1,3,Julian Hernandez,McAllen Memorial,81.69,206.38,142.88,206.38,555.65,Single-ply,SBD,M
Boys,82.1,4,Juan Contreras,Edinburg Economedes,77.2,188.24,124.74,195.04,508.02,Single-ply,SBD,M
Boys,82.1,5,Sadge Diaz,McAllen,78.29,199.58,113.4,185.97,498.95,Single-ply,SBD,M
Boys,82.1,6,Roland Briseno,McAllen,80.51,183.7,124.74,163.29,471.74,Single-ply,SBD,M
Boys,82.1,7,Adam Pena,La Joya,75.84,172.37,106.59,185.97,464.93,Single-ply,SBD,M
Boys,82.1,8,Marc Garcia,La Joya,80.83,176.9,97.52,167.83,442.25,Single-ply,SBD,M
Boys,82.1,9,Jonas Ortiz,McAllen Rowe,80.78,149.69,106.59,176.9,433.18,Single-ply,SBD,M
Boys,82.1,10,Juan Villarreal #3,Sharyland Pioneer,81.01,136.08,92.99,136.08,365.14,Single-ply,SBD,M
Boys,82.1,DQ,Jalen Ybarra,La Joya Palmview,74.98,131.54,,,,Single-ply,SBD,M
Boys,89.81,1,Miguel de Hoyos,La Joya Palmview,88.18,238.14,149.69,217.72,605.55,Single-ply,SBD,M
Boys,89.81,2,Ryan Alvarez,Rio Grande City,85.68,215.46,117.93,217.72,551.11,Single-ply,SBD,M
Boys,89.81,3,Luis Garza,La Joya,82.33,219.99,129.27,199.58,548.85,Single-ply,SBD,M
Boys,89.81,4,Oscar Mendoza,La Joya Palmview,83.32,195.04,142.88,181.44,519.36,Single-ply,SBD,M
Boys,89.81,5,Michael Morales,McAllen Rowe,83.91,197.31,124.74,192.78,514.83,Single-ply,SBD,M
Boys,89.81,6,John Guzman,Edinburg Vela,88.18,161.03,95.25,192.78,449.06,Single-ply,SBD,M
Boys,89.81,7,Aaron Gonzalez,McAllen Rowe,87.86,158.76,95.25,183.7,437.72,Single-ply,SBD,M
Boys,99.79,1,Daniel Villarrel,La Joya,92.26,254.01,136.08,244.94,635.03,Single-ply,SBD,M
Boys,99.79,2,Sebastian Buitron,McAllen,99.56,256.28,136.08,238.14,630.49,Single-ply,SBD,M
Boys,99.79,3,Dylan Earhart,McAllen Memorial,95.44,258.55,131.54,233.6,623.69,Single-ply,SBD,M
Boys,99.79,4,Arturo Pena,Edinburg Vela,91.17,226.8,149.69,231.33,607.81,Single-ply,SBD,M
Boys,99.79,5,Cris Maldonado,Edinburg Economedes,92.03,226.8,142.88,215.46,585.13,Single-ply,SBD,M
Boys,99.79,6,Mario Reyna,Edinburg Economedes,98.97,224.53,145.15,215.46,585.13,Single-ply,SBD,M
Boys,99.79,7,Eddie Garza,Rio Grande City,95.03,199.58,140.61,226.8,566.99,Single-ply,SBD,M
Boys,99.79,8,Ricky de Leon,Edinburg Economedes,90.49,208.65,129.27,206.38,544.31,Single-ply,SBD,M
Boys,99.79,9,Humberto Martinez,Edinburg North,93.12,197.31,120.2,204.12,521.63,Single-ply,SBD,M
Boys,99.79,10,Danny Vasquez,La Joya Palmview,94.66,222.26,113.4,185.97,521.63,Single-ply,SBD,M
Boys,99.79,11,Juan Casarez,Edinburg North,94.48,174.63,129.27,199.58,503.49,Single-ply,SBD,M
Boys,99.79,12,Erik Torres,Sharyland Pioneer,98.43,185.97,136.08,181.44,503.49,Single-ply,SBD,M
Boys,99.79,13,Jose Quintero,McAllen Rowe,93.21,170.1,122.47,183.7,476.27,Single-ply,SBD,M
Boys,99.79,14,Jorge Barrera,McAllen Rowe,95.12,158.76,117.93,197.31,474,Single-ply,SBD,M
Boys,99.79,15,Sandlio Garcia,Sharyland Pioneer,99.7,192.78,111.13,167.83,471.74,Single-ply,SBD,M
Boys,99.79,16,Reymundo Luevano,Edinburg North,93.03,156.49,117.93,190.51,464.93,Single-ply,SBD,M
Boys,99.79,17,Juan Mendoza #4,Edinburg,93.94,181.44,117.93,165.56,464.93,Single-ply,SBD,M
Boys,99.79,18,Zael Salinas,Edinburg,99.56,120.2,88.45,108.86,317.51,Single-ply,SBD,M
Boys,109.77,1,Marcos Garza,Edinburg Economedes,105.78,290.3,190.51,272.16,752.96,Single-ply,SBD,M
Boys,109.77,2,Jesus Proa,La Joya Juarez-Lincoln,108.5,281.23,165.56,235.87,682.66,Single-ply,SBD,M
Boys,109.77,3,Lazaro Patlan,Edinburg,102.47,251.74,149.69,219.99,621.42,Single-ply,SBD,M
Boys,109.77,4,Jaime Gomez,Rio Grande City,104.51,195.04,147.42,224.53,566.99,Single-ply,SBD,M
Boys,109.77,5,Abel Silva,Rio Grande City,105.6,208.65,120.2,208.65,537.51,Single-ply,SBD,M
Boys,109.77,6,Arturo Pena,La Joya Palmview,104.05,238.14,113.4,183.7,535.24,Single-ply,SBD,M
Boys,109.77,7,Michael Anzaldua,Edinburg North,106.14,192.78,133.81,204.12,530.7,Single-ply,SBD,M
Boys,109.77,8,Mathew Alfaro,Edinburg Economedes,100.74,201.85,124.74,185.97,512.56,Single-ply,SBD,M
Boys,109.77,9,Shayne Hernandez,Edinburg,106.73,195.04,129.27,188.24,512.56,Single-ply,SBD,M
Boys,109.77,10,Anthony Cardona,Edinburg,102.78,192.78,117.93,192.78,503.49,Single-ply,SBD,M
Boys,109.77,11,Jose Molina #3,McAllen,106.28,174.63,113.4,156.49,444.52,Single-ply,SBD,M
Boys,124.74,1,Juan Rivas,La Joya Palmview,116.94,308.44,176.9,231.33,716.68,Single-ply,SBD,M
Boys,124.74,2,Luis Salinas,Rio Grande City,121.61,258.55,179.17,272.16,709.87,Single-ply,SBD,M
Boys,124.74,3,Aliver Chapa,La Joya Juarez-Lincoln,117.48,269.89,176.9,240.4,687.19,Single-ply,SBD,M
Boys,124.74,4,Juan Rodriguez,Rio Grande City,119.7,244.94,133.81,231.33,610.08,Single-ply,SBD,M
Boys,124.74,5,Luis Trevino,Edinburg,113.4,222.26,133.81,197.31,553.38,Single-ply,SBD,M
Boys,124.74,6,Juan Liscano,Sharyland Pioneer,114.4,235.87,113.4,199.58,548.85,Single-ply,SBD,M
Boys,124.74,7,Louie Rodgriguez,Edinburg,120.07,210.92,131.54,195.04,537.51,Single-ply,SBD,M
Boys,124.74,8,Osiel Alonso,La Joya Juarez-Lincoln,114.12,201.85,120.2,174.63,496.68,Single-ply,SBD,M
Boys,124.74,9,David Arcos,Edinburg Economedes,114.99,174.63,133.81,181.44,489.88,Single-ply,SBD,M
Boys,124.74,10,Jesse Garza,McAllen Rowe,114.12,170.1,129.27,188.24,487.61,Single-ply,SBD,M
Boys,124.74,11,Joey Gonzalez,McAllen Memorial,110.31,183.7,106.59,170.1,460.4,Single-ply,SBD,M
Boys,124.74,12,Albert Torres,McAllen Rowe,119.29,181.44,102.06,145.15,428.64,Single-ply,SBD,M
Boys,124.74,13,Aalok Zimmerman,McAllen Rowe,122.88,170.1,95.25,158.76,424.11,Single-ply,SBD,M
Boys,124.74,DQ,Josh Williams,Mission Sharyland,123.74,272.16,158.76,,,Single-ply,SBD,M
Boys,124.74+,1,Gerardo Lopez,McAllen,132.95,278.96,204.12,204.12,687.19,Single-ply,SBD,M
Boys,124.74+,2,Alex Rodriguez #2,La Joya,156.13,285.76,158.76,215.46,659.98,Single-ply,SBD,M
Boys,124.74+,3,Bryan Aguillon,McAllen Rowe,131.09,222.26,158.76,247.21,628.23,Single-ply,SBD,M
Boys,124.74+,4,Sergio Reyna,McAllen Memorial,126.96,249.48,154.22,206.38,610.08,Single-ply,SBD,M
Boys,124.74+,5,Oscar Garcia,Mission Sharyland,143.06,226.8,113.4,158.76,498.95,Single-ply,SBD,M
Boys,124.74+,6,Jacob Mata,McAllen Rowe,146.51,181.44,131.54,165.56,478.54,Single-ply,SBD,M
