Division,WeightClassKg,Place,Name,Team,BodyweightKg,Best3SquatKg,Best3BenchKg,Best3DeadliftKg,TotalKg,Equipment,Event,Sex,BirthDate
Girls,44.23,1,Indiyah Aldridge,Texarkana Liberty-Eylau,43.73,106.59,61.23,108.86,276.69,Single-ply,SBD,F,
Girls,44.23,2,Jolea Crow,Caddo Mills,42.27,88.45,45.36,92.99,226.8,Single-ply,SBD,F,
Girls,44.23,3,Crystal Padron,Quinlan Ford,42.91,97.52,40.82,74.84,213.19,Single-ply,SBD,F,
Girls,44.23,4,Madison Bradshaw,Tyler Chapel Hill,43.09,83.91,34.02,86.18,204.12,Single-ply,SBD,F,
Girls,44.23,5,Diana Alvarez,Paris,40.55,72.57,40.82,86.18,199.58,Single-ply,SBD,F,
Girls,44.23,6,Fe Terrell,Gilmer,42.55,79.38,43.09,65.77,188.24,Single-ply,SBD,F,
Girls,44.23,7,Addison Davis,Paris North Lamar,44,72.57,36.29,65.77,174.63,Single-ply,SBD,F,
Girls,44.23,8,Ella Morton,Rusk,41.55,68.04,29.48,70.31,167.83,Single-ply,SBD,F,
Girls,44.23,9,KayLynn Morris,Rusk,44,68.04,29.48,61.23,158.76,Single-ply,SBD,F,
Girls,47.85,1,Krista Rash,Gilmer,46.81,95.25,47.63,106.59,249.48,Single-ply,SBD,F,
Girls,47.85,2,Alexa Morones,Wills Point,47.36,97.52,38.56,97.52,233.6,Single-ply,SBD,F,
Girls,47.85,3,Diana Farfan,Paris,46.45,92.99,47.63,88.45,229.06,Single-ply,SBD,F,
Girls,47.85,4,Tiffany Pace,Ferris,47.54,88.45,34.02,92.99,215.46,Single-ply,SBD,F,
Girls,47.85,5,Myranda Johnson,Paris North Lamar,45.72,68.04,54.43,88.45,210.92,Single-ply,SBD,F,
Girls,47.85,6,Nancy Diaz,Ferris,47.85,79.38,34.02,92.99,206.38,Single-ply,SBD,F,
Girls,47.85,7,Jennifer Sanchez,Quinlan Ford,47.72,79.38,31.75,90.72,201.85,Single-ply,SBD,F,
Girls,47.85,8,Breeana Echols,Mabank,46.54,74.84,38.56,72.57,185.97,Single-ply,SBD,F,
Girls,47.85,9,Abbye Canida,Crandall,47.63,63.5,36.29,79.38,179.17,Single-ply,SBD,F,
Girls,47.85,10,Kamerin Ortiz,Bullard,46.45,43.09,27.22,65.77,136.08,Single-ply,SBD,F,
Girls,51.94,1,Tristan Dykes,Brownsboro,51.71,124.74,74.84,117.93,317.51,Single-ply,SBD,F,
Girls,51.94,2,Sydnee Parker,Gilmer,50.98,113.4,61.23,133.81,308.44,Single-ply,SBD,F,
Girls,51.94,3,Tk Marshall,Paris,50.26,113.4,72.57,120.2,306.17,Single-ply,SBD,F,
Girls,51.94,4,Zoe Fields,Rusk,51.44,127.01,45.36,124.74,297.1,Single-ply,SBD,F,
Girls,51.94,5,ShKylie Jones,Gilmer,51.44,113.4,56.7,120.2,290.3,Single-ply,SBD,F,
Girls,51.94,6,MiKesha Shorters,Paris,50.44,120.2,47.63,106.59,274.42,Single-ply,SBD,F,
Girls,51.94,7,Hali Reyes,Henderson,51.44,111.13,47.63,111.13,269.89,Single-ply,SBD,F,
Girls,51.94,8,Ivie Allmon,Paris North Lamar,51.89,108.86,58.97,99.79,267.62,Single-ply,SBD,F,
Girls,51.94,9,Makayla McHenry,Gilmer,51.53,86.18,54.43,111.13,251.74,Single-ply,SBD,F,
Girls,51.94,10,Rileigh White,Fairfield,51.44,97.52,54.43,86.18,238.14,Single-ply,SBD,F,
Girls,51.94,DQ,Caison Nachtigall,Crandall,51.71,,,,,Single-ply,SBD,F,
Girls,51.94,DQ,Lexxi Mayes,Paris North Lamar,51.53,92.99,56.7,,,Single-ply,SBD,F,
Girls,51.94,DQ,Alondra Yanes,Quinlan Ford,49.99,77.11,36.29,,,Single-ply,SBD,F,
Girls,56.02,1,Pel Htto,Center,55.16,147.42,77.11,124.74,349.27,Single-ply,SBD,F,
Girls,56.02,2,Kamry Oliver,Paris North Lamar,54.88,127.01,65.77,136.08,328.85,Single-ply,SBD,F,
Girls,56.02,3,Abby Coleman,Fairfield,54.25,120.2,63.5,122.47,306.17,Single-ply,SBD,F,
Girls,56.02,4,Laqukeisha Jeffery,Texarkana Liberty-Eylau,55.34,108.86,56.7,124.74,290.3,Single-ply,SBD,F,
Girls,56.02,5,Ale Guerrero,Longview Spring Hill,55.79,115.67,61.23,106.59,283.5,Single-ply,SBD,F,
Girls,56.02,6,Kaylee King,Wills Point,54.61,102.06,61.23,115.67,278.96,Single-ply,SBD,F,
Girls,56.02,7,Imani Hodge,Texarkana Liberty-Eylau,53.61,115.67,54.43,106.59,276.69,Single-ply,SBD,F,
Girls,56.02,8,Maddy McKeehan,Gilmer,56.02,92.99,65.77,108.86,267.62,Single-ply,SBD,F,
Girls,56.02,9,Sam Carter #1,Mabank,54.61,115.67,49.9,99.79,265.35,Single-ply,SBD,F,
Girls,56.02,10,Ellie Grissett,Fairfield,55.52,102.06,58.97,97.52,258.55,Single-ply,SBD,F,
Girls,56.02,DQ,Emma Pearson,Wills Point,55.79,,,,,Single-ply,SBD,F,
Girls,56.02,DQ,Bessie Elizardo,Caddo Mills,55.79,,,,,Single-ply,SBD,F,
Girls,56.02,DQ,Macey McAmis,Paris,55.79,,,,,Single-ply,SBD,F,
Girls,60.1,1,Enchantra Roberson,Paris,57.33,147.42,72.57,154.22,374.21,Single-ply,SBD,F,
Girls,60.1,2,Trichelle Meador,Quinlan Ford,59.78,120.2,54.43,131.54,306.17,Single-ply,SBD,F,
Girls,60.1,3,Annisa Armant,Waxahachie Life,59.06,124.74,56.7,117.93,299.37,Single-ply,SBD,F,
Girls,60.1,4,Maddie Davidson,Gilmer,59.6,104.33,74.84,117.93,297.1,Single-ply,SBD,F,
Girls,60.1,5,Samantha Pineda,Bullard,60.06,115.67,40.82,127.01,283.5,Single-ply,SBD,F,
Girls,60.1,6,Peyton Warren,Gilmer,59.69,117.93,52.16,108.86,278.96,Single-ply,SBD,F,
Girls,60.1,7,Hawkins Trinity,Brownsboro,59.87,102.06,65.77,108.86,276.69,Single-ply,SBD,F,
Girls,60.1,8,Ahlexcis Lackey,Bullard,59.51,102.06,54.43,113.4,269.89,Single-ply,SBD,F,
Girls,60.1,9,Payton Nolen,Mabank,59.33,108.86,49.9,106.59,265.35,Single-ply,SBD,F,
Girls,60.1,10,Anna Koller,Crandall,58.69,104.33,45.36,104.33,254.01,Single-ply,SBD,F,
Girls,60.1,11,Lexsey Cleaver,Rusk,60.06,90.72,34.02,111.13,235.87,Single-ply,SBD,F,
Girls,60.1,DQ,Sara Duran,Ferris,59.87,,,,,Single-ply,SBD,F,
Girls,60.1,DQ,Atajdren Gill,Paris,59.69,131.54,54.43,,,Single-ply,SBD,F,
Girls,67.36,1,Madi Isaacs,Fairfield,62.6,170.1,83.91,154.22,408.23,Single-ply,SBD,F,
Girls,67.36,2,Aariyana Webb,Gilmer,66.86,154.22,83.91,138.35,376.48,Single-ply,SBD,F,
Girls,67.36,3,Rylie Reed,Crandall,65.95,156.49,61.23,154.22,371.95,Single-ply,SBD,F,
Girls,67.36,4,Lauren Baker,Mabank,64.86,147.42,77.11,142.88,367.41,Single-ply,SBD,F,
Girls,67.36,5,Haley Lee,Brownsboro,63.23,147.42,79.38,136.08,362.87,Single-ply,SBD,F,
Girls,67.36,6,Bree'Kayla Thompson,Athens,65.68,133.81,70.31,158.76,362.87,Single-ply,SBD,F,
Girls,67.36,7,Makensy Isaacs,Fairfield,66.77,145.15,61.23,129.27,335.66,Single-ply,SBD,F,
Girls,67.36,8,Carly Dean,Gilmer,66.13,131.54,58.97,122.47,312.98,Single-ply,SBD,F,
Girls,67.36,9,Barbara Valencia,Mabank,66.04,129.27,61.23,117.93,308.44,Single-ply,SBD,F,
Girls,67.36,10,Brekaelah McAllister,Henderson,64.68,129.27,61.23,111.13,301.64,Single-ply,SBD,F,
Girls,67.36,11,Mason Blalock,Rusk,65.86,122.47,52.16,124.74,299.37,Single-ply,SBD,F,
Girls,67.36,12,Lauren Hall,Fairfield,66.77,122.47,54.43,117.93,294.84,Single-ply,SBD,F,
Girls,75.07,1,Daeja Harris,Fairfield,70.03,163.29,79.38,129.27,371.95,Single-ply,SBD,F,
Girls,75.07,2,Hannah Titlow,Paris North Lamar,70.58,142.88,81.65,145.15,369.68,Single-ply,SBD,F,
Girls,75.07,3,Mae Lewis,Brownsboro,71.58,145.15,72.57,145.15,362.87,Single-ply,SBD,F,
Girls,75.07,4,Mi'Nea Williams,Paris,74.75,151.95,61.23,140.61,353.8,Single-ply,SBD,F,
Girls,75.07,5,Ariyah Tave,Gilmer,69.13,142.88,68.04,129.27,340.19,Single-ply,SBD,F,
Girls,75.07,6,Chelsey Kirkland,Mabank,72.57,158.76,54.43,127.01,340.19,Single-ply,SBD,F,
Girls,75.07,7,Halle Hale,Caddo Mills,72.76,129.27,56.7,149.69,335.66,Single-ply,SBD,F,
Girls,75.07,8,Savannah Ellis,Fairfield,75.02,145.15,77.11,113.4,335.66,Single-ply,SBD,F,
Girls,75.07,9,Ryan Barnett #1,Crandall,67.77,120.2,56.7,127.01,303.91,Single-ply,SBD,F,
Girls,75.07,10,Kirston McMilluen,Canton,68.31,117.93,68.04,113.4,299.37,Single-ply,SBD,F,
Girls,75.07,11,Chloey Cleaver,Rusk,73.26,108.86,47.63,124.74,281.23,Single-ply,SBD,F,
Girls,75.07,DQ,Hannah Hale,Caddo Mills,74.84,,,,,Single-ply,SBD,F,
Girls,75.07,DQ,Breyunna Dowell,Fairfield,74.84,,,,,Single-ply,SBD,F,
Girls,82.33,1,Rayn Hayden,Paris,78.74,156.49,72.57,170.1,399.16,Single-ply,SBD,F,
Girls,82.33,2,Maria Vences,Bullard,76.02,158.76,102.06,136.08,396.89,Single-ply,SBD,F,
Girls,82.33,3,Bailey Jones #3,Fairfield,77.75,151.95,81.65,142.88,376.48,Single-ply,SBD,F,
Girls,82.33,4,Jaidah Franklin,Paris,77.38,147.42,68.04,158.76,374.21,Single-ply,SBD,F,
Girls,82.33,5,Sara Mefford,Canton,79.74,131.54,74.84,133.81,340.19,Single-ply,SBD,F,
Girls,82.33,6,Nadia McClatchey,Fairfield,81.74,145.15,54.43,138.35,337.93,Single-ply,SBD,F,
Girls,82.33,7,Yuritza Hernandez,Quinlan Ford,80.56,127.01,65.77,124.74,317.51,Single-ply,SBD,F,
Girls,82.33,8,Hailey Woods,Mabank,79.11,127.01,58.97,115.67,301.64,Single-ply,SBD,F,
Girls,82.33,9,Sheyna Zamarron,Crandall,81.37,111.13,54.43,129.27,294.84,Single-ply,SBD,F,
Girls,82.33,10,Briley King,Rusk,75.75,124.74,52.16,108.86,285.76,Single-ply,SBD,F,
Girls,82.33,DQ,Jewell Capps,Huntington,82.1,,,,,Single-ply,SBD,F,
Girls,82.33,DQ,Zyara Harrison,Ferris,82.1,,,,,Single-ply,SBD,F,
Girls,82.33,DQ,Mayra Cortes,Van,82.1,,,,,Single-ply,SBD,F,
Girls,90.04,1,Tylie Bruce,Fairfield,83.91,163.29,88.45,149.69,401.43,Single-ply,SBD,F,
Girls,90.04,2,Tabitha Barksdale,Waxahachie Life,86.82,149.69,88.45,158.76,396.89,Single-ply,SBD,F,
Girls,90.04,3,Hannah Lindsey,Caddo Mills,88.54,167.83,79.38,149.69,396.89,Single-ply,SBD,F,
Girls,90.04,4,Laura Walters,Mabank,89.63,158.76,95.25,140.61,394.63,Single-ply,SBD,F,
Girls,90.04,5,Raelynn Johnson,Paris,87.54,142.88,79.38,138.35,360.61,Single-ply,SBD,F,
Girls,90.04,6,Shakoya Aubrey,Texarkana Liberty-Eylau,86.09,145.15,63.5,147.42,356.07,Single-ply,SBD,F,
Girls,90.04,7,Ke'Shona Berry,Tyler Chapel Hill,87,142.88,56.7,136.08,335.66,Single-ply,SBD,F,
Girls,90.04,8,Sanaya Nixon,Texarkana Liberty-Eylau,87.45,136.08,72.57,113.4,322.05,Single-ply,SBD,F,
Girls,90.04,9,Maggie Urbanski,Crandall,87.54,127.01,61.23,127.01,315.25,Single-ply,SBD,F,
Girls,90.04,10,Alondra Martinez #1,Wills Point,87.45,111.13,58.97,129.27,299.37,Single-ply,SBD,F,
Girls,90.04,11,Ponce Marlenii,Crandall,82.92,92.99,45.36,99.79,238.14,Single-ply,SBD,F,
Girls,90.04,DQ,Brooklyn Reid,Carthage,89.81,,,,,Single-ply,SBD,F,
Girls,90.04,DQ,Brandy Rangel,Wills Point,89.81,58.97,,,,Single-ply,SBD,F,
Girls,100.02,1,Emma Doyal,Paris North Lamar,97.98,197.31,88.45,149.69,435.45,Single-ply,SBD,F,
Girls,100.02,2,Charity Starr,Fairfield,96.07,161.03,81.65,165.56,408.23,Single-ply,SBD,F,
Girls,100.02,3,Angela Hernandez,Quinlan Ford,99.97,206.38,63.5,136.08,405.97,Single-ply,SBD,F,
Girls,100.02,4,Madison Yruegas,Caddo Mills,96.07,163.29,83.91,142.88,390.09,Single-ply,SBD,F,
Girls,100.02,5,Tatiana Jones,Fairfield,98.97,172.37,68.04,149.69,390.09,Single-ply,SBD,F,
Girls,100.02,6,Madeleine-Rose Garcia,Wills Point,94.53,138.35,72.57,151.95,362.87,Single-ply,SBD,F,
Girls,100.02,7,Shyla Walls,Canton,91.63,133.81,83.91,127.01,344.73,Single-ply,SBD,F,
Girls,100.02,8,Daphne Neighbours,Gilmer,90.72,136.08,68.04,136.08,340.19,Single-ply,SBD,F,
Girls,100.02,9,Madison Andrews,Athens,96.07,158.76,54.43,108.86,322.05,Single-ply,SBD,F,
Girls,100.02,10,Faith Besherse,Canton,95.16,124.74,63.5,117.93,306.17,Single-ply,SBD,F,
Girls,100.02,11,Gabby Flores,Rusk,94.89,102.06,52.16,90.72,244.94,Single-ply,SBD,F,
Girls,100.02,DQ,Mandy Garcia,Wills Point,99.79,,,,,Single-ply,SBD,F,
Girls,117.71,1,Rachel Petree,Longview Spring Hill,114.67,188.24,90.72,174.63,453.59,Single-ply,SBD,F,
Girls,117.71,2,McKenzye Williamson,Texarkana Liberty-Eylau,108.5,176.9,88.45,176.9,442.25,Single-ply,SBD,F,
Girls,117.71,3,Javin Crawford,Crandall,117.57,158.76,90.72,161.03,410.5,Single-ply,SBD,F,
Girls,117.71,4,Talya Davis,Center,103.42,158.76,79.38,149.69,387.82,Single-ply,SBD,F,
Girls,117.71,5,Abby Larry,Crandall,104.24,149.69,86.18,147.42,383.29,Single-ply,SBD,F,
Girls,117.71,6,Kalyn Williams,Waxahachie Life,110.04,151.95,83.91,136.08,371.95,Single-ply,SBD,F,
Girls,117.71,7,Sydney Shiver,Paris,114.4,149.69,61.23,145.15,356.07,Single-ply,SBD,F,
Girls,117.71,8,Kensey Garrett,Canton,104.42,142.88,79.38,129.27,351.53,Single-ply,SBD,F,
Girls,117.71,9,Skylah Block,Texarkana Liberty-Eylau,101.51,131.54,61.23,136.08,328.85,Single-ply,SBD,F,
Girls,117.71,10,Brooklyn Irby,Crandall,103.06,133.81,61.23,122.47,317.51,Single-ply,SBD,F,
Girls,117.71,11,Kaylie Turner,Paris,105.41,127.01,70.31,120.2,317.51,Single-ply,SBD,F,
Girls,117.71,12,Tedi Rene Blassingame,Fairfield,104.69,136.08,61.23,117.93,315.25,Single-ply,SBD,F,
Girls,117.71,13,Ashleigh Harris,Fairfield,111.4,120.2,61.23,117.93,299.37,Single-ply,SBD,F,
Girls,117.71,DQ,Angela Daniels,Tyler Chapel Hill,117.48,,,,,Single-ply,SBD,F,
Girls,117.71,DQ,Samantha Cepeda,Pittsburg,117.48,,,,,Single-ply,SBD,F,
Girls,117.71,DQ,Kyla Griffin,Pittsburg,117.48,,,,,Single-ply,SBD,F,
Girls,117.71+,1,Leighann Langston,Bullard,143.43,195.04,145.15,170.1,510.29,Single-ply,SBD,F,
Girls,117.71+,2,Bonnie Clifton,Gilmer,121.93,204.12,111.13,165.56,480.81,Single-ply,SBD,F,
Girls,117.71+,3,Grace Moses,Gilmer,135.17,185.97,86.18,158.76,430.91,Single-ply,SBD,F,
Girls,117.71+,4,Zeara Alexander,Paris,146.06,142.88,92.99,136.08,371.95,Single-ply,SBD,F,
Girls,117.71+,5,Mariah Nash,Center,123.2,86.18,58.97,111.13,256.28,Single-ply,SBD,F,
Girls,117.71+,6,Andrea Horton,Center,121.47,86.18,56.7,99.79,242.67,Single-ply,SBD,F,
