Division,WeightClassKg,Place,Name,Team,BodyweightKg,Best3SquatKg,Best3BenchKg,Best3DeadliftKg,TotalKg,Equipment,Event,Sex,BirthDate
Boys,51.71,1,Antonio Contreras,Fredericksburg,50.8,108.86,72.57,115.67,297.1,Single-ply,SBD,M,
Boys,51.71,2,James Evetts,Brownwood,49.71,106.59,56.7,113.4,276.69,Single-ply,SBD,M,
Boys,51.71,3,Jonatan Martinez,Fredericksburg,49.9,104.33,63.5,102.06,269.89,Single-ply,SBD,M,
Boys,51.71,4,Brady Clinton,Ballinger,51.62,92.99,65.77,102.06,260.82,Single-ply,SBD,M,
Boys,51.71,5,Ashton Dunklin,Llano,50.53,90.72,47.63,120.2,258.55,Single-ply,SBD,M,
Boys,51.71,6,Acey Mask,San Saba,48.63,88.45,56.7,97.52,242.67,Single-ply,SBD,M,
Boys,51.71,7,Nathan Moreno,Brady,49.62,83.91,47.63,102.06,233.6,Single-ply,SBD,M,
Boys,51.71,8,Collin McManus,Lampasas,51.17,83.91,61.23,86.18,231.33,Single-ply,SBD,M,
Boys,55.79,1,Javion Zavala,Ballinger,55.7,156.49,77.11,145.15,378.75,Single-ply,SBD,M,
Boys,55.79,2,Justin Hernandez,San Saba,55.07,115.67,65.77,142.88,324.32,Single-ply,SBD,M,
Boys,55.79,3,Kaleb Grabast,Brownwood,53.43,127.01,68.04,124.74,319.78,Single-ply,SBD,M,
Boys,55.79,4,Easton Judkins,Brownwood,53.16,102.06,79.38,111.13,292.57,Single-ply,SBD,M,
Boys,55.79,5,Rj Coplin,Llano,54.98,104.33,68.04,120.2,292.57,Single-ply,SBD,M,
Boys,59.87,1,Enrique Reyes,Marble Falls,59.87,199.58,102.06,183.7,485.34,Single-ply,SBD,M,
Boys,59.87,2,Cooper McWilliams,Llano,59.06,145.15,92.99,149.69,387.82,Single-ply,SBD,M,
Boys,59.87,3,Wilson Hammond,Lampasas,59.33,133.81,90.72,140.61,365.14,Single-ply,SBD,M,
Boys,59.87,4,Winton Lackey,San Saba,59.78,145.15,83.91,115.67,344.73,Single-ply,SBD,M,
Boys,59.87,5,Brian Fekri,Brady,56.43,111.13,70.31,120.2,301.64,Single-ply,SBD,M,
Boys,67.13,1,Will Eckford,Liberty Hill,66.77,197.31,138.35,208.65,544.31,Single-ply,SBD,M,
Boys,67.13,2,Marc Flores,Blanco,67.04,208.65,122.47,172.37,503.49,Single-ply,SBD,M,
Boys,67.13,3,Luke Rizzo,Fredericksburg,65.5,172.37,108.86,188.24,469.47,Single-ply,SBD,M,
Boys,67.13,4,Jose Rodriguez,Burnet,63.5,174.63,92.99,192.78,460.4,Single-ply,SBD,M,
Boys,67.13,5,Adan Huron,San Saba,63.5,154.22,92.99,183.7,430.91,Single-ply,SBD,M,
Boys,67.13,6,Jasael Ruiz,Marble Falls,63.68,163.29,81.65,167.83,412.77,Single-ply,SBD,M,
Boys,67.13,7,Kole Becker,Marble Falls,62.96,161.03,88.45,158.76,408.23,Single-ply,SBD,M,
Boys,67.13,8,Macario Ramirez,Brady,62.96,124.74,102.06,147.42,374.21,Single-ply,SBD,M,
Boys,67.13,9,Wesley Whitaker,Llano,66.68,145.15,81.65,142.88,369.68,Single-ply,SBD,M,
Boys,67.13,10,David Linday,Fredericksburg,66.5,115.67,104.33,142.88,362.87,Single-ply,SBD,M,
Boys,67.13,11,Zachary Nolan,Liberty Hill,66.04,136.08,70.31,147.42,353.8,Single-ply,SBD,M,
Boys,67.13,12,Garret Buster,Burnet,65.77,136.08,70.31,142.88,349.27,Single-ply,SBD,M,
Boys,67.13,13,Keegan Farris,Brady,63.96,133.81,74.84,138.35,347,Single-ply,SBD,M,
Boys,67.13,14,Mason Harris,Brady,66.86,124.74,86.18,136.08,347,Single-ply,SBD,M,
Boys,67.13,15,Damian Zapata,Liberty Hill,66.86,133.81,70.31,136.08,340.19,Single-ply,SBD,M,
Boys,67.13,16,Gage Arms,Llano,66.22,111.13,83.91,127.01,322.05,Single-ply,SBD,M,
Boys,67.13,17,Jett Philpott,Liberty Hill,67.13,140.61,61.23,117.93,319.78,Single-ply,SBD,M,
Boys,67.13,18,Taylor Tibbs,Llano,64.23,111.13,81.65,124.74,317.51,Single-ply,SBD,M,
Boys,67.13,19,Luke Lawless,Lago Vista,66.5,113.4,58.97,142.88,315.25,Single-ply,SBD,M,
Boys,67.13,DQ,Brandon Morales,Marble Falls,67.04,131.54,,,,Single-ply,SBD,M,
Boys,67.13,DQ,Tyler Johnson,San Saba,66.5,154.22,,,,Single-ply,SBD,M,
Boys,74.84,1,John Parra,Fredericksburg,74.57,192.78,120.2,235.87,548.85,Single-ply,SBD,M,
Boys,74.84,2,Jayden Fuentes,Ballinger,74.21,183.7,102.06,195.04,480.81,Single-ply,SBD,M,
Boys,74.84,3,Dusty Miller,Llano,74.84,181.44,113.4,183.7,478.54,Single-ply,SBD,M,
Boys,74.84,4,Jj Bowling,Lampasas,73.57,161.03,120.2,183.7,464.93,Single-ply,SBD,M,
Boys,74.84,5,Brady Rygaard,Burnet,68.95,167.83,108.86,176.9,453.59,Single-ply,SBD,M,
Boys,74.84,6,Levi Rivera,Lampasas,74.39,174.63,113.4,151.95,439.98,Single-ply,SBD,M,
Boys,74.84,7,Grant Jones,Blanco,72.76,167.83,92.99,174.63,435.45,Single-ply,SBD,M,
Boys,74.84,8,Everett Eidson,San Saba,69.49,167.83,102.06,161.03,430.91,Single-ply,SBD,M,
Boys,74.84,9,Ben Carter,Liberty Hill,70.22,163.29,106.59,156.49,426.38,Single-ply,SBD,M,
Boys,74.84,10,Tate Riley,Ballinger,74.57,142.88,86.18,170.1,399.16,Single-ply,SBD,M,
Boys,74.84,11,Nikko Vasquez,Liberty Hill,73.66,151.95,86.18,156.49,394.63,Single-ply,SBD,M,
Boys,74.84,12,Oswaldo Sanchez,Marble Falls,70.4,117.93,74.84,154.22,347,Single-ply,SBD,M,
Boys,74.84,13,Luis Ramos,Brady,74.48,131.54,68.04,138.35,337.93,Single-ply,SBD,M,
Boys,74.84,14,Swayde Griffin,Lago Vista,69.31,115.67,79.38,133.81,328.85,Single-ply,SBD,M,
Boys,74.84,15,John Cammack,Burnet,69.85,113.4,65.77,117.93,297.1,Single-ply,SBD,M,
Boys,74.84,16,Zack Bridges,Lago Vista,69.67,86.18,54.43,95.25,235.87,Single-ply,SBD,M,
Boys,74.84,DQ,Jacob Morris,Liberty Hill,74.84,145.15,83.91,,,Single-ply,SBD,M,
Boys,82.1,1,Joe Maldonado,Marble Falls,82.01,301.64,156.49,249.48,707.6,Single-ply,SBD,M,
Boys,82.1,2,Lucas Villarreal,Blanco,80.29,208.65,122.47,226.8,557.92,Single-ply,SBD,M,
Boys,82.1,3,Xavier Lopez,Marble Falls,78.74,208.65,102.06,240.4,551.11,Single-ply,SBD,M,
Boys,82.1,4,Zachary Canada,Ballinger,82.1,213.19,131.54,199.58,544.31,Single-ply,SBD,M,
Boys,82.1,5,Reed Jerome,Lampasas,82.1,195.04,115.67,192.78,503.49,Single-ply,SBD,M,
Boys,82.1,6,Gabriel Rodriguez,Fredericksburg,77.66,172.37,122.47,199.58,494.42,Single-ply,SBD,M,
Boys,82.1,7,William O'Dell,Brownwood,76.75,183.7,136.08,172.37,492.15,Single-ply,SBD,M,
Boys,82.1,8,Dailin Fagan,Lampasas,81.92,192.78,102.06,192.78,487.61,Single-ply,SBD,M,
Boys,82.1,9,Konnor Fryburger,Fredericksburg,76.29,183.7,106.59,195.04,485.34,Single-ply,SBD,M,
Boys,82.1,10,Luke Hudgins,Burnet,81.65,174.63,113.4,197.31,485.34,Single-ply,SBD,M,
Boys,82.1,11,Jake Jetton,Brownwood,79.83,165.56,106.59,192.78,464.93,Single-ply,SBD,M,
Boys,82.1,12,Bennett Brock,Blanco,79.38,151.95,106.59,181.44,439.98,Single-ply,SBD,M,
Boys,82.1,13,Dominique Wooten,Lampasas,77.29,158.76,86.18,161.03,405.97,Single-ply,SBD,M,
Boys,82.1,14,Joshua Langwell,Liberty Hill,78.38,165.56,86.18,154.22,405.97,Single-ply,SBD,M,
Boys,82.1,15,Tyson Trim,Burnet,76.66,142.88,102.06,156.49,401.43,Single-ply,SBD,M,
Boys,82.1,16,Johnathan Ryder,Burnet,79.83,129.27,74.84,142.88,347,Single-ply,SBD,M,
Boys,89.81,1,Westen Reid,Lampasas,85.37,294.84,149.69,272.16,716.68,Single-ply,SBD,M,
Boys,89.81,2,Reid Bynum,Liberty Hill,87,254.01,149.69,233.6,637.3,Single-ply,SBD,M,
Boys,89.81,3,Samuel DeLuna,Fredericksburg,88.18,254.01,142.88,204.12,601.01,Single-ply,SBD,M,
Boys,89.81,4,Daniel Medina,Ballinger,89.81,215.46,133.81,224.53,573.79,Single-ply,SBD,M,
Boys,89.81,5,Jose Tonche,Marble Falls,87,219.99,127.01,210.92,557.92,Single-ply,SBD,M,
Boys,89.81,6,Chance Jones,Brownwood,87.91,213.19,142.88,192.78,548.85,Single-ply,SBD,M,
Boys,89.81,7,Drake Tomo,Liberty Hill,87.54,201.85,133.81,197.31,532.97,Single-ply,SBD,M,
Boys,89.81,8,Deonte Hector,Blanco,87.36,197.31,145.15,183.7,526.17,Single-ply,SBD,M,
Boys,89.81,9,Isaiah Tarr,Brady,82.37,195.04,111.13,192.78,498.95,Single-ply,SBD,M,
Boys,89.81,10,Jack Vanaartsen,Burnet,83.46,181.44,131.54,183.7,496.68,Single-ply,SBD,M,
Boys,89.81,11,Jose Solorzano-Aldava,Marble Falls,89.27,197.31,113.4,183.7,494.42,Single-ply,SBD,M,
Boys,89.81,12,Jd Ibarra,Brady,89.27,183.7,117.93,176.9,478.54,Single-ply,SBD,M,
Boys,89.81,13,Weston Wolf,Brownwood,88.27,165.56,113.4,197.31,476.27,Single-ply,SBD,M,
Boys,89.81,14,Johnathan Wheeler,Ballinger,84.01,188.24,97.52,183.7,469.47,Single-ply,SBD,M,
Boys,89.81,15,Chris Robinson,Brownwood,85.91,183.7,113.4,170.1,467.2,Single-ply,SBD,M,
Boys,89.81,16,Jancsi Cuevas,San Saba,88.9,188.24,106.59,158.76,453.59,Single-ply,SBD,M,
Boys,89.81,17,Leonel Aranda,San Saba,84.19,174.63,102.06,174.63,451.32,Single-ply,SBD,M,
Boys,89.81,18,Aiden Knight,Ballinger,82.55,151.95,106.59,183.7,442.25,Single-ply,SBD,M,
Boys,89.81,19,Colt Walling,Lampasas,88.09,158.76,108.86,170.1,437.72,Single-ply,SBD,M,
Boys,89.81,20,Terrell Haney,Ballinger,89.27,142.88,99.79,179.17,421.84,Single-ply,SBD,M,
Boys,89.81,21,Brooks Tippie,Burnet,88.9,120.2,70.31,136.08,326.59,Single-ply,SBD,M,
Boys,89.81,DQ,Youri Estrada,Fredericksburg,89.81,,,,,Single-ply,SBD,M,
Boys,89.81,DQ,Luke Johnson,Blanco,83.46,,,,,Single-ply,SBD,M,
Boys,99.79,1,Jacob Maldonado,Marble Falls,94.98,258.55,172.37,249.48,680.39,Single-ply,SBD,M,
Boys,99.79,2,Zaiden Lopez,Brownwood,95.98,219.99,138.35,219.99,578.33,Single-ply,SBD,M,
Boys,99.79,3,Aden Rascoe,Lampasas,90.08,215.46,136.08,208.65,560.19,Single-ply,SBD,M,
Boys,99.79,4,Alan Rubio,Blanco,92.9,226.8,127.01,206.38,560.19,Single-ply,SBD,M,
Boys,99.79,5,Davis Le,Brownwood,92.71,192.78,129.27,183.7,505.76,Single-ply,SBD,M,
Boys,99.79,6,Raider Moura,Lampasas,93.62,158.76,106.59,181.44,446.79,Single-ply,SBD,M,
Boys,99.79,7,Mitchell Dalland,Blanco,90.36,163.29,102.06,170.1,435.45,Single-ply,SBD,M,
Boys,99.79,8,Jj Vaughn,Llano,93.62,142.88,99.79,151.95,394.63,Single-ply,SBD,M,
Boys,99.79,9,Aeden Harrison,Burnet,92.08,136.08,86.18,136.08,358.34,Single-ply,SBD,M,
Boys,99.79,10,Braeden McKenzie,Burnet,91.63,113.4,81.65,129.27,324.32,Single-ply,SBD,M,
Boys,109.77,1,Landyn McIntyre,Ballinger,101.7,240.4,161.03,249.48,650.91,Single-ply,SBD,M,
Boys,109.77,2,Juan Palacios,Blanco,104.05,210.92,158.76,192.78,562.45,Single-ply,SBD,M,
Boys,109.77,3,Julius Osborne,Liberty Hill,108.59,197.31,127.01,204.12,528.44,Single-ply,SBD,M,
Boys,109.77,4,Roy Garcia,Lago Vista,109.32,199.58,117.93,206.38,523.9,Single-ply,SBD,M,
Boys,109.77,5,Aj Luna,Lampasas,101.6,229.06,115.67,170.1,514.83,Single-ply,SBD,M,
Boys,109.77,6,Zane Gillaspia,Brady,102.33,195.04,108.86,195.04,498.95,Single-ply,SBD,M,
Boys,109.77,7,Ernest Escobar,Ballinger,109.68,172.37,81.65,183.7,437.72,Single-ply,SBD,M,
Boys,109.77,8,Rodrigo Colunga,Brady,100.33,117.93,92.99,142.88,353.8,Single-ply,SBD,M,
Boys,124.74,1,Juan Leon,Brady,115.21,238.14,174.63,226.8,639.57,Single-ply,SBD,M,
Boys,124.74,2,Daniel Jaimes,Blanco,115.94,251.74,145.15,226.8,623.69,Single-ply,SBD,M,
Boys,124.74,3,Zach Watson,Llano,117.84,190.51,129.27,192.78,512.56,Single-ply,SBD,M,
Boys,124.74,4,Jesus Gonzalez,San Saba,114.03,204.12,127.01,170.1,501.22,Single-ply,SBD,M,
Boys,124.74,5,Brandon Westbrook,Burnet,114.31,183.7,113.4,183.7,480.81,Single-ply,SBD,M,
Boys,124.74,DQ,Jamison Dodes,Fredericksburg,116.21,,,,,Single-ply,SBD,M,
Boys,124.74,DQ,Kaden Roberts,Marble Falls,119.02,204.12,,,,Single-ply,SBD,M,
Boys,139.71,1,Jackson Harrison,Liberty Hill,127.28,276.69,149.69,238.14,664.51,Single-ply,SBD,M,
Boys,139.71,2,Quinten McCarty,Brownwood,127.19,188.24,120.2,176.9,485.34,Single-ply,SBD,M,
Boys,139.71,3,Donovan Rodriguez-Simmons,Llano,138.16,199.58,102.06,172.37,474,Single-ply,SBD,M,
Boys,139.71,4,Ethan Landeros,San Saba,132.18,190.51,97.52,156.49,444.52,Single-ply,SBD,M,
Boys,139.71,5,Jacksyn Andrews,Fredericksburg,137.8,158.76,113.4,149.69,421.84,Single-ply,SBD,M,
Boys,139.71,DQ,Cristian Ramirez,San Saba,124.92,290.3,136.08,,,Single-ply,SBD,M,
Boys,139.71+,1,Damian Sanchez,Brownwood,144.33,215.46,147.42,183.7,546.58,Single-ply,SBD,M,
Boys,139.71+,2,Jeremiah Bales,Marble Falls,146.42,192.78,124.74,183.7,501.22,Single-ply,SBD,M,
Boys,139.71+,3,Daylon Smith,San Saba,156.49,170.1,124.74,158.76,453.59,Single-ply,SBD,M,
Boys,,NS,Adrian Solis,Brady,,,,,,Single-ply,SBD,M,
Boys,,NS,Angelo Lopez,Brady,,,,,,Single-ply,SBD,M,
